n2376__1_3_1_1,n2376__1_3_1_1_3
n2377__1_3_1_1,n2377__1_3_1_1_3
n2378__1_3_1_1,n2378__1_3_1_1_3
n2379__1_3_1_1,n2379__1_3_1_1_3
n2380__1_3_1_1,n2380__1_3_1_1_3
n2381__1_3_1_1,n2381__1_3_1_1_3
n2382__1_3_1_1,n2382__1_3_1_1_3
n2383__1_3_1_1,n2383__1_3_1_1_3
n2384__1_3_1_1,n2384__1_3_1_1_3
n2385__1_3_1_1,n2385__1_3_1_1_3
n2386__1_3_1_1,n2386__1_3_1_1_3
n2387__1_3_1_1,n2387__1_3_1_1_3
n2388__1_3_1_1,n2388__1_3_1_1_3
n2389__1_3_1_1,n2389__1_3_1_1_3
n2390__1_3_1_1,n2390__1_3_1_1_3
n2391__1_3_1_1,n2391__1_3_1_1_3
n2392__1_3_1_1,n2392__1_3_1_1_3
n2393__1_3_1_1,n2393__1_3_1_1_3
n2394__1_3_1_1,n2394__1_3_1_1_3
n2395__1_3_1_1,n2395__1_3_1_1_3
n2396__1_3_1_1,n2396__1_3_1_1_3
n2397__1_3_1_1,n2397__1_3_1_1_3
n2398__1_3_1_1,n2398__1_3_1_1_3
n2399__1_3_1_1,n2399__1_3_1_1_3
n2400__1_3_1_1,n2400__1_3_1_1_3
n2401__1_3_1_1,n2401__1_3_1_1_3
n2402__1_3_1_1,n2402__1_3_1_1_3
n2403__1_3_1_1,n2403__1_3_1_1_3
n2404__1_3_1_1,n2404__1_3_1_1_3
n2405__1_3_1_1,n2405__1_3_1_1_3
n2406__1_3_1_1,n2406__1_3_1_1_3
n2407__1_3_1_1,n2407__1_3_1_1_3
n2408__1_3_1_1,n2408__1_3_1_1_3
n2409__1_3_1_1,n2409__1_3_1_1_3
n2410__1_3_1_1,n2410__1_3_1_1_3
n2411__1_3_1_1,n2411__1_3_1_1_3
n2412__1_3_1_1,n2412__1_3_1_1_3
n2413__1_3_1_1,n2413__1_3_1_1_3
n2414__1_3_1_1,n2414__1_3_1_1_3
n2415__1_3_1_1,n2415__1_3_1_1_3
n2416__1_3_1_1,n2416__1_3_1_1_3
n2417__1_3_1_1,n2417__1_3_1_1_3
n2418__1_3_1_1,n2418__1_3_1_1_3
n2419__1_3_1_1,n2419__1_3_1_1_3
n2420__1_3_1_1,n2420__1_3_1_1_3
n2421__1_3_1_1,n2421__1_3_1_1_3
n2422__1_3_1_1,n2422__1_3_1_1_3
n2423__1_3_1_1,n2423__1_3_1_1_3
n2424__1_3_1_1,n2424__1_3_1_1_3
n2425__1_3_1_1,n2425__1_3_1_1_3
n2426__1_3_1_1,n2426__1_3_1_1_3
n2427__1_3_1_1,n2427__1_3_1_1_3
n2428__1_3_1_1,n2428__1_3_1_1_3
n2429__1_3_1_1,n2429__1_3_1_1_3
n2430__1_3_1_1,n2430__1_3_1_1_3
n2431__1_3_1_1,n2431__1_3_1_1_3
n2432__1_3_1_1,n2432__1_3_1_1_3
n2433__1_3_1_1,n2433__1_3_1_1_3
n2434__1_3_1_1,n2434__1_3_1_1_3
n2435__1_3_1_1,n2435__1_3_1_1_3
n2436__1_3_1_1,n2436__1_3_1_1_3
n2437__1_3_1_1,n2437__1_3_1_1_3
n2438__1_3_1_1,n2438__1_3_1_1_3
n2439__1_3_1_1,n2439__1_3_1_1_3
n2440__1_3_1_1,n2440__1_3_1_1_3
n2441__1_3_1_1,n2441__1_3_1_1_3
n2442__1_3_1_1,n2442__1_3_1_1_3
n2443__1_3_1_1,n2443__1_3_1_1_3
n2444__1_3_1_1,n2444__1_3_1_1_3
n2445__1_3_1_1,n2445__1_3_1_1_3
n2446__1_3_1_1,n2446__1_3_1_1_3
n2447__1_3_1_1,n2447__1_3_1_1_3
n2448__1_3_1_1,n2448__1_3_1_1_3
n2449__1_3_1_1,n2449__1_3_1_1_3
n2450__1_3_1_1,n2450__1_3_1_1_3
n2451__1_3_1_1,n2451__1_3_1_1_3
n2452__1_3_1_1,n2452__1_3_1_1_3
n2453__1_3_1_1,n2453__1_3_1_1_3
n2454__1_3_1_1,n2454__1_3_1_1_3
n2455__1_3_1_1,n2455__1_3_1_1_3
n2456__1_3_1_1,n2456__1_3_1_1_3
n2457__1_3_1_1,n2457__1_3_1_1_3
n2458__1_3_1_1,n2458__1_3_1_1_3
n2459__1_3_1_1,n2459__1_3_1_1_3
n2460__1_3_1_1,n2460__1_3_1_1_3
n2461__1_3_1_1,n2461__1_3_1_1_3
n2462__1_3_1_1,n2462__1_3_1_1_3
n2463__1_3_1_1,n2463__1_3_1_1_3
n2464__1_3_1_1,n2464__1_3_1_1_3
n2465__1_3_1_1,n2465__1_3_1_1_3
n2466__1_3_1_1,n2466__1_3_1_1_3
n2467__1_3_1_1,n2467__1_3_1_1_3
n2468__1_3_1_1,n2468__1_3_1_1_3
n2469__1_3_1_1,n2469__1_3_1_1_3
n2470__1_3_1_1,n2470__1_3_1_1_3
n2471__1_3_1_1,n2471__1_3_1_1_3
n2472__1_3_1_1,n2472__1_3_1_1_3
n2473__1_3_1_1,n2473__1_3_1_1_3
n2474__1_3_1_1,n2474__1_3_1_1_3
n2475__1_3_1_1,n2475__1_3_1_1_3
n2476__1_3_1_1,n2476__1_3_1_1_3
n2477__1_3_1_1,n2477__1_3_1_1_3
n2478__1_3_1_1,n2478__1_3_1_1_3
n2479__1_3_1_1,n2479__1_3_1_1_3
n2480__1_3_1_1,n2480__1_3_1_1_3
n2481__1_3_1_1,n2481__1_3_1_1_3
n2482__1_3_1_1,n2482__1_3_1_1_3
n2483__1_3_1_1,n2483__1_3_1_1_3
n2484__1_3_1_1,n2484__1_3_1_1_3
n2485__1_3_1_1,n2485__1_3_1_1_3
n2486__1_3_1_1,n2486__1_3_1_1_3
n2487__1_3_1_1,n2487__1_3_1_1_3
n2488__1_3_1_1,n2488__1_3_1_1_3
n2489__1_3_1_1,n2489__1_3_1_1_3
n2490__1_3_1_1,n2490__1_3_1_1_3
n2491__1_3_1_1,n2491__1_3_1_1_3
n2492__1_3_1_1,n2492__1_3_1_1_3
n2493__1_3_1_1,n2493__1_3_1_1_3
n2494__1_3_1_1,n2494__1_3_1_1_3
n2495__1_3_1_1,n2495__1_3_1_1_3
n2496__1_3_1_1,n2496__1_3_1_1_3
n2497__1_3_1_1,n2497__1_3_1_1_3
n2498__1_3_1_1,n2498__1_3_1_1_3
n2499__1_3_1_1,n2499__1_3_1_1_3
n2500__1_3_1_1,n2500__1_3_1_1_3
n2501__1_3_1_1,n2501__1_3_1_1_3
n2502__1_3_1_1,n2502__1_3_1_1_3
n2503__1_3_1_1,n2503__1_3_1_1_3
n2504__1_3_1_1,n2504__1_3_1_1_3
n2505__1_3_1_1,n2505__1_3_1_1_3
n2506__1_3_1_1,n2506__1_3_1_1_3
n2507__1_3_1_1,n2507__1_3_1_1_3
n2508__1_3_1_1,n2508__1_3_1_1_3
n2509__1_3_1_1,n2509__1_3_1_1_3
n2510__1_3_1_1,n2510__1_3_1_1_3
n2511__1_3_1_1,n2511__1_3_1_1_3
n2512__1_3_1_1,n2512__1_3_1_1_3
n2513__1_3_1_1,n2513__1_3_1_1_3
n2514__1_3_1_1,n2514__1_3_1_1_3
n2515__1_3_1_1,n2515__1_3_1_1_3
n2516__1_3_1_1,n2516__1_3_1_1_3
n2517__1_3_1_1,n2517__1_3_1_1_3
n2518__1_3_1_1,n2518__1_3_1_1_3
n2519__1_3_1_1,n2519__1_3_1_1_3
n2520__1_3_1_1,n2520__1_3_1_1_3
n2521__1_3_1_1,n2521__1_3_1_1_3
n2522__1_3_1_1,n2522__1_3_1_1_3
n2523__1_3_1_1,n2523__1_3_1_1_3
n2524__1_3_1_1,n2524__1_3_1_1_3
n2525__1_3_1_1,n2525__1_3_1_1_3
n2526__1_3_1_1,n2526__1_3_1_1_3
n2527__1_3_1_1,n2527__1_3_1_1_3
n2528__1_3_1_1,n2528__1_3_1_1_3
n2529__1_3_1_1,n2529__1_3_1_1_3
n2530__1_3_1_1,n2530__1_3_1_1_3
n2531__1_3_1_1,n2531__1_3_1_1_3
n2532__1_3_1_1,n2532__1_3_1_1_3
n2533__1_3_1_1,n2533__1_3_1_1_3
n2534__1_3_1_1,n2534__1_3_1_1_3
n2535__1_3_1_1,n2535__1_3_1_1_3
n2536__1_3_1_1,n2536__1_3_1_1_3
n2537__1_3_1_1,n2537__1_3_1_1_3
n2538__1_3_1_1,n2538__1_3_1_1_3
n2539__1_3_1_1,n2539__1_3_1_1_3
n2540__1_3_1_1,n2540__1_3_1_1_3
n2541__1_3_1_1,n2541__1_3_1_1_3
n2542__1_3_1_1,n2542__1_3_1_1_3
n2543__1_3_1_1,n2543__1_3_1_1_3
n2544__1_3_1_1,n2544__1_3_1_1_3
n2545__1_3_1_1,n2545__1_3_1_1_3
n2546__1_3_1_1,n2546__1_3_1_1_3
n2547__1_3_1_1,n2547__1_3_1_1_3
n2548__1_3_1_1,n2548__1_3_1_1_3
n2549__1_3_1_1,n2549__1_3_1_1_3
n2550__1_3_1_1,n2550__1_3_1_1_3
n2551__1_3_1_1,n2551__1_3_1_1_3
n2552__1_3_1_1,n2552__1_3_1_1_3
n2553__1_3_1_1,n2553__1_3_1_1_3
n2554__1_3_1_1,n2554__1_3_1_1_3
n2555__1_3_1_1,n2555__1_3_1_1_3
n2556__1_3_1_1,n2556__1_3_1_1_3
n2557__1_3_1_1,n2557__1_3_1_1_3
n2558__1_3_1_1,n2558__1_3_1_1_3
n2559__1_3_1_1,n2559__1_3_1_1_3
n2560__1_3_1_1,n2560__1_3_1_1_3
n2561__1_3_1_1,n2561__1_3_1_1_3
n2562__1_3_1_1,n2562__1_3_1_1_3
n2563__1_3_1_1,n2563__1_3_1_1_3
n2564__1_3_1_1,n2564__1_3_1_1_3
n2565__1_3_1_1,n2565__1_3_1_1_3
n2566__1_3_1_1,n2566__1_3_1_1_3
n2567__1_3_1_1,n2567__1_3_1_1_3
n2568__1_3_1_1,n2568__1_3_1_1_3
n2569__1_3_1_1,n2569__1_3_1_1_3
n2570__1_3_1_1,n2570__1_3_1_1_3
n2571__1_3_1_1,n2571__1_3_1_1_3
n2572__1_3_1_1,n2572__1_3_1_1_3
n2573__1_3_1_1,n2573__1_3_1_1_3
n2574__1_3_1_1,n2574__1_3_1_1_3
n2575__1_3_1_1,n2575__1_3_1_1_3
n2576__1_3_1_1,n2576__1_3_1_1_3
n2577__1_3_1_1,n2577__1_3_1_1_3
n2578__1_3_1_1,n2578__1_3_1_1_3
n2579__1_3_1_1,n2579__1_3_1_1_3
n2580__1_3_1_1,n2580__1_3_1_1_3
n2581__1_3_1_1,n2581__1_3_1_1_3
n2582__1_3_1_1,n2582__1_3_1_1_3
n2583__1_3_1_1,n2583__1_3_1_1_3
n2584__1_3_1_1,n2584__1_3_1_1_3
n2585__1_3_1_1,n2585__1_3_1_1_3
n2586__1_3_1_1,n2586__1_3_1_1_3
n2587__1_3_1_1,n2587__1_3_1_1_3
n2588__1_3_1_1,n2588__1_3_1_1_3
n2589__1_3_1_1,n2589__1_3_1_1_3
n2590__1_3_1_1,n2590__1_3_1_1_3
n2591__1_3_1_1,n2591__1_3_1_1_3
n2592__1_3_1_1,n2592__1_3_1_1_3
n2593__1_3_1_1,n2593__1_3_1_1_3
n2594__1_3_1_1,n2594__1_3_1_1_3
n2595__1_3_1_1,n2595__1_3_1_1_3
n2596__1_3_1_1,n2596__1_3_1_1_3
n2597__1_3_1_1,n2597__1_3_1_1_3
n2598__1_3_1_1,n2598__1_3_1_1_3
n2599__1_3_1_1,n2599__1_3_1_1_3
n2600__1_3_1_1,n2600__1_3_1_1_3
n2601__1_3_1_1,n2601__1_3_1_1_3
n2602__1_3_1_1,n2602__1_3_1_1_3
n2603__1_3_1_1,n2603__1_3_1_1_3
n2604__1_3_1_1,n2604__1_3_1_1_3
n2605__1_3_1_1,n2605__1_3_1_1_3
n2606__1_3_1_1,n2606__1_3_1_1_3
n2607__1_3_1_1,n2607__1_3_1_1_3
n2608__1_3_1_1,n2608__1_3_1_1_3
n2609__1_3_1_1,n2609__1_3_1_1_3
n2610__1_3_1_1,n2610__1_3_1_1_3
n2611__1_3_1_1,n2611__1_3_1_1_3
n2612__1_3_1_1,n2612__1_3_1_1_3
n2613__1_3_1_1,n2613__1_3_1_1_3
n2614__1_3_1_1,n2614__1_3_1_1_3
n2615__1_3_1_1,n2615__1_3_1_1_3
n2616__1_3_1_1,n2616__1_3_1_1_3
n2617__1_3_1_1,n2617__1_3_1_1_3
n2618__1_3_1_1,n2618__1_3_1_1_3
n2619__1_3_1_1,n2619__1_3_1_1_3
n2620__1_3_1_1,n2620__1_3_1_1_3
n2621__1_3_1_1,n2621__1_3_1_1_3
n2622__1_3_1_1,n2622__1_3_1_1_3
n2623__1_3_1_1,n2623__1_3_1_1_3
n2624__1_3_1_1,n2624__1_3_1_1_3
n2625__1_3_1_1,n2625__1_3_1_1_3
n2626__1_3_1_1,n2626__1_3_1_1_3
n2627__1_3_1_1,n2627__1_3_1_1_3
n2628__1_3_1_1,n2628__1_3_1_1_3
n2629__1_3_1_1,n2629__1_3_1_1_3
n2630__1_3_1_1,n2630__1_3_1_1_3
n2631__1_3_1_1,n2631__1_3_1_1_3
n2632__1_3_1_1,n2632__1_3_1_1_3
n2633__1_3_1_1,n2633__1_3_1_1_3
n2634__1_3_1_1,n2634__1_3_1_1_3
n2635__1_3_1_1,n2635__1_3_1_1_3
n2636__1_3_1_1,n2636__1_3_1_1_3
n2637__1_3_1_1,n2637__1_3_1_1_3
n2638__1_3_1_1,n2638__1_3_1_1_3
n2639__1_3_1_1,n2639__1_3_1_1_3
n2640__1_3_1_1,n2640__1_3_1_1_3
n2641__1_3_1_1,n2641__1_3_1_1_3
n2642__1_3_1_1,n2642__1_3_1_1_3
n2643__1_3_1_1,n2643__1_3_1_1_3
n2644__1_3_1_1,n2644__1_3_1_1_3
n2645__1_3_1_1,n2645__1_3_1_1_3
n2646__1_3_1_1,n2646__1_3_1_1_3
n2647__1_3_1_1,n2647__1_3_1_1_3
n2648__1_3_1_1,n2648__1_3_1_1_3
n2649__1_3_1_1,n2649__1_3_1_1_3
n2650__1_3_1_1,n2650__1_3_1_1_3
n2651__1_3_1_1,n2651__1_3_1_1_3
n2652__1_3_1_1,n2652__1_3_1_1_3
n2653__1_3_1_1,n2653__1_3_1_1_3
n2654__1_3_1_1,n2654__1_3_1_1_3
n2655__1_3_1_1,n2655__1_3_1_1_3
n2656__1_3_1_1,n2656__1_3_1_1_3
n2657__1_3_1_1,n2657__1_3_1_1_3
n2658__1_3_1_1,n2658__1_3_1_1_3
n2659__1_3_1_1,n2659__1_3_1_1_3
n2660__1_3_1_1,n2660__1_3_1_1_3
n2661__1_3_1_1,n2661__1_3_1_1_3
n2662__1_3_1_1,n2662__1_3_1_1_3
n2663__1_3_1_1,n2663__1_3_1_1_3
n2664__1_3_1_1,n2664__1_3_1_1_3
n2665__1_3_1_1,n2665__1_3_1_1_3
n2666__1_3_1_1,n2666__1_3_1_1_3
n2667__1_3_1_1,n2667__1_3_1_1_3
n2668__1_3_1_1,n2668__1_3_1_1_3
n2669__1_3_1_1,n2669__1_3_1_1_3
n2670__1_3_1_1,n2670__1_3_1_1_3
n2671__1_3_1_1,n2671__1_3_1_1_3
n2672__1_3_1_1,n2672__1_3_1_1_3
n2673__1_3_1_1,n2673__1_3_1_1_3
n2674__1_3_1_1,n2674__1_3_1_1_3
n2675__1_3_1_1,n2675__1_3_1_1_3
n2676__1_3_1_1,n2676__1_3_1_1_3
n2677__1_3_1_1,n2677__1_3_1_1_3
n2678__1_3_1_1,n2678__1_3_1_1_3
n2679__1_3_1_1,n2679__1_3_1_1_3
n2680__1_3_1_1,n2680__1_3_1_1_3
n2681__1_3_1_1,n2681__1_3_1_1_3
n2682__1_3_1_1,n2682__1_3_1_1_3
n2683__1_3_1_1,n2683__1_3_1_1_3
n2684__1_3_1_1,n2684__1_3_1_1_3
n2685__1_3_1_1,n2685__1_3_1_1_3
n2686__1_3_1_1,n2686__1_3_1_1_3
n2687__1_3_1_1,n2687__1_3_1_1_3
n2688__1_3_1_1,n2688__1_3_1_1_3
n2689__1_3_1_1,n2689__1_3_1_1_3
n2690__1_3_1_1,n2690__1_3_1_1_3
n2691__1_3_1_1,n2691__1_3_1_1_3
n2692__1_3_1_1,n2692__1_3_1_1_3
n2693__1_3_1_1,n2693__1_3_1_1_3
n2694__1_3_1_1,n2694__1_3_1_1_3
n2695__1_3_1_1,n2695__1_3_1_1_3
n2696__1_3_1_1,n2696__1_3_1_1_3
n2697__1_3_1_1,n2697__1_3_1_1_3
n2698__1_3_1_1,n2698__1_3_1_1_3
n2699__1_3_1_1,n2699__1_3_1_1_3
n2700__1_3_1_1,n2700__1_3_1_1_3
n2701__1_3_1_1,n2701__1_3_1_1_3
n2702__1_3_1_1,n2702__1_3_1_1_3
n2703__1_3_1_1,n2703__1_3_1_1_3
n2704__1_3_1_1,n2704__1_3_1_1_3
n2705__1_3_1_1,n2705__1_3_1_1_3
n2706__1_3_1_1,n2706__1_3_1_1_3
n2707__1_3_1_1,n2707__1_3_1_1_3
n2708__1_3_1_1,n2708__1_3_1_1_3
n2709__1_3_1_1,n2709__1_3_1_1_3
n2710__1_3_1_1,n2710__1_3_1_1_3
n2711__1_3_1_1,n2711__1_3_1_1_3
n2712__1_3_1_1,n2712__1_3_1_1_3
n2713__1_3_1_1,n2713__1_3_1_1_3
n2714__1_3_1_1,n2714__1_3_1_1_3
n2715__1_3_1_1,n2715__1_3_1_1_3
n2716__1_3_1_1,n2716__1_3_1_1_3
n2717__1_3_1_1,n2717__1_3_1_1_3
n2718__1_3_1_1,n2718__1_3_1_1_3
n2719__1_3_1_1,n2719__1_3_1_1_3
n2720__1_3_1_1,n2720__1_3_1_1_3
n2721__1_3_1_1,n2721__1_3_1_1_3
n2722__1_3_1_1,n2722__1_3_1_1_3
n2723__1_3_1_1,n2723__1_3_1_1_3
n2724__1_3_1_1,n2724__1_3_1_1_3
n2725__1_3_1_1,n2725__1_3_1_1_3
n2726__1_3_1_1,n2726__1_3_1_1_3
n2727__1_3_1_1,n2727__1_3_1_1_3
n2728__1_3_1_1,n2728__1_3_1_1_3
n2729__1_3_1_1,n2729__1_3_1_1_3
n2730__1_3_1_1,n2730__1_3_1_1_3
n2731__1_3_1_1,n2731__1_3_1_1_3
n2732__1_3_1_1,n2732__1_3_1_1_3
n2733__1_3_1_1,n2733__1_3_1_1_3
n2734__1_3_1_1,n2734__1_3_1_1_3
n2735__1_3_1_1,n2735__1_3_1_1_3
n2736__1_3_1_1,n2736__1_3_1_1_3
n2737__1_3_1_1,n2737__1_3_1_1_3
n2738__1_3_1_1,n2738__1_3_1_1_3
n2739__1_3_1_1,n2739__1_3_1_1_3
n2740__1_3_1_1,n2740__1_3_1_1_3
n2741__1_3_1_1,n2741__1_3_1_1_3
n2742__1_3_1_1,n2742__1_3_1_1_3
n2743__1_3_1_1,n2743__1_3_1_1_3
n2744__1_3_1_1,n2744__1_3_1_1_3
n2745__1_3_1_1,n2745__1_3_1_1_3
n2746__1_3_1_1,n2746__1_3_1_1_3
n2747__1_3_1_1,n2747__1_3_1_1_3
n2748__1_3_1_1,n2748__1_3_1_1_3
n2749__1_3_1_1,n2749__1_3_1_1_3
n2750__1_3_1_1,n2750__1_3_1_1_3
n2751__1_3_1_1,n2751__1_3_1_1_3
n2752__1_3_1_1,n2752__1_3_1_1_3
n2753__1_3_1_1,n2753__1_3_1_1_3
n2754__1_3_1_1,n2754__1_3_1_1_3
n2755__1_3_1_1,n2755__1_3_1_1_3
n2756__1_3_1_1,n2756__1_3_1_1_3
n2757__1_3_1_1,n2757__1_3_1_1_3
n2758__1_3_1_1,n2758__1_3_1_1_3
n2759__1_3_1_1,n2759__1_3_1_1_3
n2760__1_3_1_1,n2760__1_3_1_1_3
n2761__1_3_1_1,n2761__1_3_1_1_3
n2762__1_3_1_1,n2762__1_3_1_1_3
n2763__1_3_1_1,n2763__1_3_1_1_3
n2764__1_3_1_1,n2764__1_3_1_1_3
n2765__1_3_1_1,n2765__1_3_1_1_3
n2766__1_3_1_1,n2766__1_3_1_1_3
n2767__1_3_1_1,n2767__1_3_1_1_3
n2768__1_3_1_1,n2768__1_3_1_1_3
n2769__1_3_1_1,n2769__1_3_1_1_3
n2770__1_3_1_1,n2770__1_3_1_1_3
n2771__1_3_1_1,n2771__1_3_1_1_3
n2772__1_3_1_1,n2772__1_3_1_1_3
n2773__1_3_1_1,n2773__1_3_1_1_3
n2774__1_3_1_1,n2774__1_3_1_1_3
n2775__1_3_1_1,n2775__1_3_1_1_3
n2776__1_3_1_1,n2776__1_3_1_1_3
n2777__1_3_1_1,n2777__1_3_1_1_3
n2778__1_3_1_1,n2778__1_3_1_1_3
n2779__1_3_1_1,n2779__1_3_1_1_3
n2780__1_3_1_1,n2780__1_3_1_1_3
n2781__1_3_1_1,n2781__1_3_1_1_3
n2782__1_3_1_1,n2782__1_3_1_1_3
n2783__1_3_1_1,n2783__1_3_1_1_3
n2784__1_3_1_1,n2784__1_3_1_1_3
n2785__1_3_1_1,n2785__1_3_1_1_3
n2786__1_3_1_1,n2786__1_3_1_1_3
n2787__1_3_1_1,n2787__1_3_1_1_3
n2788__1_3_1_1,n2788__1_3_1_1_3
n2789__1_3_1_1,n2789__1_3_1_1_3
n2790__1_3_1_1,n2790__1_3_1_1_3
n2791__1_3_1_1,n2791__1_3_1_1_3
n2792__1_3_1_1,n2792__1_3_1_1_3
n2793__1_3_1_1,n2793__1_3_1_1_3
n2794__1_3_1_1,n2794__1_3_1_1_3
n2795__1_3_1_1,n2795__1_3_1_1_3
n2796__1_3_1_1,n2796__1_3_1_1_3
n2797__1_3_1_1,n2797__1_3_1_1_3
n2798__1_3_1_1,n2798__1_3_1_1_3
n2799__1_3_1_1,n2799__1_3_1_1_3
n2800__1_3_1_1,n2800__1_3_1_1_3
n2801__1_3_1_1,n2801__1_3_1_1_3
n2802__1_3_1_1,n2802__1_3_1_1_3
n2803__1_3_1_1,n2803__1_3_1_1_3
n2804__1_3_1_1,n2804__1_3_1_1_3
n2805__1_3_1_1,n2805__1_3_1_1_3
n2806__1_3_1_1,n2806__1_3_1_1_3
n2807__1_3_1_1,n2807__1_3_1_1_3
n2808__1_3_1_1,n2808__1_3_1_1_3
n2809__1_3_1_1,n2809__1_3_1_1_3
n2810__1_3_1_1,n2810__1_3_1_1_3
n2811__1_3_1_1,n2811__1_3_1_1_3
n2812__1_3_1_1,n2812__1_3_1_1_3
n2813__1_3_1_1,n2813__1_3_1_1_3
n2814__1_3_1_1,n2814__1_3_1_1_3
n2815__1_3_1_1,n2815__1_3_1_1_3
n2816__1_3_1_1,n2816__1_3_1_1_3
n2817__1_3_1_1,n2817__1_3_1_1_3
n2818__1_3_1_1,n2818__1_3_1_1_3
n2819__1_3_1_1,n2819__1_3_1_1_3
n2820__1_3_1_1,n2820__1_3_1_1_3
n2821__1_3_1_1,n2821__1_3_1_1_3
n2822__1_3_1_1,n2822__1_3_1_1_3
n2823__1_3_1_1,n2823__1_3_1_1_3
n2824__1_3_1_1,n2824__1_3_1_1_3
n2825__1_3_1_1,n2825__1_3_1_1_3
n2826__1_3_1_1,n2826__1_3_1_1_3
n2827__1_3_1_1,n2827__1_3_1_1_3
n2828__1_3_1_1,n2828__1_3_1_1_3
n2829__1_3_1_1,n2829__1_3_1_1_3
n2830__1_3_1_1,n2830__1_3_1_1_3
n2831__1_3_1_1,n2831__1_3_1_1_3
n2832__1_3_1_1,n2832__1_3_1_1_3
n2833__1_3_1_1,n2833__1_3_1_1_3
n2834__1_3_1_1,n2834__1_3_1_1_3
n2835__1_3_1_1,n2835__1_3_1_1_3
n2836__1_3_1_1,n2836__1_3_1_1_3
n2837__1_3_1_1,n2837__1_3_1_1_3
n2838__1_3_1_1,n2838__1_3_1_1_3
n2839__1_3_1_1,n2839__1_3_1_1_3
n2840__1_3_1_1,n2840__1_3_1_1_3
n2841__1_3_1_1,n2841__1_3_1_1_3
n2842__1_3_1_1,n2842__1_3_1_1_3
n2843__1_3_1_1,n2843__1_3_1_1_3
n2844__1_3_1_1,n2844__1_3_1_1_3
n2845__1_3_1_1,n2845__1_3_1_1_3
n2846__1_3_1_1,n2846__1_3_1_1_3
n2847__1_3_1_1,n2847__1_3_1_1_3
n2848__1_3_1_1,n2848__1_3_1_1_3
n2849__1_3_1_1,n2849__1_3_1_1_3
n2850__1_3_1_1,n2850__1_3_1_1_3
n2851__1_3_1_1,n2851__1_3_1_1_3
n2852__1_3_1_1,n2852__1_3_1_1_3
n2853__1_3_1_1,n2853__1_3_1_1_3
n2854__1_3_1_1,n2854__1_3_1_1_3
n2855__1_3_1_1,n2855__1_3_1_1_3
n2856__1_3_1_1,n2856__1_3_1_1_3
n2857__1_3_1_1,n2857__1_3_1_1_3
n2858__1_3_1_1,n2858__1_3_1_1_3
n2859__1_3_1_1,n2859__1_3_1_1_3
n2860__1_3_1_1,n2860__1_3_1_1_3
n2861__1_3_1_1,n2861__1_3_1_1_3
n2862__1_3_1_1,n2862__1_3_1_1_3
n2863__1_3_1_1,n2863__1_3_1_1_3
n2864__1_3_1_1,n2864__1_3_1_1_3
n2865__1_3_1_1,n2865__1_3_1_1_3
n2866__1_3_1_1,n2866__1_3_1_1_3
n2867__1_3_1_1,n2867__1_3_1_1_3
n2868__1_3_1_1,n2868__1_3_1_1_3
n2869__1_3_1_1,n2869__1_3_1_1_3
n2870__1_3_1_1,n2870__1_3_1_1_3
n2871__1_3_1_1,n2871__1_3_1_1_3
n2872__1_3_1_1,n2872__1_3_1_1_3
n2873__1_3_1_1,n2873__1_3_1_1_3
n2874__1_3_1_1,n2874__1_3_1_1_3
n2875__1_3_1_1,n2875__1_3_1_1_3
n2876__1_3_1_1,n2876__1_3_1_1_3
n2877__1_3_1_1,n2877__1_3_1_1_3
n2878__1_3_1_1,n2878__1_3_1_1_3
n2879__1_3_1_1,n2879__1_3_1_1_3
n2880__1_3_1_1,n2880__1_3_1_1_3
n2881__1_3_1_1,n2881__1_3_1_1_3
n2882__1_3_1_1,n2882__1_3_1_1_3
n2883__1_3_1_1,n2883__1_3_1_1_3
n2884__1_3_1_1,n2884__1_3_1_1_3
n2885__1_3_1_1,n2885__1_3_1_1_3
n2886__1_3_1_1,n2886__1_3_1_1_3
n2887__1_3_1_1,n2887__1_3_1_1_3
n2888__1_3_1_1,n2888__1_3_1_1_3
n2889__1_3_1_1,n2889__1_3_1_1_3
n2890__1_3_1_1,n2890__1_3_1_1_3
n2891__1_3_1_1,n2891__1_3_1_1_3
n2892__1_3_1_1,n2892__1_3_1_1_3
n2893__1_3_1_1,n2893__1_3_1_1_3
n2894__1_3_1_1,n2894__1_3_1_1_3
n2895__1_3_1_1,n2895__1_3_1_1_3
n2896__1_3_1_1,n2896__1_3_1_1_3
n2897__1_3_1_1,n2897__1_3_1_1_3
n2898__1_3_1_1,n2898__1_3_1_1_3
n2899__1_3_1_1,n2899__1_3_1_1_3
n2900__1_3_1_1,n2900__1_3_1_1_3
n2901__1_3_1_1,n2901__1_3_1_1_3
n2902__1_3_1_1,n2902__1_3_1_1_3
n2903__1_3_1_1,n2903__1_3_1_1_3
n2904__1_3_1_1,n2904__1_3_1_1_3
n2905__1_3_1_1,n2905__1_3_1_1_3
n2906__1_3_1_1,n2906__1_3_1_1_3
n2907__1_3_1_1,n2907__1_3_1_1_3
n2908__1_3_1_1,n2908__1_3_1_1_3
n2909__1_3_1_1,n2909__1_3_1_1_3
n2910__1_3_1_1,n2910__1_3_1_1_3
n2911__1_3_1_1,n2911__1_3_1_1_3
n2912__1_3_1_1,n2912__1_3_1_1_3
n2913__1_3_1_1,n2913__1_3_1_1_3
n2914__1_3_1_1,n2914__1_3_1_1_3
n2915__1_3_1_1,n2915__1_3_1_1_3
n2916__1_3_1_1,n2916__1_3_1_1_3
n2917__1_3_1_1,n2917__1_3_1_1_3
n2918__1_3_1_1,n2918__1_3_1_1_3
n2919__1_3_1_1,n2919__1_3_1_1_3
n2920__1_3_1_1,n2920__1_3_1_1_3
n2921__1_3_1_1,n2921__1_3_1_1_3
n2922__1_3_1_1,n2922__1_3_1_1_3
n2923__1_3_1_1,n2923__1_3_1_1_3
n2924__1_3_1_1,n2924__1_3_1_1_3
n2925__1_3_1_1,n2925__1_3_1_1_3
n2926__1_3_1_1,n2926__1_3_1_1_3
n2927__1_3_1_1,n2927__1_3_1_1_3
n2928__1_3_1_1,n2928__1_3_1_1_3
n2929__1_3_1_1,n2929__1_3_1_1_3
n2930__1_3_1_1,n2930__1_3_1_1_3
n2931__1_3_1_1,n2931__1_3_1_1_3
n2932__1_3_1_1,n2932__1_3_1_1_3
n2933__1_3_1_1,n2933__1_3_1_1_3
n2934__1_3_1_1,n2934__1_3_1_1_3
n2935__1_3_1_1,n2935__1_3_1_1_3
n2936__1_3_1_1,n2936__1_3_1_1_3
n2937__1_3_1_1,n2937__1_3_1_1_3
n2938__1_3_1_1,n2938__1_3_1_1_3
n2939__1_3_1_1,n2939__1_3_1_1_3
n2940__1_3_1_1,n2940__1_3_1_1_3
n2941__1_3_1_1,n2941__1_3_1_1_3
n2942__1_3_1_1,n2942__1_3_1_1_3
n2943__1_3_1_1,n2943__1_3_1_1_3
n2944__1_3_1_1,n2944__1_3_1_1_3
n2945__1_3_1_1,n2945__1_3_1_1_3
n2946__1_3_1_1,n2946__1_3_1_1_3
n2947__1_3_1_1,n2947__1_3_1_1_3
n2948__1_3_1_1,n2948__1_3_1_1_3
n2949__1_3_1_1,n2949__1_3_1_1_3
n2950__1_3_1_1,n2950__1_3_1_1_3
n2951__1_3_1_1,n2951__1_3_1_1_3
n2952__1_3_1_1,n2952__1_3_1_1_3
n2953__1_3_1_1,n2953__1_3_1_1_3
n2954__1_3_1_1,n2954__1_3_1_1_3
n2955__1_3_1_1,n2955__1_3_1_1_3
n2956__1_3_1_1,n2956__1_3_1_1_3
n2957__1_3_1_1,n2957__1_3_1_1_3
n2958__1_3_1_1,n2958__1_3_1_1_3
n2959__1_3_1_1,n2959__1_3_1_1_3
n2960__1_3_1_1,n2960__1_3_1_1_3
n2961__1_3_1_1,n2961__1_3_1_1_3
n2962__1_3_1_1,n2962__1_3_1_1_3
n2963__1_3_1_1,n2963__1_3_1_1_3
n2964__1_3_1_1,n2964__1_3_1_1_3
n2965__1_3_1_1,n2965__1_3_1_1_3
n2966__1_3_1_1,n2966__1_3_1_1_3
n2967__1_3_1_1,n2967__1_3_1_1_3
n2968__1_3_1_1,n2968__1_3_1_1_3
n2969__1_3_1_1,n2969__1_3_1_1_3
n2970__1_3_1_1,n2970__1_3_1_1_3
n2971__1_3_1_1,n2971__1_3_1_1_3
n2972__1_3_1_1,n2972__1_3_1_1_3
n2973__1_3_1_1,n2973__1_3_1_1_3
n2974__1_3_1_1,n2974__1_3_1_1_3
n2975__1_3_1_1,n2975__1_3_1_1_3
n2976__1_3_1_1,n2976__1_3_1_1_3
n2977__1_3_1_1,n2977__1_3_1_1_3
n2978__1_3_1_1,n2978__1_3_1_1_3
n2979__1_3_1_1,n2979__1_3_1_1_3
n2980__1_3_1_1,n2980__1_3_1_1_3
n2981__1_3_1_1,n2981__1_3_1_1_3
n2982__1_3_1_1,n2982__1_3_1_1_3
n2983__1_3_1_1,n2983__1_3_1_1_3
n2984__1_3_1_1,n2984__1_3_1_1_3
n2985__1_3_1_1,n2985__1_3_1_1_3
n2986__1_3_1_1,n2986__1_3_1_1_3
n2987__1_3_1_1,n2987__1_3_1_1_3
n2988__1_3_1_1,n2988__1_3_1_1_3
n2989__1_3_1_1,n2989__1_3_1_1_3
n2990__1_3_1_1,n2990__1_3_1_1_3
n2991__1_3_1_1,n2991__1_3_1_1_3
n2992__1_3_1_1,n2992__1_3_1_1_3
n2993__1_3_1_1,n2993__1_3_1_1_3
n2994__1_3_1_1,n2994__1_3_1_1_3
n2995__1_3_1_1,n2995__1_3_1_1_3
n2996__1_3_1_1,n2996__1_3_1_1_3
n2997__1_3_1_1,n2997__1_3_1_1_3
n2998__1_3_1_1,n2998__1_3_1_1_3
n2999__1_3_1_1,n2999__1_3_1_1_3
n3000__1_3_1_1,n3000__1_3_1_1_3
n3001__1_3_1_1,n3001__1_3_1_1_3
n3002__1_3_1_1,n3002__1_3_1_1_3
n3003__1_3_1_1,n3003__1_3_1_1_3
n3004__1_3_1_1,n3004__1_3_1_1_3
n3005__1_3_1_1,n3005__1_3_1_1_3
n3006__1_3_1_1,n3006__1_3_1_1_3
n3007__1_3_1_1,n3007__1_3_1_1_3
n3008__1_3_1_1,n3008__1_3_1_1_3
n3009__1_3_1_1,n3009__1_3_1_1_3
n3010__1_3_1_1,n3010__1_3_1_1_3
n3011__1_3_1_1,n3011__1_3_1_1_3
n3012__1_3_1_1,n3012__1_3_1_1_3
n3013__1_3_1_1,n3013__1_3_1_1_3
n3014__1_3_1_1,n3014__1_3_1_1_3
n3015__1_3_1_1,n3015__1_3_1_1_3
n3016__1_3_1_1,n3016__1_3_1_1_3
n3017__1_3_1_1,n3017__1_3_1_1_3
n3018__1_3_1_1,n3018__1_3_1_1_3
n3019__1_3_1_1,n3019__1_3_1_1_3
n3020__1_3_1_1,n3020__1_3_1_1_3
n3021__1_3_1_1,n3021__1_3_1_1_3
n3022__1_3_1_1,n3022__1_3_1_1_3
n3023__1_3_1_1,n3023__1_3_1_1_3
n3024__1_3_1_1,n3024__1_3_1_1_3
n3025__1_3_1_1,n3025__1_3_1_1_3
n3026__1_3_1_1,n3026__1_3_1_1_3
n3027__1_3_1_1,n3027__1_3_1_1_3
n3028__1_3_1_1,n3028__1_3_1_1_3
n3029__1_3_1_1,n3029__1_3_1_1_3
n3030__1_3_1_1,n3030__1_3_1_1_3
n3031__1_3_1_1,n3031__1_3_1_1_3
n3032__1_3_1_1,n3032__1_3_1_1_3
n3033__1_3_1_1,n3033__1_3_1_1_3
n3034__1_3_1_1,n3034__1_3_1_1_3
n3035__1_3_1_1,n3035__1_3_1_1_3
n3036__1_3_1_1,n3036__1_3_1_1_3
n3037__1_3_1_1,n3037__1_3_1_1_3
n3038__1_3_1_1,n3038__1_3_1_1_3
n3039__1_3_1_1,n3039__1_3_1_1_3
n3040__1_3_1_1,n3040__1_3_1_1_3
n3041__1_3_1_1,n3041__1_3_1_1_3
n3042__1_3_1_1,n3042__1_3_1_1_3
n3043__1_3_1_1,n3043__1_3_1_1_3
n3044__1_3_1_1,n3044__1_3_1_1_3
n3045__1_3_1_1,n3045__1_3_1_1_3
n3046__1_3_1_1,n3046__1_3_1_1_3
n3047__1_3_1_1,n3047__1_3_1_1_3
n3048__1_3_1_1,n3048__1_3_1_1_3
n3049__1_3_1_1,n3049__1_3_1_1_3
n3050__1_3_1_1,n3050__1_3_1_1_3
n3051__1_3_1_1,n3051__1_3_1_1_3
n3052__1_3_1_1,n3052__1_3_1_1_3
n3053__1_3_1_1,n3053__1_3_1_1_3
n3054__1_3_1_1,n3054__1_3_1_1_3
n3055__1_3_1_1,n3055__1_3_1_1_3
n3056__1_3_1_1,n3056__1_3_1_1_3
n3057__1_3_1_1,n3057__1_3_1_1_3
n3058__1_3_1_1,n3058__1_3_1_1_3
n3059__1_3_1_1,n3059__1_3_1_1_3
n3060__1_3_1_1,n3060__1_3_1_1_3
n3061__1_3_1_1,n3061__1_3_1_1_3
n3062__1_3_1_1,n3062__1_3_1_1_3
n3063__1_3_1_1,n3063__1_3_1_1_3
n3064__1_3_1_1,n3064__1_3_1_1_3
n3065__1_3_1_1,n3065__1_3_1_1_3
n3066__1_3_1_1,n3066__1_3_1_1_3
n3067__1_3_1_1,n3067__1_3_1_1_3
n3068__1_3_1_1,n3068__1_3_1_1_3
n3069__1_3_1_1,n3069__1_3_1_1_3
n3070__1_3_1_1,n3070__1_3_1_1_3
n3071__1_3_1_1,n3071__1_3_1_1_3
n3072__1_3_1_1,n3072__1_3_1_1_3
n3073__1_3_1_1,n3073__1_3_1_1_3
n3074__1_3_1_1,n3074__1_3_1_1_3
n3075__1_3_1_1,n3075__1_3_1_1_3
n3076__1_3_1_1,n3076__1_3_1_1_3
n3077__1_3_1_1,n3077__1_3_1_1_3
n3078__1_3_1_1,n3078__1_3_1_1_3
n3079__1_3_1_1,n3079__1_3_1_1_3
n3080__1_3_1_1,n3080__1_3_1_1_3
n3081__1_3_1_1,n3081__1_3_1_1_3
n3082__1_3_1_1,n3082__1_3_1_1_3
n3083__1_3_1_1,n3083__1_3_1_1_3
n3084__1_3_1_1,n3084__1_3_1_1_3
n3085__1_3_1_1,n3085__1_3_1_1_3
n3086__1_3_1_1,n3086__1_3_1_1_3
n3087__1_3_1_1,n3087__1_3_1_1_3
n3088__1_3_1_1,n3088__1_3_1_1_3
n3089__1_3_1_1,n3089__1_3_1_1_3
n3090__1_3_1_1,n3090__1_3_1_1_3
n3091__1_3_1_1,n3091__1_3_1_1_3
n3092__1_3_1_1,n3092__1_3_1_1_3
n3093__1_3_1_1,n3093__1_3_1_1_3
n3094__1_3_1_1,n3094__1_3_1_1_3
n3095__1_3_1_1,n3095__1_3_1_1_3
n3096__1_3_1_1,n3096__1_3_1_1_3
n3097__1_3_1_1,n3097__1_3_1_1_3
n3098__1_3_1_1,n3098__1_3_1_1_3
n3099__1_3_1_1,n3099__1_3_1_1_3
n3100__1_3_1_1,n3100__1_3_1_1_3
n3101__1_3_1_1,n3101__1_3_1_1_3
n3102__1_3_1_1,n3102__1_3_1_1_3
n3103__1_3_1_1,n3103__1_3_1_1_3
n3104__1_3_1_1,n3104__1_3_1_1_3
n3105__1_3_1_1,n3105__1_3_1_1_3
n3106__1_3_1_1,n3106__1_3_1_1_3
n3107__1_3_1_1,n3107__1_3_1_1_3
n3108__1_3_1_1,n3108__1_3_1_1_3
n3109__1_3_1_1,n3109__1_3_1_1_3
n3110__1_3_1_1,n3110__1_3_1_1_3
n3111__1_3_1_1,n3111__1_3_1_1_3
n3112__1_3_1_1,n3112__1_3_1_1_3
n3113__1_3_1_1,n3113__1_3_1_1_3
n3114__1_3_1_1,n3114__1_3_1_1_3
n3115__1_3_1_1,n3115__1_3_1_1_3
n3116__1_3_1_1,n3116__1_3_1_1_3
n3117__1_3_1_1,n3117__1_3_1_1_3
n3118__1_3_1_1,n3118__1_3_1_1_3
n3119__1_3_1_1,n3119__1_3_1_1_3
n3120__1_3_1_1,n3120__1_3_1_1_3
n3121__1_3_1_1,n3121__1_3_1_1_3
n3122__1_3_1_1,n3122__1_3_1_1_3
n3123__1_3_1_1,n3123__1_3_1_1_3
n3124__1_3_1_1,n3124__1_3_1_1_3
n3125__1_3_1_1,n3125__1_3_1_1_3
n3126__1_3_1_1,n3126__1_3_1_1_3
n3127__1_3_1_1,n3127__1_3_1_1_3
n3128__1_3_1_1,n3128__1_3_1_1_3
n3129__1_3_1_1,n3129__1_3_1_1_3
n3130__1_3_1_1,n3130__1_3_1_1_3
n3131__1_3_1_1,n3131__1_3_1_1_3
n3132__1_3_1_1,n3132__1_3_1_1_3
n3133__1_3_1_1,n3133__1_3_1_1_3
n3134__1_3_1_1,n3134__1_3_1_1_3
n3135__1_3_1_1,n3135__1_3_1_1_3
n3136__1_3_1_1,n3136__1_3_1_1_3
n3137__1_3_1_1,n3137__1_3_1_1_3
n3138__1_3_1_1,n3138__1_3_1_1_3
n3139__1_3_1_1,n3139__1_3_1_1_3
n3140__1_3_1_1,n3140__1_3_1_1_3
n3141__1_3_1_1,n3141__1_3_1_1_3
n3142__1_3_1_1,n3142__1_3_1_1_3
n3143__1_3_1_1,n3143__1_3_1_1_3
n3144__1_3_1_1,n3144__1_3_1_1_3
n3145__1_3_1_1,n3145__1_3_1_1_3
n3146__1_3_1_1,n3146__1_3_1_1_3
n3147__1_3_1_1,n3147__1_3_1_1_3
n3148__1_3_1_1,n3148__1_3_1_1_3
n3149__1_3_1_1,n3149__1_3_1_1_3
n3150__1_3_1_1,n3150__1_3_1_1_3
n3151__1_3_1_1,n3151__1_3_1_1_3
n3152__1_3_1_1,n3152__1_3_1_1_3
n3153__1_3_1_1,n3153__1_3_1_1_3
n3154__1_3_1_1,n3154__1_3_1_1_3
n3155__1_3_1_1,n3155__1_3_1_1_3
n3156__1_3_1_1,n3156__1_3_1_1_3
n3157__1_3_1_1,n3157__1_3_1_1_3
n3158__1_3_1_1,n3158__1_3_1_1_3
n3159__1_3_1_1,n3159__1_3_1_1_3
n3160__1_3_1_1,n3160__1_3_1_1_3
n3161__1_3_1_1,n3161__1_3_1_1_3
n3162__1_3_1_1,n3162__1_3_1_1_3
n3163__1_3_1_1,n3163__1_3_1_1_3
n3164__1_3_1_1,n3164__1_3_1_1_3
n3165__1_3_1_1,n3165__1_3_1_1_3
n3166__1_3_1_1,n3166__1_3_1_1_3
n3167__1_3_1_1,n3167__1_3_1_1_3
n3168__1_3_1_1,n3168__1_3_1_1_3
n3169__1_3_1_1,n3169__1_3_1_1_3
n3170__1_3_1_1,n3170__1_3_1_1_3
n3171__1_3_1_1,n3171__1_3_1_1_3
n3172__1_3_1_1,n3172__1_3_1_1_3
n3173__1_3_1_1,n3173__1_3_1_1_3
n3174__1_3_1_1,n3174__1_3_1_1_3
n3175__1_3_1_1,n3175__1_3_1_1_3
n3176__1_3_1_1,n3176__1_3_1_1_3
n3177__1_3_1_1,n3177__1_3_1_1_3
n3178__1_3_1_1,n3178__1_3_1_1_3
n3179__1_3_1_1,n3179__1_3_1_1_3
n3180__1_3_1_1,n3180__1_3_1_1_3
n3181__1_3_1_1,n3181__1_3_1_1_3
n3182__1_3_1_1,n3182__1_3_1_1_3
n3183__1_3_1_1,n3183__1_3_1_1_3
n3184__1_3_1_1,n3184__1_3_1_1_3
n3185__1_3_1_1,n3185__1_3_1_1_3
n3186__1_3_1_1,n3186__1_3_1_1_3
n3187__1_3_1_1,n3187__1_3_1_1_3
n3188__1_3_1_1,n3188__1_3_1_1_3
n3189__1_3_1_1,n3189__1_3_1_1_3
n3190__1_3_1_1,n3190__1_3_1_1_3
n3191__1_3_1_1,n3191__1_3_1_1_3
n3192__1_3_1_1,n3192__1_3_1_1_3
n3193__1_3_1_1,n3193__1_3_1_1_3
n3194__1_3_1_1,n3194__1_3_1_1_3
n3195__1_3_1_1,n3195__1_3_1_1_3
n3196__1_3_1_1,n3196__1_3_1_1_3
n3197__1_3_1_1,n3197__1_3_1_1_3
n3198__1_3_1_1,n3198__1_3_1_1_3
n3199__1_3_1_1,n3199__1_3_1_1_3
n3200__1_3_1_1,n3200__1_3_1_1_3
n3201__1_3_1_1,n3201__1_3_1_1_3
n3202__1_3_1_1,n3202__1_3_1_1_3
n3203__1_3_1_1,n3203__1_3_1_1_3
n3204__1_3_1_1,n3204__1_3_1_1_3
n3205__1_3_1_1,n3205__1_3_1_1_3
n3206__1_3_1_1,n3206__1_3_1_1_3
n3207__1_3_1_1,n3207__1_3_1_1_3
n3208__1_3_1_1,n3208__1_3_1_1_3
n3209__1_3_1_1,n3209__1_3_1_1_3
n3210__1_3_1_1,n3210__1_3_1_1_3
n3211__1_3_1_1,n3211__1_3_1_1_3
n3212__1_3_1_1,n3212__1_3_1_1_3
n3213__1_3_1_1,n3213__1_3_1_1_3
n3214__1_3_1_1,n3214__1_3_1_1_3
n3215__1_3_1_1,n3215__1_3_1_1_3
n3216__1_3_1_1,n3216__1_3_1_1_3
n3217__1_3_1_1,n3217__1_3_1_1_3
n3218__1_3_1_1,n3218__1_3_1_1_3
n3219__1_3_1_1,n3219__1_3_1_1_3
n3220__1_3_1_1,n3220__1_3_1_1_3
n3221__1_3_1_1,n3221__1_3_1_1_3
n3222__1_3_1_1,n3222__1_3_1_1_3
n3223__1_3_1_1,n3223__1_3_1_1_3
n3224__1_3_1_1,n3224__1_3_1_1_3
n3225__1_3_1_1,n3225__1_3_1_1_3
n3226__1_3_1_1,n3226__1_3_1_1_3
n3227__1_3_1_1,n3227__1_3_1_1_3
n3228__1_3_1_1,n3228__1_3_1_1_3
n3229__1_3_1_1,n3229__1_3_1_1_3
n3230__1_3_1_1,n3230__1_3_1_1_3
n3231__1_3_1_1,n3231__1_3_1_1_3
n3232__1_3_1_1,n3232__1_3_1_1_3
n3233__1_3_1_1,n3233__1_3_1_1_3
n3234__1_3_1_1,n3234__1_3_1_1_3
n3235__1_3_1_1,n3235__1_3_1_1_3
n3236__1_3_1_1,n3236__1_3_1_1_3
n3237__1_3_1_1,n3237__1_3_1_1_3
n3238__1_3_1_1,n3238__1_3_1_1_3
n3239__1_3_1_1,n3239__1_3_1_1_3
n3240__1_3_1_1,n3240__1_3_1_1_3
n3241__1_3_1_1,n3241__1_3_1_1_3
n3242__1_3_1_1,n3242__1_3_1_1_3
n3243__1_3_1_1,n3243__1_3_1_1_3
n3244__1_3_1_1,n3244__1_3_1_1_3
n3245__1_3_1_1,n3245__1_3_1_1_3
n3246__1_3_1_1,n3246__1_3_1_1_3
n3247__1_3_1_1,n3247__1_3_1_1_3
n3248__1_3_1_1,n3248__1_3_1_1_3
n3249__1_3_1_1,n3249__1_3_1_1_3
n3250__1_3_1_1,n3250__1_3_1_1_3
n3251__1_3_1_1,n3251__1_3_1_1_3
n3252__1_3_1_1,n3252__1_3_1_1_3
n3253__1_3_1_1,n3253__1_3_1_1_3
n3254__1_3_1_1,n3254__1_3_1_1_3
n3255__1_3_1_1,n3255__1_3_1_1_3
n3256__1_3_1_1,n3256__1_3_1_1_3
n3257__1_3_1_1,n3257__1_3_1_1_3
n3258__1_3_1_1,n3258__1_3_1_1_3
n3259__1_3_1_1,n3259__1_3_1_1_3
n3260__1_3_1_1,n3260__1_3_1_1_3
n3261__1_3_1_1,n3261__1_3_1_1_3
n3262__1_3_1_1,n3262__1_3_1_1_3
n3263__1_3_1_1,n3263__1_3_1_1_3
n3264__1_3_1_1,n3264__1_3_1_1_3
n3265__1_3_1_1,n3265__1_3_1_1_3
n3266__1_3_1_1,n3266__1_3_1_1_3
n3267__1_3_1_1,n3267__1_3_1_1_3
n3268__1_3_1_1,n3268__1_3_1_1_3
n3269__1_3_1_1,n3269__1_3_1_1_3
n3270__1_3_1_1,n3270__1_3_1_1_3
n3271__1_3_1_1,n3271__1_3_1_1_3
n3272__1_3_1_1,n3272__1_3_1_1_3
n3273__1_3_1_1,n3273__1_3_1_1_3
n3274__1_3_1_1,n3274__1_3_1_1_3
n3275__1_3_1_1,n3275__1_3_1_1_3
n3276__1_3_1_1,n3276__1_3_1_1_3
n3277__1_3_1_1,n3277__1_3_1_1_3
n3278__1_3_1_1,n3278__1_3_1_1_3
n3279__1_3_1_1,n3279__1_3_1_1_3
n3280__1_3_1_1,n3280__1_3_1_1_3
n3281__1_3_1_1,n3281__1_3_1_1_3
n3282__1_3_1_1,n3282__1_3_1_1_3
n3283__1_3_1_1,n3283__1_3_1_1_3
n3284__1_3_1_1,n3284__1_3_1_1_3
n3285__1_3_1_1,n3285__1_3_1_1_3
n3286__1_3_1_1,n3286__1_3_1_1_3
n3287__1_3_1_1,n3287__1_3_1_1_3
n3288__1_3_1_1,n3288__1_3_1_1_3
n3289__1_3_1_1,n3289__1_3_1_1_3
n3290__1_3_1_1,n3290__1_3_1_1_3
n3291__1_3_1_1,n3291__1_3_1_1_3
n3292__1_3_1_1,n3292__1_3_1_1_3
n3293__1_3_1_1,n3293__1_3_1_1_3
n3294__1_3_1_1,n3294__1_3_1_1_3
n3295__1_3_1_1,n3295__1_3_1_1_3
n3296__1_3_1_1,n3296__1_3_1_1_3
n3297__1_3_1_1,n3297__1_3_1_1_3
n3298__1_3_1_1,n3298__1_3_1_1_3
n3299__1_3_1_1,n3299__1_3_1_1_3
n3300__1_3_1_1,n3300__1_3_1_1_3
n3301__1_3_1_1,n3301__1_3_1_1_3
n3302__1_3_1_1,n3302__1_3_1_1_3
n3303__1_3_1_1,n3303__1_3_1_1_3
n3304__1_3_1_1,n3304__1_3_1_1_3
n3305__1_3_1_1,n3305__1_3_1_1_3
n3306__1_3_1_1,n3306__1_3_1_1_3
n3307__1_3_1_1,n3307__1_3_1_1_3
n3308__1_3_1_1,n3308__1_3_1_1_3
n3309__1_3_1_1,n3309__1_3_1_1_3
n3310__1_3_1_1,n3310__1_3_1_1_3
n3311__1_3_1_1,n3311__1_3_1_1_3
n3312__1_3_1_1,n3312__1_3_1_1_3
n3313__1_3_1_1,n3313__1_3_1_1_3
n3314__1_3_1_1,n3314__1_3_1_1_3
n3315__1_3_1_1,n3315__1_3_1_1_3
n3316__1_3_1_1,n3316__1_3_1_1_3
n3317__1_3_1_1,n3317__1_3_1_1_3
n3318__1_3_1_1,n3318__1_3_1_1_3
n3319__1_3_1_1,n3319__1_3_1_1_3
n3320__1_3_1_1,n3320__1_3_1_1_3
n3321__1_3_1_1,n3321__1_3_1_1_3
n3322__1_3_1_1,n3322__1_3_1_1_3
n3323__1_3_1_1,n3323__1_3_1_1_3
n3324__1_3_1_1,n3324__1_3_1_1_3
n3325__1_3_1_1,n3325__1_3_1_1_3
n3326__1_3_1_1,n3326__1_3_1_1_3
n3327__1_3_1_1,n3327__1_3_1_1_3
n3328__1_3_1_1,n3328__1_3_1_1_3
n3329__1_3_1_1,n3329__1_3_1_1_3
n3330__1_3_1_1,n3330__1_3_1_1_3
n3331__1_3_1_1,n3331__1_3_1_1_3
n3332__1_3_1_1,n3332__1_3_1_1_3
n3333__1_3_1_1,n3333__1_3_1_1_3
n3334__1_3_1_1,n3334__1_3_1_1_3
n3335__1_3_1_1,n3335__1_3_1_1_3
n3336__1_3_1_1,n3336__1_3_1_1_3
n3337__1_3_1_1,n3337__1_3_1_1_3
n3338__1_3_1_1,n3338__1_3_1_1_3
n3339__1_3_1_1,n3339__1_3_1_1_3
n3340__1_3_1_1,n3340__1_3_1_1_3
n3341__1_3_1_1,n3341__1_3_1_1_3
n3342__1_3_1_1,n3342__1_3_1_1_3
n3343__1_3_1_1,n3343__1_3_1_1_3
n3344__1_3_1_1,n3344__1_3_1_1_3
n3345__1_3_1_1,n3345__1_3_1_1_3
n3346__1_3_1_1,n3346__1_3_1_1_3
n3347__1_3_1_1,n3347__1_3_1_1_3
n3348__1_3_1_1,n3348__1_3_1_1_3
n3349__1_3_1_1,n3349__1_3_1_1_3
n3350__1_3_1_1,n3350__1_3_1_1_3
n3351__1_3_1_1,n3351__1_3_1_1_3
n3352__1_3_1_1,n3352__1_3_1_1_3
n3353__1_3_1_1,n3353__1_3_1_1_3
n3354__1_3_1_1,n3354__1_3_1_1_3
n3355__1_3_1_1,n3355__1_3_1_1_3
n3356__1_3_1_1,n3356__1_3_1_1_3
n3357__1_3_1_1,n3357__1_3_1_1_3
n3358__1_3_1_1,n3358__1_3_1_1_3
n3359__1_3_1_1,n3359__1_3_1_1_3
n3360__1_3_1_1,n3360__1_3_1_1_3
n3361__1_3_1_1,n3361__1_3_1_1_3
n3362__1_3_1_1,n3362__1_3_1_1_3
n3363__1_3_1_1,n3363__1_3_1_1_3
n3364__1_3_1_1,n3364__1_3_1_1_3
n3365__1_3_1_1,n3365__1_3_1_1_3
n3366__1_3_1_1,n3366__1_3_1_1_3
n3367__1_3_1_1,n3367__1_3_1_1_3
n3368__1_3_1_1,n3368__1_3_1_1_3
n3369__1_3_1_1,n3369__1_3_1_1_3
n3370__1_3_1_1,n3370__1_3_1_1_3
n3371__1_3_1_1,n3371__1_3_1_1_3
n3372__1_3_1_1,n3372__1_3_1_1_3
n3373__1_3_1_1,n3373__1_3_1_1_3
n3374__1_3_1_1,n3374__1_3_1_1_3
n3375__1_3_1_1,n3375__1_3_1_1_3
n3376__1_3_1_1,n3376__1_3_1_1_3
n3377__1_3_1_1,n3377__1_3_1_1_3
n3378__1_3_1_1,n3378__1_3_1_1_3
n3379__1_3_1_1,n3379__1_3_1_1_3
n3380__1_3_1_1,n3380__1_3_1_1_3
n3381__1_3_1_1,n3381__1_3_1_1_3
n3382__1_3_1_1,n3382__1_3_1_1_3
n3383__1_3_1_1,n3383__1_3_1_1_3
n3384__1_3_1_1,n3384__1_3_1_1_3
n3385__1_3_1_1,n3385__1_3_1_1_3
n3386__1_3_1_1,n3386__1_3_1_1_3
n3387__1_3_1_1,n3387__1_3_1_1_3
n3388__1_3_1_1,n3388__1_3_1_1_3
n3389__1_3_1_1,n3389__1_3_1_1_3
n3390__1_3_1_1,n3390__1_3_1_1_3
n3391__1_3_1_1,n3391__1_3_1_1_3
n3392__1_3_1_1,n3392__1_3_1_1_3
n3393__1_3_1_1,n3393__1_3_1_1_3
n3394__1_3_1_1,n3394__1_3_1_1_3
n3395__1_3_1_1,n3395__1_3_1_1_3
n3396__1_3_1_1,n3396__1_3_1_1_3
n3397__1_3_1_1,n3397__1_3_1_1_3
n3398__1_3_1_1,n3398__1_3_1_1_3
n3399__1_3_1_1,n3399__1_3_1_1_3
n3400__1_3_1_1,n3400__1_3_1_1_3
n3401__1_3_1_1,n3401__1_3_1_1_3
n3402__1_3_1_1,n3402__1_3_1_1_3
n3403__1_3_1_1,n3403__1_3_1_1_3
n3404__1_3_1_1,n3404__1_3_1_1_3
n3405__1_3_1_1,n3405__1_3_1_1_3
n3406__1_3_1_1,n3406__1_3_1_1_3
n3407__1_3_1_1,n3407__1_3_1_1_3
n3408__1_3_1_1,n3408__1_3_1_1_3
n3409__1_3_1_1,n3409__1_3_1_1_3
n3410__1_3_1_1,n3410__1_3_1_1_3
n3411__1_3_1_1,n3411__1_3_1_1_3
n3412__1_3_1_1,n3412__1_3_1_1_3
n3413__1_3_1_1,n3413__1_3_1_1_3
n3414__1_3_1_1,n3414__1_3_1_1_3
n3415__1_3_1_1,n3415__1_3_1_1_3
n3416__1_3_1_1,n3416__1_3_1_1_3
n3417__1_3_1_1,n3417__1_3_1_1_3
n3418__1_3_1_1,n3418__1_3_1_1_3
n3419__1_3_1_1,n3419__1_3_1_1_3
n3420__1_3_1_1,n3420__1_3_1_1_3
n3421__1_3_1_1,n3421__1_3_1_1_3
n3422__1_3_1_1,n3422__1_3_1_1_3
n3423__1_3_1_1,n3423__1_3_1_1_3
n3424__1_3_1_1,n3424__1_3_1_1_3
n3425__1_3_1_1,n3425__1_3_1_1_3
n3426__1_3_1_1,n3426__1_3_1_1_3
n3427__1_3_1_1,n3427__1_3_1_1_3
n3428__1_3_1_1,n3428__1_3_1_1_3
n3429__1_3_1_1,n3429__1_3_1_1_3
n3430__1_3_1_1,n3430__1_3_1_1_3
n3431__1_3_1_1,n3431__1_3_1_1_3
n3432__1_3_1_1,n3432__1_3_1_1_3
n3433__1_3_1_1,n3433__1_3_1_1_3
n3434__1_3_1_1,n3434__1_3_1_1_3
n3435__1_3_1_1,n3435__1_3_1_1_3
n3436__1_3_1_1,n3436__1_3_1_1_3
n3437__1_3_1_1,n3437__1_3_1_1_3
n3438__1_3_1_1,n3438__1_3_1_1_3
n3439__1_3_1_1,n3439__1_3_1_1_3
n3440__1_3_1_1,n3440__1_3_1_1_3
n3441__1_3_1_1,n3441__1_3_1_1_3
n3442__1_3_1_1,n3442__1_3_1_1_3
n3443__1_3_1_1,n3443__1_3_1_1_3
n3444__1_3_1_1,n3444__1_3_1_1_3
n3445__1_3_1_1,n3445__1_3_1_1_3
n3446__1_3_1_1,n3446__1_3_1_1_3
n3447__1_3_1_1,n3447__1_3_1_1_3
n3448__1_3_1_1,n3448__1_3_1_1_3
n3449__1_3_1_1,n3449__1_3_1_1_3
n3450__1_3_1_1,n3450__1_3_1_1_3
n3451__1_3_1_1,n3451__1_3_1_1_3
n3452__1_3_1_1,n3452__1_3_1_1_3
n3453__1_3_1_1,n3453__1_3_1_1_3
n3454__1_3_1_1,n3454__1_3_1_1_3
n3455__1_3_1_1,n3455__1_3_1_1_3
n3456__1_3_1_1,n3456__1_3_1_1_3
n3457__1_3_1_1,n3457__1_3_1_1_3
n3458__1_3_1_1,n3458__1_3_1_1_3
n3459__1_3_1_1,n3459__1_3_1_1_3
n3460__1_3_1_1,n3460__1_3_1_1_3
n3461__1_3_1_1,n3461__1_3_1_1_3
n3462__1_3_1_1,n3462__1_3_1_1_3
n3463__1_3_1_1,n3463__1_3_1_1_3
n3464__1_3_1_1,n3464__1_3_1_1_3
n3465__1_3_1_1,n3465__1_3_1_1_3
n3466__1_3_1_1,n3466__1_3_1_1_3
n3467__1_3_1_1,n3467__1_3_1_1_3
n3468__1_3_1_1,n3468__1_3_1_1_3
n3469__1_3_1_1,n3469__1_3_1_1_3
n3470__1_3_1_1,n3470__1_3_1_1_3
n3471__1_3_1_1,n3471__1_3_1_1_3
n3472__1_3_1_1,n3472__1_3_1_1_3
n3473__1_3_1_1,n3473__1_3_1_1_3
n3474__1_3_1_1,n3474__1_3_1_1_3
n3475__1_3_1_1,n3475__1_3_1_1_3
n3476__1_3_1_1,n3476__1_3_1_1_3
n3477__1_3_1_1,n3477__1_3_1_1_3
n3478__1_3_1_1,n3478__1_3_1_1_3
n3479__1_3_1_1,n3479__1_3_1_1_3
n3480__1_3_1_1,n3480__1_3_1_1_3
n3481__1_3_1_1,n3481__1_3_1_1_3
n3482__1_3_1_1,n3482__1_3_1_1_3
n3483__1_3_1_1,n3483__1_3_1_1_3
n3484__1_3_1_1,n3484__1_3_1_1_3
n3485__1_3_1_1,n3485__1_3_1_1_3
n3486__1_3_1_1,n3486__1_3_1_1_3
n3487__1_3_1_1,n3487__1_3_1_1_3
n3488__1_3_1_1,n3488__1_3_1_1_3
n3489__1_3_1_1,n3489__1_3_1_1_3
n3490__1_3_1_1,n3490__1_3_1_1_3
n3491__1_3_1_1,n3491__1_3_1_1_3
n3492__1_3_1_1,n3492__1_3_1_1_3
n3493__1_3_1_1,n3493__1_3_1_1_3
n3494__1_3_1_1,n3494__1_3_1_1_3
n3495__1_3_1_1,n3495__1_3_1_1_3
n3496__1_3_1_1,n3496__1_3_1_1_3
n3497__1_3_1_1,n3497__1_3_1_1_3
n3498__1_3_1_1,n3498__1_3_1_1_3
n3499__1_3_1_1,n3499__1_3_1_1_3
n3500__1_3_1_1,n3500__1_3_1_1_3
n3501__1_3_1_1,n3501__1_3_1_1_3
n3502__1_3_1_1,n3502__1_3_1_1_3
n3503__1_3_1_1,n3503__1_3_1_1_3
n3504__1_3_1_1,n3504__1_3_1_1_3
n3505__1_3_1_1,n3505__1_3_1_1_3
n3506__1_3_1_1,n3506__1_3_1_1_3
n3507__1_3_1_1,n3507__1_3_1_1_3
n3508__1_3_1_1,n3508__1_3_1_1_3
n3509__1_3_1_1,n3509__1_3_1_1_3
n3510__1_3_1_1,n3510__1_3_1_1_3
n3511__1_3_1_1,n3511__1_3_1_1_3
n3512__1_3_1_1,n3512__1_3_1_1_3
n3513__1_3_1_1,n3513__1_3_1_1_3
n3514__1_3_1_1,n3514__1_3_1_1_3
n3515__1_3_1_1,n3515__1_3_1_1_3
n3516__1_3_1_1,n3516__1_3_1_1_3
n3517__1_3_1_1,n3517__1_3_1_1_3
n3518__1_3_1_1,n3518__1_3_1_1_3
n3519__1_3_1_1,n3519__1_3_1_1_3
n3520__1_3_1_1,n3520__1_3_1_1_3
n3521__1_3_1_1,n3521__1_3_1_1_3
n3522__1_3_1_1,n3522__1_3_1_1_3
n3523__1_3_1_1,n3523__1_3_1_1_3
n3524__1_3_1_1,n3524__1_3_1_1_3
n3525__1_3_1_1,n3525__1_3_1_1_3
n3526__1_3_1_1,n3526__1_3_1_1_3
n3527__1_3_1_1,n3527__1_3_1_1_3
n3528__1_3_1_1,n3528__1_3_1_1_3
n3529__1_3_1_1,n3529__1_3_1_1_3
n3530__1_3_1_1,n3530__1_3_1_1_3
n3531__1_3_1_1,n3531__1_3_1_1_3
n3532__1_3_1_1,n3532__1_3_1_1_3
n3533__1_3_1_1,n3533__1_3_1_1_3
n3534__1_3_1_1,n3534__1_3_1_1_3
n3535__1_3_1_1,n3535__1_3_1_1_3
n3536__1_3_1_1,n3536__1_3_1_1_3
n3537__1_3_1_1,n3537__1_3_1_1_3
n3538__1_3_1_1,n3538__1_3_1_1_3
n3539__1_3_1_1,n3539__1_3_1_1_3
n3540__1_3_1_1,n3540__1_3_1_1_3
n3541__1_3_1_1,n3541__1_3_1_1_3
n3542__1_3_1_1,n3542__1_3_1_1_3
n3543__1_3_1_1,n3543__1_3_1_1_3
n3544__1_3_1_1,n3544__1_3_1_1_3
n3545__1_3_1_1,n3545__1_3_1_1_3
n3546__1_3_1_1,n3546__1_3_1_1_3
n3547__1_3_1_1,n3547__1_3_1_1_3
n3548__1_3_1_1,n3548__1_3_1_1_3
n3549__1_3_1_1,n3549__1_3_1_1_3
n3550__1_3_1_1,n3550__1_3_1_1_3
n3551__1_3_1_1,n3551__1_3_1_1_3
n3552__1_3_1_1,n3552__1_3_1_1_3
n3553__1_3_1_1,n3553__1_3_1_1_3
n3554__1_3_1_1,n3554__1_3_1_1_3
n3555__1_3_1_1,n3555__1_3_1_1_3
n3556__1_3_1_1,n3556__1_3_1_1_3
n3557__1_3_1_1,n3557__1_3_1_1_3
n3558__1_3_1_1,n3558__1_3_1_1_3
n3559__1_3_1_1,n3559__1_3_1_1_3
n3560__1_3_1_1,n3560__1_3_1_1_3
n3561__1_3_1_1,n3561__1_3_1_1_3
n3562__1_3_1_1,n3562__1_3_1_1_3
n3563__1_3_1_1,n3563__1_3_1_1_3
n3564__1_3_1_1,n3564__1_3_1_1_3
n3565__1_3_1_1,n3565__1_3_1_1_3
n3566__1_3_1_1,n3566__1_3_1_1_3
n3567__1_3_1_1,n3567__1_3_1_1_3
n3568__1_3_1_1,n3568__1_3_1_1_3
n3569__1_3_1_1,n3569__1_3_1_1_3
n3570__1_3_1_1,n3570__1_3_1_1_3
n3571__1_3_1_1,n3571__1_3_1_1_3
n3572__1_3_1_1,n3572__1_3_1_1_3
n3573__1_3_1_1,n3573__1_3_1_1_3
n3574__1_3_1_1,n3574__1_3_1_1_3
n3575__1_3_1_1,n3575__1_3_1_1_3
n3576__1_3_1_1,n3576__1_3_1_1_3
n3577__1_3_1_1,n3577__1_3_1_1_3
n3578__1_3_1_1,n3578__1_3_1_1_3
n3579__1_3_1_1,n3579__1_3_1_1_3
n3580__1_3_1_1,n3580__1_3_1_1_3
n3581__1_3_1_1,n3581__1_3_1_1_3
n3582__1_3_1_1,n3582__1_3_1_1_3
n3583__1_3_1_1,n3583__1_3_1_1_3
n3584__1_3_1_1,n3584__1_3_1_1_3
n3585__1_3_1_1,n3585__1_3_1_1_3
n3586__1_3_1_1,n3586__1_3_1_1_3
n3587__1_3_1_1,n3587__1_3_1_1_3
n3588__1_3_1_1,n3588__1_3_1_1_3
n3589__1_3_1_1,n3589__1_3_1_1_3
n3590__1_3_1_1,n3590__1_3_1_1_3
n3591__1_3_1_1,n3591__1_3_1_1_3
n3592__1_3_1_1,n3592__1_3_1_1_3
n3593__1_3_1_1,n3593__1_3_1_1_3
n3594__1_3_1_1,n3594__1_3_1_1_3
n3595__1_3_1_1,n3595__1_3_1_1_3
n3596__1_3_1_1,n3596__1_3_1_1_3
n3597__1_3_1_1,n3597__1_3_1_1_3
n3598__1_3_1_1,n3598__1_3_1_1_3
n3599__1_3_1_1,n3599__1_3_1_1_3
n3600__1_3_1_1,n3600__1_3_1_1_3
n3601__1_3_1_1,n3601__1_3_1_1_3
n3602__1_3_1_1,n3602__1_3_1_1_3
n3603__1_3_1_1,n3603__1_3_1_1_3
n3604__1_3_1_1,n3604__1_3_1_1_3
n3605__1_3_1_1,n3605__1_3_1_1_3
n3606__1_3_1_1,n3606__1_3_1_1_3
n3607__1_3_1_1,n3607__1_3_1_1_3
n3608__1_3_1_1,n3608__1_3_1_1_3
n3609__1_3_1_1,n3609__1_3_1_1_3
n3610__1_3_1_1,n3610__1_3_1_1_3
n3611__1_3_1_1,n3611__1_3_1_1_3
n3612__1_3_1_1,n3612__1_3_1_1_3
n3613__1_3_1_1,n3613__1_3_1_1_3
n3614__1_3_1_1,n3614__1_3_1_1_3
n3615__1_3_1_1,n3615__1_3_1_1_3
n3616__1_3_1_1,n3616__1_3_1_1_3
n3617__1_3_1_1,n3617__1_3_1_1_3
n3618__1_3_1_1,n3618__1_3_1_1_3
n3619__1_3_1_1,n3619__1_3_1_1_3
n3620__1_3_1_1,n3620__1_3_1_1_3
n3621__1_3_1_1,n3621__1_3_1_1_3
n3622__1_3_1_1,n3622__1_3_1_1_3
n3623__1_3_1_1,n3623__1_3_1_1_3
n3624__1_3_1_1,n3624__1_3_1_1_3
n3625__1_3_1_1,n3625__1_3_1_1_3
n3626__1_3_1_1,n3626__1_3_1_1_3
n3627__1_3_1_1,n3627__1_3_1_1_3
n3628__1_3_1_1,n3628__1_3_1_1_3
n3629__1_3_1_1,n3629__1_3_1_1_3
n3630__1_3_1_1,n3630__1_3_1_1_3
n3631__1_3_1_1,n3631__1_3_1_1_3
n3632__1_3_1_1,n3632__1_3_1_1_3
n3633__1_3_1_1,n3633__1_3_1_1_3
n3634__1_3_1_1,n3634__1_3_1_1_3
n3635__1_3_1_1,n3635__1_3_1_1_3
n3636__1_3_1_1,n3636__1_3_1_1_3
n3637__1_3_1_1,n3637__1_3_1_1_3
n3638__1_3_1_1,n3638__1_3_1_1_3
n3639__1_3_1_1,n3639__1_3_1_1_3
n3640__1_3_1_1,n3640__1_3_1_1_3
n3641__1_3_1_1,n3641__1_3_1_1_3
n3642__1_3_1_1,n3642__1_3_1_1_3
n3643__1_3_1_1,n3643__1_3_1_1_3
n3644__1_3_1_1,n3644__1_3_1_1_3
n3645__1_3_1_1,n3645__1_3_1_1_3
n3646__1_3_1_1,n3646__1_3_1_1_3
n3647__1_3_1_1,n3647__1_3_1_1_3
n3648__1_3_1_1,n3648__1_3_1_1_3
n3649__1_3_1_1,n3649__1_3_1_1_3
n3650__1_3_1_1,n3650__1_3_1_1_3
n3651__1_3_1_1,n3651__1_3_1_1_3
n3652__1_3_1_1,n3652__1_3_1_1_3
n3653__1_3_1_1,n3653__1_3_1_1_3
n3654__1_3_1_1,n3654__1_3_1_1_3
n3655__1_3_1_1,n3655__1_3_1_1_3
n3656__1_3_1_1,n3656__1_3_1_1_3
n3657__1_3_1_1,n3657__1_3_1_1_3
n3658__1_3_1_1,n3658__1_3_1_1_3
n3659__1_3_1_1,n3659__1_3_1_1_3
n3660__1_3_1_1,n3660__1_3_1_1_3
n3661__1_3_1_1,n3661__1_3_1_1_3
n3662__1_3_1_1,n3662__1_3_1_1_3
n3663__1_3_1_1,n3663__1_3_1_1_3
n3664__1_3_1_1,n3664__1_3_1_1_3
n3665__1_3_1_1,n3665__1_3_1_1_3
n3666__1_3_1_1,n3666__1_3_1_1_3
n3667__1_3_1_1,n3667__1_3_1_1_3
n3668__1_3_1_1,n3668__1_3_1_1_3
n3669__1_3_1_1,n3669__1_3_1_1_3
n3670__1_3_1_1,n3670__1_3_1_1_3
n3671__1_3_1_1,n3671__1_3_1_1_3
n3672__1_3_1_1,n3672__1_3_1_1_3
n3673__1_3_1_1,n3673__1_3_1_1_3
n3674__1_3_1_1,n3674__1_3_1_1_3
n3675__1_3_1_1,n3675__1_3_1_1_3
n3676__1_3_1_1,n3676__1_3_1_1_3
n3677__1_3_1_1,n3677__1_3_1_1_3
n3678__1_3_1_1,n3678__1_3_1_1_3
n3679__1_3_1_1,n3679__1_3_1_1_3
n3680__1_3_1_1,n3680__1_3_1_1_3
n3681__1_3_1_1,n3681__1_3_1_1_3
n3682__1_3_1_1,n3682__1_3_1_1_3
n3683__1_3_1_1,n3683__1_3_1_1_3
n3684__1_3_1_1,n3684__1_3_1_1_3
n3685__1_3_1_1,n3685__1_3_1_1_3
n3686__1_3_1_1,n3686__1_3_1_1_3
n3687__1_3_1_1,n3687__1_3_1_1_3
n3688__1_3_1_1,n3688__1_3_1_1_3
n3689__1_3_1_1,n3689__1_3_1_1_3
n3690__1_3_1_1,n3690__1_3_1_1_3
n3691__1_3_1_1,n3691__1_3_1_1_3
n3692__1_3_1_1,n3692__1_3_1_1_3
n3693__1_3_1_1,n3693__1_3_1_1_3
n3694__1_3_1_1,n3694__1_3_1_1_3
n3695__1_3_1_1,n3695__1_3_1_1_3
n3696__1_3_1_1,n3696__1_3_1_1_3
n3697__1_3_1_1,n3697__1_3_1_1_3
n3698__1_3_1_1,n3698__1_3_1_1_3
n3699__1_3_1_1,n3699__1_3_1_1_3
n3700__1_3_1_1,n3700__1_3_1_1_3
n3701__1_3_1_1,n3701__1_3_1_1_3
n3702__1_3_1_1,n3702__1_3_1_1_3
n3703__1_3_1_1,n3703__1_3_1_1_3
n3704__1_3_1_1,n3704__1_3_1_1_3
n3705__1_3_1_1,n3705__1_3_1_1_3
n3706__1_3_1_1,n3706__1_3_1_1_3
n3707__1_3_1_1,n3707__1_3_1_1_3
n3708__1_3_1_1,n3708__1_3_1_1_3
n3709__1_3_1_1,n3709__1_3_1_1_3
n3710__1_3_1_1,n3710__1_3_1_1_3
n3711__1_3_1_1,n3711__1_3_1_1_3
n3712__1_3_1_1,n3712__1_3_1_1_3
n3713__1_3_1_1,n3713__1_3_1_1_3
n3714__1_3_1_1,n3714__1_3_1_1_3
n3715__1_3_1_1,n3715__1_3_1_1_3
n3716__1_3_1_1,n3716__1_3_1_1_3
n3717__1_3_1_1,n3717__1_3_1_1_3
n3718__1_3_1_1,n3718__1_3_1_1_3
n3719__1_3_1_1,n3719__1_3_1_1_3
n3720__1_3_1_1,n3720__1_3_1_1_3
n3721__1_3_1_1,n3721__1_3_1_1_3
n3722__1_3_1_1,n3722__1_3_1_1_3
n3723__1_3_1_1,n3723__1_3_1_1_3
n3724__1_3_1_1,n3724__1_3_1_1_3
n3725__1_3_1_1,n3725__1_3_1_1_3
n3726__1_3_1_1,n3726__1_3_1_1_3
n3727__1_3_1_1,n3727__1_3_1_1_3
n3728__1_3_1_1,n3728__1_3_1_1_3
n3729__1_3_1_1,n3729__1_3_1_1_3
n3730__1_3_1_1,n3730__1_3_1_1_3
n3731__1_3_1_1,n3731__1_3_1_1_3
n3732__1_3_1_1,n3732__1_3_1_1_3
n3733__1_3_1_1,n3733__1_3_1_1_3
n3734__1_3_1_1,n3734__1_3_1_1_3
n3735__1_3_1_1,n3735__1_3_1_1_3
n3736__1_3_1_1,n3736__1_3_1_1_3
n3737__1_3_1_1,n3737__1_3_1_1_3
n3738__1_3_1_1,n3738__1_3_1_1_3
n3739__1_3_1_1,n3739__1_3_1_1_3
n3740__1_3_1_1,n3740__1_3_1_1_3
n3741__1_3_1_1,n3741__1_3_1_1_3
n3742__1_3_1_1,n3742__1_3_1_1_3
n3743__1_3_1_1,n3743__1_3_1_1_3
n3744__1_3_1_1,n3744__1_3_1_1_3
n3745__1_3_1_1,n3745__1_3_1_1_3
n3746__1_3_1_1,n3746__1_3_1_1_3
n3747__1_3_1_1,n3747__1_3_1_1_3
n3748__1_3_1_1,n3748__1_3_1_1_3
n3749__1_3_1_1,n3749__1_3_1_1_3
n3750__1_3_1_1,n3750__1_3_1_1_3
n3751__1_3_1_1,n3751__1_3_1_1_3
n3752__1_3_1_1,n3752__1_3_1_1_3
n3753__1_3_1_1,n3753__1_3_1_1_3
n3754__1_3_1_1,n3754__1_3_1_1_3
n3755__1_3_1_1,n3755__1_3_1_1_3
n3756__1_3_1_1,n3756__1_3_1_1_3
n3757__1_3_1_1,n3757__1_3_1_1_3
n3758__1_3_1_1,n3758__1_3_1_1_3
n3759__1_3_1_1,n3759__1_3_1_1_3
n3760__1_3_1_1,n3760__1_3_1_1_3
n3761__1_3_1_1,n3761__1_3_1_1_3
n3762__1_3_1_1,n3762__1_3_1_1_3
n3763__1_3_1_1,n3763__1_3_1_1_3
n3764__1_3_1_1,n3764__1_3_1_1_3
n3765__1_3_1_1,n3765__1_3_1_1_3
n3766__1_3_1_1,n3766__1_3_1_1_3
n3767__1_3_1_1,n3767__1_3_1_1_3
n3768__1_3_1_1,n3768__1_3_1_1_3
n3769__1_3_1_1,n3769__1_3_1_1_3
n3770__1_3_1_1,n3770__1_3_1_1_3
n3771__1_3_1_1,n3771__1_3_1_1_3
n3772__1_3_1_1,n3772__1_3_1_1_3
n3773__1_3_1_1,n3773__1_3_1_1_3
n3774__1_3_1_1,n3774__1_3_1_1_3
n3775__1_3_1_1,n3775__1_3_1_1_3
n3776__1_3_1_1,n3776__1_3_1_1_3
n3777__1_3_1_1,n3777__1_3_1_1_3
n3778__1_3_1_1,n3778__1_3_1_1_3
n3779__1_3_1_1,n3779__1_3_1_1_3
n3780__1_3_1_1,n3780__1_3_1_1_3
n3781__1_3_1_1,n3781__1_3_1_1_3
n3782__1_3_1_1,n3782__1_3_1_1_3
n3783__1_3_1_1,n3783__1_3_1_1_3
n3784__1_3_1_1,n3784__1_3_1_1_3
n3785__1_3_1_1,n3785__1_3_1_1_3
n3786__1_3_1_1,n3786__1_3_1_1_3
n3787__1_3_1_1,n3787__1_3_1_1_3
n3788__1_3_1_1,n3788__1_3_1_1_3
n3789__1_3_1_1,n3789__1_3_1_1_3
n3790__1_3_1_1,n3790__1_3_1_1_3
n3791__1_3_1_1,n3791__1_3_1_1_3
n3792__1_3_1_1,n3792__1_3_1_1_3
n3793__1_3_1_1,n3793__1_3_1_1_3
n3794__1_3_1_1,n3794__1_3_1_1_3
n3795__1_3_1_1,n3795__1_3_1_1_3
n3796__1_3_1_1,n3796__1_3_1_1_3
n3797__1_3_1_1,n3797__1_3_1_1_3
n3798__1_3_1_1,n3798__1_3_1_1_3
n3799__1_3_1_1,n3799__1_3_1_1_3
n3800__1_3_1_1,n3800__1_3_1_1_3
n3801__1_3_1_1,n3801__1_3_1_1_3
n3802__1_3_1_1,n3802__1_3_1_1_3
n3803__1_3_1_1,n3803__1_3_1_1_3
n3804__1_3_1_1,n3804__1_3_1_1_3
n3805__1_3_1_1,n3805__1_3_1_1_3
n3806__1_3_1_1,n3806__1_3_1_1_3
n3807__1_3_1_1,n3807__1_3_1_1_3
n3808__1_3_1_1,n3808__1_3_1_1_3
n3809__1_3_1_1,n3809__1_3_1_1_3
n3810__1_3_1_1,n3810__1_3_1_1_3
n3811__1_3_1_1,n3811__1_3_1_1_3
n3812__1_3_1_1,n3812__1_3_1_1_3
n3813__1_3_1_1,n3813__1_3_1_1_3
n3814__1_3_1_1,n3814__1_3_1_1_3
n3815__1_3_1_1,n3815__1_3_1_1_3
n3816__1_3_1_1,n3816__1_3_1_1_3
n3817__1_3_1_1,n3817__1_3_1_1_3
n3818__1_3_1_1,n3818__1_3_1_1_3
n3819__1_3_1_1,n3819__1_3_1_1_3
n3820__1_3_1_1,n3820__1_3_1_1_3
n3821__1_3_1_1,n3821__1_3_1_1_3
n3822__1_3_1_1,n3822__1_3_1_1_3
n3823__1_3_1_1,n3823__1_3_1_1_3
n3824__1_3_1_1,n3824__1_3_1_1_3
n3825__1_3_1_1,n3825__1_3_1_1_3
n3826__1_3_1_1,n3826__1_3_1_1_3
n3827__1_3_1_1,n3827__1_3_1_1_3
n3828__1_3_1_1,n3828__1_3_1_1_3
n3829__1_3_1_1,n3829__1_3_1_1_3
n3830__1_3_1_1,n3830__1_3_1_1_3
n3831__1_3_1_1,n3831__1_3_1_1_3
n3832__1_3_1_1,n3832__1_3_1_1_3
n3833__1_3_1_1,n3833__1_3_1_1_3
n3834__1_3_1_1,n3834__1_3_1_1_3
n3835__1_3_1_1,n3835__1_3_1_1_3
n3836__1_3_1_1,n3836__1_3_1_1_3
n3837__1_3_1_1,n3837__1_3_1_1_3
n3838__1_3_1_1,n3838__1_3_1_1_3
n3839__1_3_1_1,n3839__1_3_1_1_3
n3840__1_3_1_1,n3840__1_3_1_1_3
n3841__1_3_1_1,n3841__1_3_1_1_3
n3842__1_3_1_1,n3842__1_3_1_1_3
n3843__1_3_1_1,n3843__1_3_1_1_3
n3844__1_3_1_1,n3844__1_3_1_1_3
n3845__1_3_1_1,n3845__1_3_1_1_3
n3846__1_3_1_1,n3846__1_3_1_1_3
n3847__1_3_1_1,n3847__1_3_1_1_3
n3848__1_3_1_1,n3848__1_3_1_1_3
n3849__1_3_1_1,n3849__1_3_1_1_3
n3850__1_3_1_1,n3850__1_3_1_1_3
n3851__1_3_1_1,n3851__1_3_1_1_3
n3852__1_3_1_1,n3852__1_3_1_1_3
n3853__1_3_1_1,n3853__1_3_1_1_3
n3854__1_3_1_1,n3854__1_3_1_1_3
n3855__1_3_1_1,n3855__1_3_1_1_3
n3856__1_3_1_1,n3856__1_3_1_1_3
n3857__1_3_1_1,n3857__1_3_1_1_3
n3858__1_3_1_1,n3858__1_3_1_1_3
n3859__1_3_1_1,n3859__1_3_1_1_3
n3860__1_3_1_1,n3860__1_3_1_1_3
n3861__1_3_1_1,n3861__1_3_1_1_3
n3862__1_3_1_1,n3862__1_3_1_1_3
n3863__1_3_1_1,n3863__1_3_1_1_3
n3864__1_3_1_1,n3864__1_3_1_1_3
n3865__1_3_1_1,n3865__1_3_1_1_3
n3866__1_3_1_1,n3866__1_3_1_1_3
n3867__1_3_1_1,n3867__1_3_1_1_3
n3868__1_3_1_1,n3868__1_3_1_1_3
n3869__1_3_1_1,n3869__1_3_1_1_3
n3870__1_3_1_1,n3870__1_3_1_1_3
n3871__1_3_1_1,n3871__1_3_1_1_3
n3872__1_3_1_1,n3872__1_3_1_1_3
n3873__1_3_1_1,n3873__1_3_1_1_3
n3874__1_3_1_1,n3874__1_3_1_1_3
n3875__1_3_1_1,n3875__1_3_1_1_3
n3876__1_3_1_1,n3876__1_3_1_1_3
n3877__1_3_1_1,n3877__1_3_1_1_3
n3878__1_3_1_1,n3878__1_3_1_1_3
n3879__1_3_1_1,n3879__1_3_1_1_3
n3880__1_3_1_1,n3880__1_3_1_1_3
n3881__1_3_1_1,n3881__1_3_1_1_3
n3882__1_3_1_1,n3882__1_3_1_1_3
n3883__1_3_1_1,n3883__1_3_1_1_3
n3884__1_3_1_1,n3884__1_3_1_1_3
n3885__1_3_1_1,n3885__1_3_1_1_3
n3886__1_3_1_1,n3886__1_3_1_1_3
n3887__1_3_1_1,n3887__1_3_1_1_3
n3888__1_3_1_1,n3888__1_3_1_1_3
n3889__1_3_1_1,n3889__1_3_1_1_3
n3890__1_3_1_1,n3890__1_3_1_1_3
n3891__1_3_1_1,n3891__1_3_1_1_3
n3892__1_3_1_1,n3892__1_3_1_1_3
n3893__1_3_1_1,n3893__1_3_1_1_3
n3894__1_3_1_1,n3894__1_3_1_1_3
n3895__1_3_1_1,n3895__1_3_1_1_3
n3896__1_3_1_1,n3896__1_3_1_1_3
n3897__1_3_1_1,n3897__1_3_1_1_3
n3898__1_3_1_1,n3898__1_3_1_1_3
n3899__1_3_1_1,n3899__1_3_1_1_3
n3900__1_3_1_1,n3900__1_3_1_1_3
n3901__1_3_1_1,n3901__1_3_1_1_3
n3902__1_3_1_1,n3902__1_3_1_1_3
n3903__1_3_1_1,n3903__1_3_1_1_3
n3904__1_3_1_1,n3904__1_3_1_1_3
n3905__1_3_1_1,n3905__1_3_1_1_3
n3906__1_3_1_1,n3906__1_3_1_1_3
n3907__1_3_1_1,n3907__1_3_1_1_3
n3908__1_3_1_1,n3908__1_3_1_1_3
n3909__1_3_1_1,n3909__1_3_1_1_3
n3910__1_3_1_1,n3910__1_3_1_1_3
n3911__1_3_1_1,n3911__1_3_1_1_3
n3912__1_3_1_1,n3912__1_3_1_1_3
n3913__1_3_1_1,n3913__1_3_1_1_3
n3914__1_3_1_1,n3914__1_3_1_1_3
n3915__1_3_1_1,n3915__1_3_1_1_3
n3916__1_3_1_1,n3916__1_3_1_1_3
n3917__1_3_1_1,n3917__1_3_1_1_3
n3918__1_3_1_1,n3918__1_3_1_1_3
n3919__1_3_1_1,n3919__1_3_1_1_3
n3920__1_3_1_1,n3920__1_3_1_1_3
n3921__1_3_1_1,n3921__1_3_1_1_3
n3922__1_3_1_1,n3922__1_3_1_1_3
n3923__1_3_1_1,n3923__1_3_1_1_3
n3924__1_3_1_1,n3924__1_3_1_1_3
n3925__1_3_1_1,n3925__1_3_1_1_3
n3926__1_3_1_1,n3926__1_3_1_1_3
n3927__1_3_1_1,n3927__1_3_1_1_3
n3928__1_3_1_1,n3928__1_3_1_1_3
n3929__1_3_1_1,n3929__1_3_1_1_3
n3930__1_3_1_1,n3930__1_3_1_1_3
n3931__1_3_1_1,n3931__1_3_1_1_3
n3932__1_3_1_1,n3932__1_3_1_1_3
n3933__1_3_1_1,n3933__1_3_1_1_3
n3934__1_3_1_1,n3934__1_3_1_1_3
n3935__1_3_1_1,n3935__1_3_1_1_3
n3936__1_3_1_1,n3936__1_3_1_1_3
n3937__1_3_1_1,n3937__1_3_1_1_3
n3938__1_3_1_1,n3938__1_3_1_1_3
n3939__1_3_1_1,n3939__1_3_1_1_3
n3940__1_3_1_1,n3940__1_3_1_1_3
n3941__1_3_1_1,n3941__1_3_1_1_3
n3942__1_3_1_1,n3942__1_3_1_1_3
n3943__1_3_1_1,n3943__1_3_1_1_3
n3944__1_3_1_1,n3944__1_3_1_1_3
n3945__1_3_1_1,n3945__1_3_1_1_3
n3946__1_3_1_1,n3946__1_3_1_1_3
n3947__1_3_1_1,n3947__1_3_1_1_3
n3948__1_3_1_1,n3948__1_3_1_1_3
n3949__1_3_1_1,n3949__1_3_1_1_3
n3950__1_3_1_1,n3950__1_3_1_1_3
n3951__1_3_1_1,n3951__1_3_1_1_3
n3952__1_3_1_1,n3952__1_3_1_1_3
n3953__1_3_1_1,n3953__1_3_1_1_3
n3954__1_3_1_1,n3954__1_3_1_1_3
n3955__1_3_1_1,n3955__1_3_1_1_3
n3956__1_3_1_1,n3956__1_3_1_1_3
n3957__1_3_1_1,n3957__1_3_1_1_3
n3958__1_3_1_1,n3958__1_3_1_1_3
n3959__1_3_1_1,n3959__1_3_1_1_3
n3960__1_3_1_1,n3960__1_3_1_1_3
n3961__1_3_1_1,n3961__1_3_1_1_3
n3962__1_3_1_1,n3962__1_3_1_1_3
n3963__1_3_1_1,n3963__1_3_1_1_3
n3964__1_3_1_1,n3964__1_3_1_1_3
n3965__1_3_1_1,n3965__1_3_1_1_3
n3966__1_3_1_1,n3966__1_3_1_1_3
n3967__1_3_1_1,n3967__1_3_1_1_3
n3968__1_3_1_1,n3968__1_3_1_1_3
n3969__1_3_1_1,n3969__1_3_1_1_3
n3970__1_3_1_1,n3970__1_3_1_1_3
n3971__1_3_1_1,n3971__1_3_1_1_3
n3972__1_3_1_1,n3972__1_3_1_1_3
n3973__1_3_1_1,n3973__1_3_1_1_3
n3974__1_3_1_1,n3974__1_3_1_1_3
n3975__1_3_1_1,n3975__1_3_1_1_3
n3976__1_3_1_1,n3976__1_3_1_1_3
n3977__1_3_1_1,n3977__1_3_1_1_3
n3978__1_3_1_1,n3978__1_3_1_1_3
n3979__1_3_1_1,n3979__1_3_1_1_3
n3980__1_3_1_1,n3980__1_3_1_1_3
n3981__1_3_1_1,n3981__1_3_1_1_3
n3982__1_3_1_1,n3982__1_3_1_1_3
n3983__1_3_1_1,n3983__1_3_1_1_3
n3984__1_3_1_1,n3984__1_3_1_1_3
n3985__1_3_1_1,n3985__1_3_1_1_3
n3986__1_3_1_1,n3986__1_3_1_1_3
n3987__1_3_1_1,n3987__1_3_1_1_3
n3988__1_3_1_1,n3988__1_3_1_1_3
n3989__1_3_1_1,n3989__1_3_1_1_3
n3990__1_3_1_1,n3990__1_3_1_1_3
n3991__1_3_1_1,n3991__1_3_1_1_3
n3992__1_3_1_1,n3992__1_3_1_1_3
n3993__1_3_1_1,n3993__1_3_1_1_3
n3994__1_3_1_1,n3994__1_3_1_1_3
n3995__1_3_1_1,n3995__1_3_1_1_3
n3996__1_3_1_1,n3996__1_3_1_1_3
n3997__1_3_1_1,n3997__1_3_1_1_3
n3998__1_3_1_1,n3998__1_3_1_1_3
n3999__1_3_1_1,n3999__1_3_1_1_3
n4000__1_3_1_1,n4000__1_3_1_1_3
n4001__1_3_1_1,n4001__1_3_1_1_3
n4002__1_3_1_1,n4002__1_3_1_1_3
n4003__1_3_1_1,n4003__1_3_1_1_3
n4004__1_3_1_1,n4004__1_3_1_1_3
n4005__1_3_1_1,n4005__1_3_1_1_3
n4006__1_3_1_1,n4006__1_3_1_1_3
n4007__1_3_1_1,n4007__1_3_1_1_3
n4008__1_3_1_1,n4008__1_3_1_1_3
n4009__1_3_1_1,n4009__1_3_1_1_3
n4010__1_3_1_1,n4010__1_3_1_1_3
n4011__1_3_1_1,n4011__1_3_1_1_3
n4012__1_3_1_1,n4012__1_3_1_1_3
n4013__1_3_1_1,n4013__1_3_1_1_3
n4014__1_3_1_1,n4014__1_3_1_1_3
n4015__1_3_1_1,n4015__1_3_1_1_3
n4016__1_3_1_1,n4016__1_3_1_1_3
n4017__1_3_1_1,n4017__1_3_1_1_3
n4018__1_3_1_1,n4018__1_3_1_1_3
n4019__1_3_1_1,n4019__1_3_1_1_3
n4020__1_3_1_1,n4020__1_3_1_1_3
n4021__1_3_1_1,n4021__1_3_1_1_3
n4022__1_3_1_1,n4022__1_3_1_1_3
n4023__1_3_1_1,n4023__1_3_1_1_3
n4024__1_3_1_1,n4024__1_3_1_1_3
n4025__1_3_1_1,n4025__1_3_1_1_3
n4026__1_3_1_1,n4026__1_3_1_1_3
n4027__1_3_1_1,n4027__1_3_1_1_3
n4028__1_3_1_1,n4028__1_3_1_1_3
n4029__1_3_1_1,n4029__1_3_1_1_3
n4030__1_3_1_1,n4030__1_3_1_1_3
n4031__1_3_1_1,n4031__1_3_1_1_3
n4032__1_3_1_1,n4032__1_3_1_1_3
n4033__1_3_1_1,n4033__1_3_1_1_3
n4034__1_3_1_1,n4034__1_3_1_1_3
n4035__1_3_1_1,n4035__1_3_1_1_3
n4036__1_3_1_1,n4036__1_3_1_1_3
n4037__1_3_1_1,n4037__1_3_1_1_3
n4038__1_3_1_1,n4038__1_3_1_1_3
n4039__1_3_1_1,n4039__1_3_1_1_3
n4040__1_3_1_1,n4040__1_3_1_1_3
n4041__1_3_1_1,n4041__1_3_1_1_3
n4042__1_3_1_1,n4042__1_3_1_1_3
n4043__1_3_1_1,n4043__1_3_1_1_3
n4044__1_3_1_1,n4044__1_3_1_1_3
n4045__1_3_1_1,n4045__1_3_1_1_3
n4046__1_3_1_1,n4046__1_3_1_1_3
n4047__1_3_1_1,n4047__1_3_1_1_3
n4048__1_3_1_1,n4048__1_3_1_1_3
n4049__1_3_1_1,n4049__1_3_1_1_3
n4050__1_3_1_1,n4050__1_3_1_1_3
n4051__1_3_1_1,n4051__1_3_1_1_3
n4052__1_3_1_1,n4052__1_3_1_1_3
n4053__1_3_1_1,n4053__1_3_1_1_3
n4054__1_3_1_1,n4054__1_3_1_1_3
n4055__1_3_1_1,n4055__1_3_1_1_3
n4056__1_3_1_1,n4056__1_3_1_1_3
n4057__1_3_1_1,n4057__1_3_1_1_3
n4058__1_3_1_1,n4058__1_3_1_1_3
n4059__1_3_1_1,n4059__1_3_1_1_3
n4060__1_3_1_1,n4060__1_3_1_1_3
n4061__1_3_1_1,n4061__1_3_1_1_3
n4062__1_3_1_1,n4062__1_3_1_1_3
n4063__1_3_1_1,n4063__1_3_1_1_3
n4064__1_3_1_1,n4064__1_3_1_1_3
n4065__1_3_1_1,n4065__1_3_1_1_3
n4066__1_3_1_1,n4066__1_3_1_1_3
n4067__1_3_1_1,n4067__1_3_1_1_3
n4068__1_3_1_1,n4068__1_3_1_1_3
n4069__1_3_1_1,n4069__1_3_1_1_3
n4070__1_3_1_1,n4070__1_3_1_1_3
n4071__1_3_1_1,n4071__1_3_1_1_3
n4072__1_3_1_1,n4072__1_3_1_1_3
n4073__1_3_1_1,n4073__1_3_1_1_3
n4074__1_3_1_1,n4074__1_3_1_1_3
n4075__1_3_1_1,n4075__1_3_1_1_3
n4076__1_3_1_1,n4076__1_3_1_1_3
n4077__1_3_1_1,n4077__1_3_1_1_3
n4078__1_3_1_1,n4078__1_3_1_1_3
n4079__1_3_1_1,n4079__1_3_1_1_3
n4080__1_3_1_1,n4080__1_3_1_1_3
n4081__1_3_1_1,n4081__1_3_1_1_3
n4082__1_3_1_1,n4082__1_3_1_1_3
n4083__1_3_1_1,n4083__1_3_1_1_3
n4084__1_3_1_1,n4084__1_3_1_1_3
n4085__1_3_1_1,n4085__1_3_1_1_3
n4086__1_3_1_1,n4086__1_3_1_1_3
n4087__1_3_1_1,n4087__1_3_1_1_3
n4088__1_3_1_1,n4088__1_3_1_1_3
n4089__1_3_1_1,n4089__1_3_1_1_3
n4090__1_3_1_1,n4090__1_3_1_1_3
n4091__1_3_1_1,n4091__1_3_1_1_3
n4092__1_3_1_1,n4092__1_3_1_1_3
n4093__1_3_1_1,n4093__1_3_1_1_3
n4094__1_3_1_1,n4094__1_3_1_1_3
n4095__1_3_1_1,n4095__1_3_1_1_3
n4096__1_3_1_1,n4096__1_3_1_1_3
n4097__1_3_1_1,n4097__1_3_1_1_3
n4098__1_3_1_1,n4098__1_3_1_1_3
n4099__1_3_1_1,n4099__1_3_1_1_3
n4100__1_3_1_1,n4100__1_3_1_1_3
n4101__1_3_1_1,n4101__1_3_1_1_3
n4102__1_3_1_1,n4102__1_3_1_1_3
n4103__1_3_1_1,n4103__1_3_1_1_3
n4104__1_3_1_1,n4104__1_3_1_1_3
n4105__1_3_1_1,n4105__1_3_1_1_3
n4106__1_3_1_1,n4106__1_3_1_1_3
n4107__1_3_1_1,n4107__1_3_1_1_3
n4108__1_3_1_1,n4108__1_3_1_1_3
n4109__1_3_1_1,n4109__1_3_1_1_3
n4110__1_3_1_1,n4110__1_3_1_1_3
n4111__1_3_1_1,n4111__1_3_1_1_3
n4112__1_3_1_1,n4112__1_3_1_1_3
n4113__1_3_1_1,n4113__1_3_1_1_3
n4114__1_3_1_1,n4114__1_3_1_1_3
n4115__1_3_1_1,n4115__1_3_1_1_3
n4116__1_3_1_1,n4116__1_3_1_1_3
n4117__1_3_1_1,n4117__1_3_1_1_3
n4118__1_3_1_1,n4118__1_3_1_1_3
n4119__1_3_1_1,n4119__1_3_1_1_3
n4120__1_3_1_1,n4120__1_3_1_1_3
n4121__1_3_1_1,n4121__1_3_1_1_3
n4122__1_3_1_1,n4122__1_3_1_1_3
n4123__1_3_1_1,n4123__1_3_1_1_3
n4124__1_3_1_1,n4124__1_3_1_1_3
n4125__1_3_1_1,n4125__1_3_1_1_3
n4126__1_3_1_1,n4126__1_3_1_1_3
n4127__1_3_1_1,n4127__1_3_1_1_3
n4128__1_3_1_1,n4128__1_3_1_1_3
n4129__1_3_1_1,n4129__1_3_1_1_3
n4130__1_3_1_1,n4130__1_3_1_1_3
n4131__1_3_1_1,n4131__1_3_1_1_3
n4132__1_3_1_1,n4132__1_3_1_1_3
n4133__1_3_1_1,n4133__1_3_1_1_3
n4134__1_3_1_1,n4134__1_3_1_1_3
n4135__1_3_1_1,n4135__1_3_1_1_3
n4136__1_3_1_1,n4136__1_3_1_1_3
n4137__1_3_1_1,n4137__1_3_1_1_3
n4138__1_3_1_1,n4138__1_3_1_1_3
n4139__1_3_1_1,n4139__1_3_1_1_3
n4140__1_3_1_1,n4140__1_3_1_1_3
n4141__1_3_1_1,n4141__1_3_1_1_3
n4142__1_3_1_1,n4142__1_3_1_1_3
n4143__1_3_1_1,n4143__1_3_1_1_3
n4144__1_3_1_1,n4144__1_3_1_1_3
n4145__1_3_1_1,n4145__1_3_1_1_3
n4146__1_3_1_1,n4146__1_3_1_1_3
n4147__1_3_1_1,n4147__1_3_1_1_3
n4148__1_3_1_1,n4148__1_3_1_1_3
n4149__1_3_1_1,n4149__1_3_1_1_3
n4150__1_3_1_1,n4150__1_3_1_1_3
n4151__1_3_1_1,n4151__1_3_1_1_3
n4152__1_3_1_1,n4152__1_3_1_1_3
n4153__1_3_1_1,n4153__1_3_1_1_3
n4154__1_3_1_1,n4154__1_3_1_1_3
n4155__1_3_1_1,n4155__1_3_1_1_3
n4156__1_3_1_1,n4156__1_3_1_1_3
n4157__1_3_1_1,n4157__1_3_1_1_3
n4158__1_3_1_1,n4158__1_3_1_1_3
n4159__1_3_1_1,n4159__1_3_1_1_3
n4160__1_3_1_1,n4160__1_3_1_1_3
n4161__1_3_1_1,n4161__1_3_1_1_3
n4162__1_3_1_1,n4162__1_3_1_1_3
n4163__1_3_1_1,n4163__1_3_1_1_3
n4164__1_3_1_1,n4164__1_3_1_1_3
n4165__1_3_1_1,n4165__1_3_1_1_3
n4166__1_3_1_1,n4166__1_3_1_1_3
n4167__1_3_1_1,n4167__1_3_1_1_3
n4168__1_3_1_1,n4168__1_3_1_1_3
n4169__1_3_1_1,n4169__1_3_1_1_3
n4170__1_3_1_1,n4170__1_3_1_1_3
n4171__1_3_1_1,n4171__1_3_1_1_3
n4172__1_3_1_1,n4172__1_3_1_1_3
n4173__1_3_1_1,n4173__1_3_1_1_3
n4174__1_3_1_1,n4174__1_3_1_1_3
n4175__1_3_1_1,n4175__1_3_1_1_3
n4176__1_3_1_1,n4176__1_3_1_1_3
n4177__1_3_1_1,n4177__1_3_1_1_3
n4178__1_3_1_1,n4178__1_3_1_1_3
n4179__1_3_1_1,n4179__1_3_1_1_3
n4180__1_3_1_1,n4180__1_3_1_1_3
n4181__1_3_1_1,n4181__1_3_1_1_3
n4182__1_3_1_1,n4182__1_3_1_1_3
n4183__1_3_1_1,n4183__1_3_1_1_3
n4184__1_3_1_1,n4184__1_3_1_1_3
n4185__1_3_1_1,n4185__1_3_1_1_3
n4186__1_3_1_1,n4186__1_3_1_1_3
n4187__1_3_1_1,n4187__1_3_1_1_3
n4188__1_3_1_1,n4188__1_3_1_1_3
n4189__1_3_1_1,n4189__1_3_1_1_3
n4190__1_3_1_1,n4190__1_3_1_1_3
n4191__1_3_1_1,n4191__1_3_1_1_3
n4192__1_3_1_1,n4192__1_3_1_1_3
n4193__1_3_1_1,n4193__1_3_1_1_3
n4194__1_3_1_1,n4194__1_3_1_1_3
n4195__1_3_1_1,n4195__1_3_1_1_3
n4196__1_3_1_1,n4196__1_3_1_1_3
n4197__1_3_1_1,n4197__1_3_1_1_3
n4198__1_3_1_1,n4198__1_3_1_1_3
n4199__1_3_1_1,n4199__1_3_1_1_3
n4200__1_3_1_1,n4200__1_3_1_1_3
n4201__1_3_1_1,n4201__1_3_1_1_3
n4202__1_3_1_1,n4202__1_3_1_1_3
n4203__1_3_1_1,n4203__1_3_1_1_3
n4204__1_3_1_1,n4204__1_3_1_1_3
n4205__1_3_1_1,n4205__1_3_1_1_3
n4206__1_3_1_1,n4206__1_3_1_1_3
n4207__1_3_1_1,n4207__1_3_1_1_3
n4208__1_3_1_1,n4208__1_3_1_1_3
n4209__1_3_1_1,n4209__1_3_1_1_3
n4210__1_3_1_1,n4210__1_3_1_1_3
n4211__1_3_1_1,n4211__1_3_1_1_3
n4212__1_3_1_1,n4212__1_3_1_1_3
n4213__1_3_1_1,n4213__1_3_1_1_3
n4214__1_3_1_1,n4214__1_3_1_1_3
n4215__1_3_1_1,n4215__1_3_1_1_3
n4216__1_3_1_1,n4216__1_3_1_1_3
n4217__1_3_1_1,n4217__1_3_1_1_3
n4218__1_3_1_1,n4218__1_3_1_1_3
n4219__1_3_1_1,n4219__1_3_1_1_3
n4220__1_3_1_1,n4220__1_3_1_1_3
n4221__1_3_1_1,n4221__1_3_1_1_3
n4222__1_3_1_1,n4222__1_3_1_1_3
n4223__1_3_1_1,n4223__1_3_1_1_3
n4224__1_3_1_1,n4224__1_3_1_1_3
n4225__1_3_1_1,n4225__1_3_1_1_3
n4226__1_3_1_1,n4226__1_3_1_1_3
n4227__1_3_1_1,n4227__1_3_1_1_3
n4228__1_3_1_1,n4228__1_3_1_1_3
n4229__1_3_1_1,n4229__1_3_1_1_3
n4230__1_3_1_1,n4230__1_3_1_1_3
n4231__1_3_1_1,n4231__1_3_1_1_3
n4232__1_3_1_1,n4232__1_3_1_1_3
n4233__1_3_1_1,n4233__1_3_1_1_3
n4234__1_3_1_1,n4234__1_3_1_1_3
n4235__1_3_1_1,n4235__1_3_1_1_3
n4236__1_3_1_1,n4236__1_3_1_1_3
n4237__1_3_1_1,n4237__1_3_1_1_3
n4238__1_3_1_1,n4238__1_3_1_1_3
n4239__1_3_1_1,n4239__1_3_1_1_3
n4240__1_3_1_1,n4240__1_3_1_1_3
n4241__1_3_1_1,n4241__1_3_1_1_3
n4242__1_3_1_1,n4242__1_3_1_1_3
n4243__1_3_1_1,n4243__1_3_1_1_3
n4244__1_3_1_1,n4244__1_3_1_1_3
n4245__1_3_1_1,n4245__1_3_1_1_3
n4246__1_3_1_1,n4246__1_3_1_1_3
n4247__1_3_1_1,n4247__1_3_1_1_3
n4248__1_3_1_1,n4248__1_3_1_1_3
n4249__1_3_1_1,n4249__1_3_1_1_3
n4250__1_3_1_1,n4250__1_3_1_1_3
n4251__1_3_1_1,n4251__1_3_1_1_3
n4252__1_3_1_1,n4252__1_3_1_1_3
n4253__1_3_1_1,n4253__1_3_1_1_3
n4254__1_3_1_1,n4254__1_3_1_1_3
n4255__1_3_1_1,n4255__1_3_1_1_3
n4256__1_3_1_1,n4256__1_3_1_1_3
n4257__1_3_1_1,n4257__1_3_1_1_3
n4258__1_3_1_1,n4258__1_3_1_1_3
n4259__1_3_1_1,n4259__1_3_1_1_3
n4260__1_3_1_1,n4260__1_3_1_1_3
n4261__1_3_1_1,n4261__1_3_1_1_3
n4262__1_3_1_1,n4262__1_3_1_1_3
n4263__1_3_1_1,n4263__1_3_1_1_3
n4264__1_3_1_1,n4264__1_3_1_1_3
n4265__1_3_1_1,n4265__1_3_1_1_3
n4266__1_3_1_1,n4266__1_3_1_1_3
n4267__1_3_1_1,n4267__1_3_1_1_3
n4268__1_3_1_1,n4268__1_3_1_1_3
n4269__1_3_1_1,n4269__1_3_1_1_3
n4270__1_3_1_1,n4270__1_3_1_1_3
n4271__1_3_1_1,n4271__1_3_1_1_3
n4272__1_3_1_1,n4272__1_3_1_1_3
n4273__1_3_1_1,n4273__1_3_1_1_3
n4274__1_3_1_1,n4274__1_3_1_1_3
n4275__1_3_1_1,n4275__1_3_1_1_3
n4276__1_3_1_1,n4276__1_3_1_1_3
n4277__1_3_1_1,n4277__1_3_1_1_3
n4278__1_3_1_1,n4278__1_3_1_1_3
n4279__1_3_1_1,n4279__1_3_1_1_3
n4280__1_3_1_1,n4280__1_3_1_1_3
n4281__1_3_1_1,n4281__1_3_1_1_3
n4282__1_3_1_1,n4282__1_3_1_1_3
n4283__1_3_1_1,n4283__1_3_1_1_3
n4284__1_3_1_1,n4284__1_3_1_1_3
n4285__1_3_1_1,n4285__1_3_1_1_3
n4286__1_3_1_1,n4286__1_3_1_1_3
n4287__1_3_1_1,n4287__1_3_1_1_3
n4288__1_3_1_1,n4288__1_3_1_1_3
n4289__1_3_1_1,n4289__1_3_1_1_3
n4290__1_3_1_1,n4290__1_3_1_1_3
n4291__1_3_1_1,n4291__1_3_1_1_3
n4292__1_3_1_1,n4292__1_3_1_1_3
n4293__1_3_1_1,n4293__1_3_1_1_3
n4294__1_3_1_1,n4294__1_3_1_1_3
n4295__1_3_1_1,n4295__1_3_1_1_3
n4296__1_3_1_1,n4296__1_3_1_1_3
n4297__1_3_1_1,n4297__1_3_1_1_3
n4298__1_3_1_1,n4298__1_3_1_1_3
n4299__1_3_1_1,n4299__1_3_1_1_3
n4300__1_3_1_1,n4300__1_3_1_1_3
n4301__1_3_1_1,n4301__1_3_1_1_3
n4302__1_3_1_1,n4302__1_3_1_1_3
n4303__1_3_1_1,n4303__1_3_1_1_3
n4304__1_3_1_1,n4304__1_3_1_1_3
n4305__1_3_1_1,n4305__1_3_1_1_3
n4306__1_3_1_1,n4306__1_3_1_1_3
n4307__1_3_1_1,n4307__1_3_1_1_3
n4308__1_3_1_1,n4308__1_3_1_1_3
n4309__1_3_1_1,n4309__1_3_1_1_3
n4310__1_3_1_1,n4310__1_3_1_1_3
n4311__1_3_1_1,n4311__1_3_1_1_3
n4312__1_3_1_1,n4312__1_3_1_1_3
n4313__1_3_1_1,n4313__1_3_1_1_3
n4314__1_3_1_1,n4314__1_3_1_1_3
n4315__1_3_1_1,n4315__1_3_1_1_3
n4316__1_3_1_1,n4316__1_3_1_1_3
n4317__1_3_1_1,n4317__1_3_1_1_3
n4318__1_3_1_1,n4318__1_3_1_1_3
n4319__1_3_1_1,n4319__1_3_1_1_3
n4320__1_3_1_1,n4320__1_3_1_1_3
n4321__1_3_1_1,n4321__1_3_1_1_3
n4322__1_3_1_1,n4322__1_3_1_1_3
n4323__1_3_1_1,n4323__1_3_1_1_3
n4324__1_3_1_1,n4324__1_3_1_1_3
n4325__1_3_1_1,n4325__1_3_1_1_3
n4326__1_3_1_1,n4326__1_3_1_1_3
n4327__1_3_1_1,n4327__1_3_1_1_3
n4328__1_3_1_1,n4328__1_3_1_1_3
n4329__1_3_1_1,n4329__1_3_1_1_3
n4330__1_3_1_1,n4330__1_3_1_1_3
n4331__1_3_1_1,n4331__1_3_1_1_3
n4332__1_3_1_1,n4332__1_3_1_1_3
n4333__1_3_1_1,n4333__1_3_1_1_3
n4334__1_3_1_1,n4334__1_3_1_1_3
n4335__1_3_1_1,n4335__1_3_1_1_3
n4336__1_3_1_1,n4336__1_3_1_1_3
n4337__1_3_1_1,n4337__1_3_1_1_3
n4338__1_3_1_1,n4338__1_3_1_1_3
n4339__1_3_1_1,n4339__1_3_1_1_3
n4340__1_3_1_1,n4340__1_3_1_1_3
n4341__1_3_1_1,n4341__1_3_1_1_3
n4342__1_3_1_1,n4342__1_3_1_1_3
n4343__1_3_1_1,n4343__1_3_1_1_3
n4344__1_3_1_1,n4344__1_3_1_1_3
n4345__1_3_1_1,n4345__1_3_1_1_3
n4346__1_3_1_1,n4346__1_3_1_1_3
n4347__1_3_1_1,n4347__1_3_1_1_3
n4348__1_3_1_1,n4348__1_3_1_1_3
n4349__1_3_1_1,n4349__1_3_1_1_3
n4350__1_3_1_1,n4350__1_3_1_1_3
n4351__1_3_1_1,n4351__1_3_1_1_3
n4352__1_3_1_1,n4352__1_3_1_1_3
n4353__1_3_1_1,n4353__1_3_1_1_3
n4354__1_3_1_1,n4354__1_3_1_1_3
n4355__1_3_1_1,n4355__1_3_1_1_3
n4356__1_3_1_1,n4356__1_3_1_1_3
n4357__1_3_1_1,n4357__1_3_1_1_3
n4358__1_3_1_1,n4358__1_3_1_1_3
n4359__1_3_1_1,n4359__1_3_1_1_3
n4360__1_3_1_1,n4360__1_3_1_1_3
n4361__1_3_1_1,n4361__1_3_1_1_3
n4362__1_3_1_1,n4362__1_3_1_1_3
n4363__1_3_1_1,n4363__1_3_1_1_3
n4364__1_3_1_1,n4364__1_3_1_1_3
n4365__1_3_1_1,n4365__1_3_1_1_3
n4366__1_3_1_1,n4366__1_3_1_1_3
n4367__1_3_1_1,n4367__1_3_1_1_3
n4368__1_3_1_1,n4368__1_3_1_1_3
n4369__1_3_1_1,n4369__1_3_1_1_3
n4370__1_3_1_1,n4370__1_3_1_1_3
n4371__1_3_1_1,n4371__1_3_1_1_3
n4372__1_3_1_1,n4372__1_3_1_1_3
n4373__1_3_1_1,n4373__1_3_1_1_3
n4374__1_3_1_1,n4374__1_3_1_1_3
n4375__1_3_1_1,n4375__1_3_1_1_3
n4376__1_3_1_1,n4376__1_3_1_1_3
n4377__1_3_1_1,n4377__1_3_1_1_3
n4378__1_3_1_1,n4378__1_3_1_1_3
n4379__1_3_1_1,n4379__1_3_1_1_3
n4380__1_3_1_1,n4380__1_3_1_1_3
n4381__1_3_1_1,n4381__1_3_1_1_3
n4382__1_3_1_1,n4382__1_3_1_1_3
n4383__1_3_1_1,n4383__1_3_1_1_3
n4384__1_3_1_1,n4384__1_3_1_1_3
n4385__1_3_1_1,n4385__1_3_1_1_3
n4386__1_3_1_1,n4386__1_3_1_1_3
n4387__1_3_1_1,n4387__1_3_1_1_3
n4388__1_3_1_1,n4388__1_3_1_1_3
n4389__1_3_1_1,n4389__1_3_1_1_3
n4390__1_3_1_1,n4390__1_3_1_1_3
n4391__1_3_1_1,n4391__1_3_1_1_3
n4392__1_3_1_1,n4392__1_3_1_1_3
n4393__1_3_1_1,n4393__1_3_1_1_3
n4394__1_3_1_1,n4394__1_3_1_1_3
n4395__1_3_1_1,n4395__1_3_1_1_3
n4396__1_3_1_1,n4396__1_3_1_1_3
n4397__1_3_1_1,n4397__1_3_1_1_3
n4398__1_3_1_1,n4398__1_3_1_1_3
n4399__1_3_1_1,n4399__1_3_1_1_3
n4400__1_3_1_1,n4400__1_3_1_1_3
n4401__1_3_1_1,n4401__1_3_1_1_3
n4402__1_3_1_1,n4402__1_3_1_1_3
n4403__1_3_1_1,n4403__1_3_1_1_3
n4404__1_3_1_1,n4404__1_3_1_1_3
n4405__1_3_1_1,n4405__1_3_1_1_3
n4406__1_3_1_1,n4406__1_3_1_1_3
n4407__1_3_1_1,n4407__1_3_1_1_3
n4408__1_3_1_1,n4408__1_3_1_1_3
n4409__1_3_1_1,n4409__1_3_1_1_3
n4410__1_3_1_1,n4410__1_3_1_1_3
n4411__1_3_1_1,n4411__1_3_1_1_3
n4412__1_3_1_1,n4412__1_3_1_1_3
n4413__1_3_1_1,n4413__1_3_1_1_3
n4414__1_3_1_1,n4414__1_3_1_1_3
n4415__1_3_1_1,n4415__1_3_1_1_3
n4416__1_3_1_1,n4416__1_3_1_1_3
n4417__1_3_1_1,n4417__1_3_1_1_3
n4418__1_3_1_1,n4418__1_3_1_1_3
n4419__1_3_1_1,n4419__1_3_1_1_3
n4420__1_3_1_1,n4420__1_3_1_1_3
n4421__1_3_1_1,n4421__1_3_1_1_3
n4422__1_3_1_1,n4422__1_3_1_1_3
n4423__1_3_1_1,n4423__1_3_1_1_3
n4424__1_3_1_1,n4424__1_3_1_1_3
n4425__1_3_1_1,n4425__1_3_1_1_3
n4426__1_3_1_1,n4426__1_3_1_1_3
n4427__1_3_1_1,n4427__1_3_1_1_3
n4428__1_3_1_1,n4428__1_3_1_1_3
n4429__1_3_1_1,n4429__1_3_1_1_3
n4430__1_3_1_1,n4430__1_3_1_1_3
n4431__1_3_1_1,n4431__1_3_1_1_3
n4432__1_3_1_1,n4432__1_3_1_1_3
n4433__1_3_1_1,n4433__1_3_1_1_3
n4434__1_3_1_1,n4434__1_3_1_1_3
n4435__1_3_1_1,n4435__1_3_1_1_3
n4436__1_3_1_1,n4436__1_3_1_1_3
n4437__1_3_1_1,n4437__1_3_1_1_3
n4438__1_3_1_1,n4438__1_3_1_1_3
n4439__1_3_1_1,n4439__1_3_1_1_3
n4440__1_3_1_1,n4440__1_3_1_1_3
n4441__1_3_1_1,n4441__1_3_1_1_3
n4442__1_3_1_1,n4442__1_3_1_1_3
n4443__1_3_1_1,n4443__1_3_1_1_3
n4444__1_3_1_1,n4444__1_3_1_1_3
n4445__1_3_1_1,n4445__1_3_1_1_3
n4446__1_3_1_1,n4446__1_3_1_1_3
n4447__1_3_1_1,n4447__1_3_1_1_3
n4448__1_3_1_1,n4448__1_3_1_1_3
n4449__1_3_1_1,n4449__1_3_1_1_3
n4450__1_3_1_1,n4450__1_3_1_1_3
n4451__1_3_1_1,n4451__1_3_1_1_3
n4452__1_3_1_1,n4452__1_3_1_1_3
n4453__1_3_1_1,n4453__1_3_1_1_3
n4454__1_3_1_1,n4454__1_3_1_1_3
n4455__1_3_1_1,n4455__1_3_1_1_3
n4456__1_3_1_1,n4456__1_3_1_1_3
n4457__1_3_1_1,n4457__1_3_1_1_3
n4458__1_3_1_1,n4458__1_3_1_1_3
n4459__1_3_1_1,n4459__1_3_1_1_3
n4460__1_3_1_1,n4460__1_3_1_1_3
n4461__1_3_1_1,n4461__1_3_1_1_3
n4462__1_3_1_1,n4462__1_3_1_1_3
n4463__1_3_1_1,n4463__1_3_1_1_3
n4464__1_3_1_1,n4464__1_3_1_1_3
n4465__1_3_1_1,n4465__1_3_1_1_3
n4466__1_3_1_1,n4466__1_3_1_1_3
n4467__1_3_1_1,n4467__1_3_1_1_3
n4468__1_3_1_1,n4468__1_3_1_1_3
n4469__1_3_1_1,n4469__1_3_1_1_3
n4470__1_3_1_1,n4470__1_3_1_1_3
n4471__1_3_1_1,n4471__1_3_1_1_3
n4472__1_3_1_1,n4472__1_3_1_1_3
n4473__1_3_1_1,n4473__1_3_1_1_3
n4474__1_3_1_1,n4474__1_3_1_1_3
n4475__1_3_1_1,n4475__1_3_1_1_3
n4476__1_3_1_1,n4476__1_3_1_1_3
n4477__1_3_1_1,n4477__1_3_1_1_3
n4478__1_3_1_1,n4478__1_3_1_1_3
n4479__1_3_1_1,n4479__1_3_1_1_3
n4480__1_3_1_1,n4480__1_3_1_1_3
n4481__1_3_1_1,n4481__1_3_1_1_3
n4482__1_3_1_1,n4482__1_3_1_1_3
n4483__1_3_1_1,n4483__1_3_1_1_3
n4484__1_3_1_1,n4484__1_3_1_1_3
n4485__1_3_1_1,n4485__1_3_1_1_3
n4486__1_3_1_1,n4486__1_3_1_1_3
n4487__1_3_1_1,n4487__1_3_1_1_3
n4488__1_3_1_1,n4488__1_3_1_1_3
n4489__1_3_1_1,n4489__1_3_1_1_3
n4490__1_3_1_1,n4490__1_3_1_1_3
n4491__1_3_1_1,n4491__1_3_1_1_3
n4492__1_3_1_1,n4492__1_3_1_1_3
n4493__1_3_1_1,n4493__1_3_1_1_3
n4494__1_3_1_1,n4494__1_3_1_1_3
n4495__1_3_1_1,n4495__1_3_1_1_3
n4496__1_3_1_1,n4496__1_3_1_1_3
n4497__1_3_1_1,n4497__1_3_1_1_3
n4498__1_3_1_1,n4498__1_3_1_1_3
n4499__1_3_1_1,n4499__1_3_1_1_3
n4500__1_3_1_1,n4500__1_3_1_1_3
n4501__1_3_1_1,n4501__1_3_1_1_3
n4502__1_3_1_1,n4502__1_3_1_1_3
n4503__1_3_1_1,n4503__1_3_1_1_3
n4504__1_3_1_1,n4504__1_3_1_1_3
n4505__1_3_1_1,n4505__1_3_1_1_3
n4506__1_3_1_1,n4506__1_3_1_1_3
n4507__1_3_1_1,n4507__1_3_1_1_3
n4508__1_3_1_1,n4508__1_3_1_1_3
n4509__1_3_1_1,n4509__1_3_1_1_3
n4510__1_3_1_1,n4510__1_3_1_1_3
n4511__1_3_1_1,n4511__1_3_1_1_3
n4512__1_3_1_1,n4512__1_3_1_1_3
n4513__1_3_1_1,n4513__1_3_1_1_3
n4514__1_3_1_1,n4514__1_3_1_1_3
n4515__1_3_1_1,n4515__1_3_1_1_3
n4516__1_3_1_1,n4516__1_3_1_1_3
n4517__1_3_1_1,n4517__1_3_1_1_3
n4518__1_3_1_1,n4518__1_3_1_1_3
n4519__1_3_1_1,n4519__1_3_1_1_3
n4520__1_3_1_1,n4520__1_3_1_1_3
n4521__1_3_1_1,n4521__1_3_1_1_3
n4522__1_3_1_1,n4522__1_3_1_1_3
n4523__1_3_1_1,n4523__1_3_1_1_3
n4524__1_3_1_1,n4524__1_3_1_1_3
n4525__1_3_1_1,n4525__1_3_1_1_3
n4526__1_3_1_1,n4526__1_3_1_1_3
n4527__1_3_1_1,n4527__1_3_1_1_3
n4528__1_3_1_1,n4528__1_3_1_1_3
n4529__1_3_1_1,n4529__1_3_1_1_3
n4530__1_3_1_1,n4530__1_3_1_1_3
n4531__1_3_1_1,n4531__1_3_1_1_3
n4532__1_3_1_1,n4532__1_3_1_1_3
n4533__1_3_1_1,n4533__1_3_1_1_3
n4534__1_3_1_1,n4534__1_3_1_1_3
n4535__1_3_1_1,n4535__1_3_1_1_3
n4536__1_3_1_1,n4536__1_3_1_1_3
n4537__1_3_1_1,n4537__1_3_1_1_3
n4538__1_3_1_1,n4538__1_3_1_1_3
n4539__1_3_1_1,n4539__1_3_1_1_3
n4540__1_3_1_1,n4540__1_3_1_1_3
n4541__1_3_1_1,n4541__1_3_1_1_3
n4542__1_3_1_1,n4542__1_3_1_1_3
n4543__1_3_1_1,n4543__1_3_1_1_3
n4544__1_3_1_1,n4544__1_3_1_1_3
n4545__1_3_1_1,n4545__1_3_1_1_3
n4546__1_3_1_1,n4546__1_3_1_1_3
n4547__1_3_1_1,n4547__1_3_1_1_3
n4548__1_3_1_1,n4548__1_3_1_1_3
n4549__1_3_1_1,n4549__1_3_1_1_3
n4550__1_3_1_1,n4550__1_3_1_1_3
n4551__1_3_1_1,n4551__1_3_1_1_3
n4552__1_3_1_1,n4552__1_3_1_1_3
n4553__1_3_1_1,n4553__1_3_1_1_3
n4554__1_3_1_1,n4554__1_3_1_1_3
n4555__1_3_1_1,n4555__1_3_1_1_3
n4556__1_3_1_1,n4556__1_3_1_1_3
n4557__1_3_1_1,n4557__1_3_1_1_3
n4558__1_3_1_1,n4558__1_3_1_1_3
n4559__1_3_1_1,n4559__1_3_1_1_3
n4560__1_3_1_1,n4560__1_3_1_1_3
n4561__1_3_1_1,n4561__1_3_1_1_3
n4562__1_3_1_1,n4562__1_3_1_1_3
n4563__1_3_1_1,n4563__1_3_1_1_3
n4564__1_3_1_1,n4564__1_3_1_1_3
n4565__1_3_1_1,n4565__1_3_1_1_3
n4566__1_3_1_1,n4566__1_3_1_1_3
n4567__1_3_1_1,n4567__1_3_1_1_3
n4568__1_3_1_1,n4568__1_3_1_1_3
n4569__1_3_1_1,n4569__1_3_1_1_3
n4570__1_3_1_1,n4570__1_3_1_1_3
n4571__1_3_1_1,n4571__1_3_1_1_3
n4572__1_3_1_1,n4572__1_3_1_1_3
n4573__1_3_1_1,n4573__1_3_1_1_3
n4574__1_3_1_1,n4574__1_3_1_1_3
n4575__1_3_1_1,n4575__1_3_1_1_3
n4576__1_3_1_1,n4576__1_3_1_1_3
n4577__1_3_1_1,n4577__1_3_1_1_3
n4578__1_3_1_1,n4578__1_3_1_1_3
n4579__1_3_1_1,n4579__1_3_1_1_3
n4580__1_3_1_1,n4580__1_3_1_1_3
n4581__1_3_1_1,n4581__1_3_1_1_3
n4582__1_3_1_1,n4582__1_3_1_1_3
n4583__1_3_1_1,n4583__1_3_1_1_3
n4584__1_3_1_1,n4584__1_3_1_1_3
n4585__1_3_1_1,n4585__1_3_1_1_3
n4586__1_3_1_1,n4586__1_3_1_1_3
n4587__1_3_1_1,n4587__1_3_1_1_3
n4588__1_3_1_1,n4588__1_3_1_1_3
n4589__1_3_1_1,n4589__1_3_1_1_3
n4590__1_3_1_1,n4590__1_3_1_1_3
n4591__1_3_1_1,n4591__1_3_1_1_3
n4592__1_3_1_1,n4592__1_3_1_1_3
n4593__1_3_1_1,n4593__1_3_1_1_3
n4594__1_3_1_1,n4594__1_3_1_1_3
n4595__1_3_1_1,n4595__1_3_1_1_3
n4596__1_3_1_1,n4596__1_3_1_1_3
n4597__1_3_1_1,n4597__1_3_1_1_3
n4598__1_3_1_1,n4598__1_3_1_1_3
n4599__1_3_1_1,n4599__1_3_1_1_3
n4600__1_3_1_1,n4600__1_3_1_1_3
n4601__1_3_1_1,n4601__1_3_1_1_3
n4602__1_3_1_1,n4602__1_3_1_1_3
n4603__1_3_1_1,n4603__1_3_1_1_3
n4604__1_3_1_1,n4604__1_3_1_1_3
n4605__1_3_1_1,n4605__1_3_1_1_3
n4606__1_3_1_1,n4606__1_3_1_1_3
n4607__1_3_1_1,n4607__1_3_1_1_3
n4608__1_3_1_1,n4608__1_3_1_1_3
n4609__1_3_1_1,n4609__1_3_1_1_3
n4610__1_3_1_1,n4610__1_3_1_1_3
n4611__1_3_1_1,n4611__1_3_1_1_3
n4612__1_3_1_1,n4612__1_3_1_1_3
n4613__1_3_1_1,n4613__1_3_1_1_3
n4614__1_3_1_1,n4614__1_3_1_1_3
n4615__1_3_1_1,n4615__1_3_1_1_3
n4616__1_3_1_1,n4616__1_3_1_1_3
n4617__1_3_1_1,n4617__1_3_1_1_3
n4618__1_3_1_1,n4618__1_3_1_1_3
n4619__1_3_1_1,n4619__1_3_1_1_3
n4620__1_3_1_1,n4620__1_3_1_1_3
n4621__1_3_1_1,n4621__1_3_1_1_3
n4622__1_3_1_1,n4622__1_3_1_1_3
n4623__1_3_1_1,n4623__1_3_1_1_3
n4624__1_3_1_1,n4624__1_3_1_1_3
n4625__1_3_1_1,n4625__1_3_1_1_3
n4626__1_3_1_1,n4626__1_3_1_1_3
n4627__1_3_1_1,n4627__1_3_1_1_3
n4628__1_3_1_1,n4628__1_3_1_1_3
n4629__1_3_1_1,n4629__1_3_1_1_3
n4630__1_3_1_1,n4630__1_3_1_1_3
n4631__1_3_1_1,n4631__1_3_1_1_3
n4632__1_3_1_1,n4632__1_3_1_1_3
n4633__1_3_1_1,n4633__1_3_1_1_3
n4634__1_3_1_1,n4634__1_3_1_1_3
n4635__1_3_1_1,n4635__1_3_1_1_3
n4636__1_3_1_1,n4636__1_3_1_1_3
n4637__1_3_1_1,n4637__1_3_1_1_3
n4638__1_3_1_1,n4638__1_3_1_1_3
n4639__1_3_1_1,n4639__1_3_1_1_3
n4640__1_3_1_1,n4640__1_3_1_1_3
n4641__1_3_1_1,n4641__1_3_1_1_3
n4642__1_3_1_1,n4642__1_3_1_1_3
n4643__1_3_1_1,n4643__1_3_1_1_3
n4644__1_3_1_1,n4644__1_3_1_1_3
n4645__1_3_1_1,n4645__1_3_1_1_3
n4646__1_3_1_1,n4646__1_3_1_1_3
n4647__1_3_1_1,n4647__1_3_1_1_3
n4648__1_3_1_1,n4648__1_3_1_1_3
n4649__1_3_1_1,n4649__1_3_1_1_3
n4650__1_3_1_1,n4650__1_3_1_1_3
n4651__1_3_1_1,n4651__1_3_1_1_3
n4652__1_3_1_1,n4652__1_3_1_1_3
n4653__1_3_1_1,n4653__1_3_1_1_3
n4654__1_3_1_1,n4654__1_3_1_1_3
n4655__1_3_1_1,n4655__1_3_1_1_3
n4656__1_3_1_1,n4656__1_3_1_1_3
n4657__1_3_1_1,n4657__1_3_1_1_3
n4658__1_3_1_1,n4658__1_3_1_1_3
n4659__1_3_1_1,n4659__1_3_1_1_3
n4660__1_3_1_1,n4660__1_3_1_1_3
n4661__1_3_1_1,n4661__1_3_1_1_3
n4662__1_3_1_1,n4662__1_3_1_1_3
n4663__1_3_1_1,n4663__1_3_1_1_3
n4664__1_3_1_1,n4664__1_3_1_1_3
n4665__1_3_1_1,n4665__1_3_1_1_3
n4666__1_3_1_1,n4666__1_3_1_1_3
n4667__1_3_1_1,n4667__1_3_1_1_3
n4668__1_3_1_1,n4668__1_3_1_1_3
n4669__1_3_1_1,n4669__1_3_1_1_3
n4670__1_3_1_1,n4670__1_3_1_1_3
n4671__1_3_1_1,n4671__1_3_1_1_3
n4672__1_3_1_1,n4672__1_3_1_1_3
n4673__1_3_1_1,n4673__1_3_1_1_3
n4674__1_3_1_1,n4674__1_3_1_1_3
n4675__1_3_1_1,n4675__1_3_1_1_3
n4676__1_3_1_1,n4676__1_3_1_1_3
n4677__1_3_1_1,n4677__1_3_1_1_3
n4678__1_3_1_1,n4678__1_3_1_1_3
n4679__1_3_1_1,n4679__1_3_1_1_3
n4680__1_3_1_1,n4680__1_3_1_1_3
n4681__1_3_1_1,n4681__1_3_1_1_3
n4682__1_3_1_1,n4682__1_3_1_1_3
n4683__1_3_1_1,n4683__1_3_1_1_3
n4684__1_3_1_1,n4684__1_3_1_1_3
n4685__1_3_1_1,n4685__1_3_1_1_3
n4686__1_3_1_1,n4686__1_3_1_1_3
n4687__1_3_1_1,n4687__1_3_1_1_3
n4688__1_3_1_1,n4688__1_3_1_1_3
n4689__1_3_1_1,n4689__1_3_1_1_3
n4690__1_3_1_1,n4690__1_3_1_1_3
n4691__1_3_1_1,n4691__1_3_1_1_3
n4692__1_3_1_1,n4692__1_3_1_1_3
n4693__1_3_1_1,n4693__1_3_1_1_3
n4694__1_3_1_1,n4694__1_3_1_1_3
n4695__1_3_1_1,n4695__1_3_1_1_3
n4696__1_3_1_1,n4696__1_3_1_1_3
n4697__1_3_1_1,n4697__1_3_1_1_3
n4698__1_3_1_1,n4698__1_3_1_1_3
n4699__1_3_1_1,n4699__1_3_1_1_3
n4700__1_3_1_1,n4700__1_3_1_1_3
n4701__1_3_1_1,n4701__1_3_1_1_3
n4702__1_3_1_1,n4702__1_3_1_1_3
n4703__1_3_1_1,n4703__1_3_1_1_3
n4704__1_3_1_1,n4704__1_3_1_1_3
n4705__1_3_1_1,n4705__1_3_1_1_3
n4706__1_3_1_1,n4706__1_3_1_1_3
n4707__1_3_1_1,n4707__1_3_1_1_3
n4708__1_3_1_1,n4708__1_3_1_1_3
n4709__1_3_1_1,n4709__1_3_1_1_3
n4710__1_3_1_1,n4710__1_3_1_1_3
n4711__1_3_1_1,n4711__1_3_1_1_3
n4712__1_3_1_1,n4712__1_3_1_1_3
n4713__1_3_1_1,n4713__1_3_1_1_3
n4714__1_3_1_1,n4714__1_3_1_1_3
n4715__1_3_1_1,n4715__1_3_1_1_3
n4716__1_3_1_1,n4716__1_3_1_1_3
n4717__1_3_1_1,n4717__1_3_1_1_3
n4718__1_3_1_1,n4718__1_3_1_1_3
n4719__1_3_1_1,n4719__1_3_1_1_3
n4720__1_3_1_1,n4720__1_3_1_1_3
n4721__1_3_1_1,n4721__1_3_1_1_3
n4722__1_3_1_1,n4722__1_3_1_1_3
n4723__1_3_1_1,n4723__1_3_1_1_3
n4724__1_3_1_1,n4724__1_3_1_1_3
n4725__1_3_1_1,n4725__1_3_1_1_3
n4726__1_3_1_1,n4726__1_3_1_1_3
n4727__1_3_1_1,n4727__1_3_1_1_3
n4728__1_3_1_1,n4728__1_3_1_1_3
n4729__1_3_1_1,n4729__1_3_1_1_3
n4730__1_3_1_1,n4730__1_3_1_1_3
n4731__1_3_1_1,n4731__1_3_1_1_3
n4732__1_3_1_1,n4732__1_3_1_1_3
n4733__1_3_1_1,n4733__1_3_1_1_3
n4734__1_3_1_1,n4734__1_3_1_1_3
n4735__1_3_1_1,n4735__1_3_1_1_3
n4736__1_3_1_1,n4736__1_3_1_1_3
n4737__1_3_1_1,n4737__1_3_1_1_3
n4738__1_3_1_1,n4738__1_3_1_1_3
n4739__1_3_1_1,n4739__1_3_1_1_3
n4740__1_3_1_1,n4740__1_3_1_1_3
n4741__1_3_1_1,n4741__1_3_1_1_3
n4742__1_3_1_1,n4742__1_3_1_1_3
n4743__1_3_1_1,n4743__1_3_1_1_3
n4744__1_3_1_1,n4744__1_3_1_1_3
n4745__1_3_1_1,n4745__1_3_1_1_3
n4746__1_3_1_1,n4746__1_3_1_1_3
n4747__1_3_1_1,n4747__1_3_1_1_3
n4748__1_3_1_1,n4748__1_3_1_1_3
n4749__1_3_1_1,n4749__1_3_1_1_3
n4750__1_3_1_1,n4750__1_3_1_1_3
n4751__1_3_1_1,n4751__1_3_1_1_3
n4752__1_3_1_1,n4752__1_3_1_1_3
n4753__1_3_1_1,n4753__1_3_1_1_3
n4754__1_3_1_1,n4754__1_3_1_1_3
n4755__1_3_1_1,n4755__1_3_1_1_3
n4756__1_3_1_1,n4756__1_3_1_1_3
n4757__1_3_1_1,n4757__1_3_1_1_3
n4758__1_3_1_1,n4758__1_3_1_1_3
n4759__1_3_1_1,n4759__1_3_1_1_3
n4760__1_3_1_1,n4760__1_3_1_1_3
n4761__1_3_1_1,n4761__1_3_1_1_3
n4762__1_3_1_1,n4762__1_3_1_1_3
n4763__1_3_1_1,n4763__1_3_1_1_3
n4764__1_3_1_1,n4764__1_3_1_1_3
n4765__1_3_1_1,n4765__1_3_1_1_3
n4766__1_3_1_1,n4766__1_3_1_1_3
n4767__1_3_1_1,n4767__1_3_1_1_3
n4768__1_3_1_1,n4768__1_3_1_1_3
n4769__1_3_1_1,n4769__1_3_1_1_3
n4770__1_3_1_1,n4770__1_3_1_1_3
n4771__1_3_1_1,n4771__1_3_1_1_3
n4772__1_3_1_1,n4772__1_3_1_1_3
n4773__1_3_1_1,n4773__1_3_1_1_3
n4774__1_3_1_1,n4774__1_3_1_1_3
n4775__1_3_1_1,n4775__1_3_1_1_3
n4776__1_3_1_1,n4776__1_3_1_1_3
n4777__1_3_1_1,n4777__1_3_1_1_3
n4778__1_3_1_1,n4778__1_3_1_1_3
n4779__1_3_1_1,n4779__1_3_1_1_3
n4780__1_3_1_1,n4780__1_3_1_1_3
n4781__1_3_1_1,n4781__1_3_1_1_3
n4782__1_3_1_1,n4782__1_3_1_1_3
n4783__1_3_1_1,n4783__1_3_1_1_3
n4784__1_3_1_1,n4784__1_3_1_1_3
n4785__1_3_1_1,n4785__1_3_1_1_3
n4786__1_3_1_1,n4786__1_3_1_1_3
n4787__1_3_1_1,n4787__1_3_1_1_3
n4788__1_3_1_1,n4788__1_3_1_1_3
n4789__1_3_1_1,n4789__1_3_1_1_3
n4790__1_3_1_1,n4790__1_3_1_1_3
n4791__1_3_1_1,n4791__1_3_1_1_3
n4792__1_3_1_1,n4792__1_3_1_1_3
n4793__1_3_1_1,n4793__1_3_1_1_3
n4794__1_3_1_1,n4794__1_3_1_1_3
n4795__1_3_1_1,n4795__1_3_1_1_3
n4796__1_3_1_1,n4796__1_3_1_1_3
n4797__1_3_1_1,n4797__1_3_1_1_3
n4798__1_3_1_1,n4798__1_3_1_1_3
n4799__1_3_1_1,n4799__1_3_1_1_3
n4800__1_3_1_1,n4800__1_3_1_1_3
n4801__1_3_1_1,n4801__1_3_1_1_3
n4802__1_3_1_1,n4802__1_3_1_1_3
n4803__1_3_1_1,n4803__1_3_1_1_3
n4804__1_3_1_1,n4804__1_3_1_1_3
n4805__1_3_1_1,n4805__1_3_1_1_3
n4806__1_3_1_1,n4806__1_3_1_1_3
n4807__1_3_1_1,n4807__1_3_1_1_3
n4808__1_3_1_1,n4808__1_3_1_1_3
n4809__1_3_1_1,n4809__1_3_1_1_3
n4810__1_3_1_1,n4810__1_3_1_1_3
n4811__1_3_1_1,n4811__1_3_1_1_3
n4812__1_3_1_1,n4812__1_3_1_1_3
n4813__1_3_1_1,n4813__1_3_1_1_3
n4814__1_3_1_1,n4814__1_3_1_1_3
n4815__1_3_1_1,n4815__1_3_1_1_3
n4816__1_3_1_1,n4816__1_3_1_1_3
n4817__1_3_1_1,n4817__1_3_1_1_3
n4818__1_3_1_1,n4818__1_3_1_1_3
n4819__1_3_1_1,n4819__1_3_1_1_3
n4820__1_3_1_1,n4820__1_3_1_1_3
n4821__1_3_1_1,n4821__1_3_1_1_3
n4822__1_3_1_1,n4822__1_3_1_1_3
n4823__1_3_1_1,n4823__1_3_1_1_3
n4824__1_3_1_1,n4824__1_3_1_1_3
n4825__1_3_1_1,n4825__1_3_1_1_3
n4826__1_3_1_1,n4826__1_3_1_1_3
n4827__1_3_1_1,n4827__1_3_1_1_3
n4828__1_3_1_1,n4828__1_3_1_1_3
n4829__1_3_1_1,n4829__1_3_1_1_3
n4830__1_3_1_1,n4830__1_3_1_1_3
n4831__1_3_1_1,n4831__1_3_1_1_3
n4832__1_3_1_1,n4832__1_3_1_1_3
n4833__1_3_1_1,n4833__1_3_1_1_3
n4834__1_3_1_1,n4834__1_3_1_1_3
n4835__1_3_1_1,n4835__1_3_1_1_3
n4836__1_3_1_1,n4836__1_3_1_1_3
n4837__1_3_1_1,n4837__1_3_1_1_3
n4838__1_3_1_1,n4838__1_3_1_1_3
n4839__1_3_1_1,n4839__1_3_1_1_3
n4840__1_3_1_1,n4840__1_3_1_1_3
n4841__1_3_1_1,n4841__1_3_1_1_3
n4842__1_3_1_1,n4842__1_3_1_1_3
n4843__1_3_1_1,n4843__1_3_1_1_3
n4844__1_3_1_1,n4844__1_3_1_1_3
n4845__1_3_1_1,n4845__1_3_1_1_3
n4846__1_3_1_1,n4846__1_3_1_1_3
n4847__1_3_1_1,n4847__1_3_1_1_3
n4848__1_3_1_1,n4848__1_3_1_1_3
n4849__1_3_1_1,n4849__1_3_1_1_3
n4850__1_3_1_1,n4850__1_3_1_1_3
n4851__1_3_1_1,n4851__1_3_1_1_3
n4852__1_3_1_1,n4852__1_3_1_1_3
n4853__1_3_1_1,n4853__1_3_1_1_3
n4854__1_3_1_1,n4854__1_3_1_1_3
n4855__1_3_1_1,n4855__1_3_1_1_3
n4856__1_3_1_1,n4856__1_3_1_1_3
n4857__1_3_1_1,n4857__1_3_1_1_3
n4858__1_3_1_1,n4858__1_3_1_1_3
n4859__1_3_1_1,n4859__1_3_1_1_3
n4860__1_3_1_1,n4860__1_3_1_1_3
n4861__1_3_1_1,n4861__1_3_1_1_3
n4862__1_3_1_1,n4862__1_3_1_1_3
n4863__1_3_1_1,n4863__1_3_1_1_3
n4864__1_3_1_1,n4864__1_3_1_1_3
n4865__1_3_1_1,n4865__1_3_1_1_3
n4866__1_3_1_1,n4866__1_3_1_1_3
n4867__1_3_1_1,n4867__1_3_1_1_3
n4868__1_3_1_1,n4868__1_3_1_1_3
n4869__1_3_1_1,n4869__1_3_1_1_3
n4870__1_3_1_1,n4870__1_3_1_1_3
n4871__1_3_1_1,n4871__1_3_1_1_3
n4872__1_3_1_1,n4872__1_3_1_1_3
n4873__1_3_1_1,n4873__1_3_1_1_3
n4874__1_3_1_1,n4874__1_3_1_1_3
n4875__1_3_1_1,n4875__1_3_1_1_3
n4876__1_3_1_1,n4876__1_3_1_1_3
n4877__1_3_1_1,n4877__1_3_1_1_3
n4878__1_3_1_1,n4878__1_3_1_1_3
n4879__1_3_1_1,n4879__1_3_1_1_3
n4880__1_3_1_1,n4880__1_3_1_1_3
n4881__1_3_1_1,n4881__1_3_1_1_3
n4882__1_3_1_1,n4882__1_3_1_1_3
n4883__1_3_1_1,n4883__1_3_1_1_3
n4884__1_3_1_1,n4884__1_3_1_1_3
n4885__1_3_1_1,n4885__1_3_1_1_3
n4886__1_3_1_1,n4886__1_3_1_1_3
n4887__1_3_1_1,n4887__1_3_1_1_3
n4888__1_3_1_1,n4888__1_3_1_1_3
n4889__1_3_1_1,n4889__1_3_1_1_3
n4890__1_3_1_1,n4890__1_3_1_1_3
n4891__1_3_1_1,n4891__1_3_1_1_3
n4892__1_3_1_1,n4892__1_3_1_1_3
n4893__1_3_1_1,n4893__1_3_1_1_3
n4894__1_3_1_1,n4894__1_3_1_1_3
n4895__1_3_1_1,n4895__1_3_1_1_3
n4896__1_3_1_1,n4896__1_3_1_1_3
n4897__1_3_1_1,n4897__1_3_1_1_3
n4898__1_3_1_1,n4898__1_3_1_1_3
n4899__1_3_1_1,n4899__1_3_1_1_3
n4900__1_3_1_1,n4900__1_3_1_1_3
n4901__1_3_1_1,n4901__1_3_1_1_3
n4902__1_3_1_1,n4902__1_3_1_1_3
n4903__1_3_1_1,n4903__1_3_1_1_3
n4904__1_3_1_1,n4904__1_3_1_1_3
n4905__1_3_1_1,n4905__1_3_1_1_3
n4906__1_3_1_1,n4906__1_3_1_1_3
n4907__1_3_1_1,n4907__1_3_1_1_3
n4908__1_3_1_1,n4908__1_3_1_1_3
n4909__1_3_1_1,n4909__1_3_1_1_3
n4910__1_3_1_1,n4910__1_3_1_1_3
n4911__1_3_1_1,n4911__1_3_1_1_3
n4912__1_3_1_1,n4912__1_3_1_1_3
n4913__1_3_1_1,n4913__1_3_1_1_3
n4914__1_3_1_1,n4914__1_3_1_1_3
n4915__1_3_1_1,n4915__1_3_1_1_3
n4916__1_3_1_1,n4916__1_3_1_1_3
n4917__1_3_1_1,n4917__1_3_1_1_3
n4918__1_3_1_1,n4918__1_3_1_1_3
n4919__1_3_1_1,n4919__1_3_1_1_3
n4920__1_3_1_1,n4920__1_3_1_1_3
n4921__1_3_1_1,n4921__1_3_1_1_3
n4922__1_3_1_1,n4922__1_3_1_1_3
n4923__1_3_1_1,n4923__1_3_1_1_3
n4924__1_3_1_1,n4924__1_3_1_1_3
n4925__1_3_1_1,n4925__1_3_1_1_3
