n4926__1_3_1_1_16,n4926__1_3_1_1_16_3
n4927__1_3_1_1_14,n4927__1_3_1_1_14_3
n4928__1_3_1_1_9,n4928__1_3_1_1_9_3
n4929__1_3_1_1_8,n4929__1_3_1_1_8_3
n4930__1_3_1_1_12,n4930__1_3_1_1_12_3
n4931__1_3_1_1_10,n4931__1_3_1_1_10_3
n4932__1_3_1_1_11,n4932__1_3_1_1_11_3
n4933__1_3_1_1_7,n4933__1_3_1_1_7_3
n4934__1_3_1_1_18,n4934__1_3_1_1_18_3
n4935__1_3_1_1_10,n4935__1_3_1_1_10_3
n4936__1_3_1_1_15,n4936__1_3_1_1_15_3
n4937__1_3_1_1_7,n4937__1_3_1_1_7_3
n4938__1_3_1_1_7,n4938__1_3_1_1_7_3
n4939__1_3_1_1_11,n4939__1_3_1_1_11_3
n4940__1_3_1_1_28,n4940__1_3_1_1_28_3
n4941__1_3_1_1_17,n4941__1_3_1_1_17_3
n4942__1_3_1_1_18,n4942__1_3_1_1_18_3
n4943__1_3_1_1_10,n4943__1_3_1_1_10_3
n4944__1_3_1_1_15,n4944__1_3_1_1_15_3
n4945__1_3_1_1_7,n4945__1_3_1_1_7_3
n4946__1_3_1_1_11,n4946__1_3_1_1_11_3
n4947__1_3_1_1_7,n4947__1_3_1_1_7_3
n4948__1_3_1_1_22,n4948__1_3_1_1_22_3
n4949__1_3_1_1_10,n4949__1_3_1_1_10_3
n4950__1_3_1_1_16,n4950__1_3_1_1_16_3
n4951__1_3_1_1_11,n4951__1_3_1_1_11_3
n4952__1_3_1_1_9,n4952__1_3_1_1_9_3
n4953__1_3_1_1_9,n4953__1_3_1_1_9_3
n4954__1_3_1_1_7,n4954__1_3_1_1_7_3
n4955__1_3_1_1_8,n4955__1_3_1_1_8_3
n4956__1_3_1_1_8,n4956__1_3_1_1_8_3
n4957__1_3_1_1_9,n4957__1_3_1_1_9_3
n4958__1_3_1_1_10,n4958__1_3_1_1_10_3
n4959__1_3_1_1_12,n4959__1_3_1_1_12_3
n4960__1_3_1_1_11,n4960__1_3_1_1_11_3
n4961__1_3_1_1_9,n4961__1_3_1_1_9_3
n4962__1_3_1_1_12,n4962__1_3_1_1_12_3
n4963__1_3_1_1_8,n4963__1_3_1_1_8_3
n4964__1_3_1_1_10,n4964__1_3_1_1_10_3
n4965__1_3_1_1_8,n4965__1_3_1_1_8_3
n4966__1_3_1_1_9,n4966__1_3_1_1_9_3
n4967__1_3_1_1_21,n4967__1_3_1_1_21_3
n4968__1_3_1_1_32,n4968__1_3_1_1_32_3
n4969__1_3_1_1_9,n4969__1_3_1_1_9_3
n4970__1_3_1_1_11,n4970__1_3_1_1_11_3
n4971__1_3_1_1_9,n4971__1_3_1_1_9_3
n4972__1_3_1_1_6,n4972__1_3_1_1_6_3
n4973__1_3_1_1_9,n4973__1_3_1_1_9_3
n4974__1_3_1_1_9,n4974__1_3_1_1_9_3
n4975__1_3_1_1_19,n4975__1_3_1_1_19_3
n4976__1_3_1_1_14,n4976__1_3_1_1_14_3
n4977__1_3_1_1_10,n4977__1_3_1_1_10_3
n4978__1_3_1_1_8,n4978__1_3_1_1_8_3
n4979__1_3_1_1_19,n4979__1_3_1_1_19_3
n4980__1_3_1_1_17,n4980__1_3_1_1_17_3
n4981__1_3_1_1_10,n4981__1_3_1_1_10_3
n4982__1_3_1_1_11,n4982__1_3_1_1_11_3
n4983__1_3_1_1_9,n4983__1_3_1_1_9_3
n4984__1_3_1_1_12,n4984__1_3_1_1_12_3
n4985__1_3_1_1_11,n4985__1_3_1_1_11_3
n4986__1_3_1_1_7,n4986__1_3_1_1_7_3
n4987__1_3_1_1_9,n4987__1_3_1_1_9_3
n4988__1_3_1_1_9,n4988__1_3_1_1_9_3
n4989__1_3_1_1_9,n4989__1_3_1_1_9_3
n4990__1_3_1_1_8,n4990__1_3_1_1_8_3
n4991__1_3_1_1_9,n4991__1_3_1_1_9_3
n4992__1_3_1_1_10,n4992__1_3_1_1_10_3
n4993__1_3_1_1_11,n4993__1_3_1_1_11_3
n4994__1_3_1_1_8,n4994__1_3_1_1_8_3
n4995__1_3_1_1_24,n4995__1_3_1_1_24_3
n4996__1_3_1_1_30,n4996__1_3_1_1_30_3
n4997__1_3_1_1_11,n4997__1_3_1_1_11_3
n4998__1_3_1_1_15,n4998__1_3_1_1_15_3
n4999__1_3_1_1_30,n4999__1_3_1_1_30_3
n5000__1_3_1_1_8,n5000__1_3_1_1_8_3
n5001__1_3_1_1_8,n5001__1_3_1_1_8_3
n5002__1_3_1_1_6,n5002__1_3_1_1_6_3
n5003__1_3_1_1_8,n5003__1_3_1_1_8_3
n5004__1_3_1_1_11,n5004__1_3_1_1_11_3
n5005__1_3_1_1_8,n5005__1_3_1_1_8_3
n5006__1_3_1_1_20,n5006__1_3_1_1_20_3
n5007__1_3_1_1_10,n5007__1_3_1_1_10_3
n5008__1_3_1_1_9,n5008__1_3_1_1_9_3
n5009__1_3_1_1_9,n5009__1_3_1_1_9_3
n5010__1_3_1_1_7,n5010__1_3_1_1_7_3
n5011__1_3_1_1_8,n5011__1_3_1_1_8_3
n5012__1_3_1_1_7,n5012__1_3_1_1_7_3
n5013__1_3_1_1_9,n5013__1_3_1_1_9_3
n5014__1_3_1_1_18,n5014__1_3_1_1_18_3
n5015__1_3_1_1_10,n5015__1_3_1_1_10_3
n5016__1_3_1_1_15,n5016__1_3_1_1_15_3
n5017__1_3_1_1_8,n5017__1_3_1_1_8_3
n5018__1_3_1_1_7,n5018__1_3_1_1_7_3
n5019__1_3_1_1_16,n5019__1_3_1_1_16_3
n5020__1_3_1_1_11,n5020__1_3_1_1_11_3
n5021__1_3_1_1_6,n5021__1_3_1_1_6_3
n5022__1_3_1_1_14,n5022__1_3_1_1_14_3
n5023__1_3_1_1_8,n5023__1_3_1_1_8_3
n5024__1_3_1_1_23,n5024__1_3_1_1_23_3
n5025__1_3_1_1_29,n5025__1_3_1_1_29_3
n5026__1_3_1_1_16,n5026__1_3_1_1_16_3
n5027__1_3_1_1_13,n5027__1_3_1_1_13_3
n5028__1_3_1_1_13,n5028__1_3_1_1_13_3
n5029__1_3_1_1_8,n5029__1_3_1_1_8_3
n5030__1_3_1_1_26,n5030__1_3_1_1_26_3
n5031__1_3_1_1_13,n5031__1_3_1_1_13_3
n5032__1_3_1_1_10,n5032__1_3_1_1_10_3
n5033__1_3_1_1_9,n5033__1_3_1_1_9_3
n5034__1_3_1_1_13,n5034__1_3_1_1_13_3
n5035__1_3_1_1_15,n5035__1_3_1_1_15_3
n5036__1_3_1_1_9,n5036__1_3_1_1_9_3
n5037__1_3_1_1_16,n5037__1_3_1_1_16_3
n5038__1_3_1_1_9,n5038__1_3_1_1_9_3
n5039__1_3_1_1_31,n5039__1_3_1_1_31_3
n5040__1_3_1_1_7,n5040__1_3_1_1_7_3
n5041__1_3_1_1_20,n5041__1_3_1_1_20_3
n5042__1_3_1_1_13,n5042__1_3_1_1_13_3
n5043__1_3_1_1_10,n5043__1_3_1_1_10_3
n5044__1_3_1_1_15,n5044__1_3_1_1_15_3
n5045__1_3_1_1_9,n5045__1_3_1_1_9_3
n5046__1_3_1_1_9,n5046__1_3_1_1_9_3
n5047__1_3_1_1_10,n5047__1_3_1_1_10_3
n5048__1_3_1_1_13,n5048__1_3_1_1_13_3
n5049__1_3_1_1_8,n5049__1_3_1_1_8_3
n5050__1_3_1_1_14,n5050__1_3_1_1_14_3
n5051__1_3_1_1_13,n5051__1_3_1_1_13_3
n5052__1_3_1_1_14,n5052__1_3_1_1_14_3
n5053__1_3_1_1_15,n5053__1_3_1_1_15_3
n5054__1_3_1_1_9,n5054__1_3_1_1_9_3
n5055__1_3_1_1_25,n5055__1_3_1_1_25_3
n5056__1_3_1_1_8,n5056__1_3_1_1_8_3
n5057__1_3_1_1_18,n5057__1_3_1_1_18_3
n5058__1_3_1_1_13,n5058__1_3_1_1_13_3
n5059__1_3_1_1_13,n5059__1_3_1_1_13_3
n5060__1_3_1_1_8,n5060__1_3_1_1_8_3
n5061__1_3_1_1_16,n5061__1_3_1_1_16_3
n5062__1_3_1_1_10,n5062__1_3_1_1_10_3
n5063__1_3_1_1_12,n5063__1_3_1_1_12_3
n5064__1_3_1_1_10,n5064__1_3_1_1_10_3
n5065__1_3_1_1_28,n5065__1_3_1_1_28_3
n5066__1_3_1_1_8,n5066__1_3_1_1_8_3
n5067__1_3_1_1_8,n5067__1_3_1_1_8_3
n5068__1_3_1_1_8,n5068__1_3_1_1_8_3
n5069__1_3_1_1_7,n5069__1_3_1_1_7_3
n5070__1_3_1_1_13,n5070__1_3_1_1_13_3
n5071__1_3_1_1_8,n5071__1_3_1_1_8_3
n5072__1_3_1_1_13,n5072__1_3_1_1_13_3
n5073__1_3_1_1_7,n5073__1_3_1_1_7_3
n5074__1_3_1_1_6,n5074__1_3_1_1_6_3
n5075__1_3_1_1_12,n5075__1_3_1_1_12_3
n5076__1_3_1_1_9,n5076__1_3_1_1_9_3
n5077__1_3_1_1_8,n5077__1_3_1_1_8_3
n5078__1_3_1_1_9,n5078__1_3_1_1_9_3
n5079__1_3_1_1_11,n5079__1_3_1_1_11_3
n5080__1_3_1_1_13,n5080__1_3_1_1_13_3
n5081__1_3_1_1_9,n5081__1_3_1_1_9_3
n5082__1_3_1_1_15,n5082__1_3_1_1_15_3
n5083__1_3_1_1_29,n5083__1_3_1_1_29_3
n5084__1_3_1_1_10,n5084__1_3_1_1_10_3
n5085__1_3_1_1_7,n5085__1_3_1_1_7_3
n5086__1_3_1_1_25,n5086__1_3_1_1_25_3
n5087__1_3_1_1_10,n5087__1_3_1_1_10_3
n5088__1_3_1_1_10,n5088__1_3_1_1_10_3
n5089__1_3_1_1_16,n5089__1_3_1_1_16_3
n5090__1_3_1_1_12,n5090__1_3_1_1_12_3
n5091__1_3_1_1_20,n5091__1_3_1_1_20_3
n5092__1_3_1_1_20,n5092__1_3_1_1_20_3
n5093__1_3_1_1_11,n5093__1_3_1_1_11_3
n5094__1_3_1_1_9,n5094__1_3_1_1_9_3
n5095__1_3_1_1_12,n5095__1_3_1_1_12_3
n5096__1_3_1_1_10,n5096__1_3_1_1_10_3
n5097__1_3_1_1_15,n5097__1_3_1_1_15_3
n5098__1_3_1_1_9,n5098__1_3_1_1_9_3
n5099__1_3_1_1_12,n5099__1_3_1_1_12_3
n5100__1_3_1_1_11,n5100__1_3_1_1_11_3
n5101__1_3_1_1_14,n5101__1_3_1_1_14_3
n5102__1_3_1_1_15,n5102__1_3_1_1_15_3
n5103__1_3_1_1_15,n5103__1_3_1_1_15_3
n5104__1_3_1_1_7,n5104__1_3_1_1_7_3
n5105__1_3_1_1_21,n5105__1_3_1_1_21_3
n5106__1_3_1_1_11,n5106__1_3_1_1_11_3
n5107__1_3_1_1_15,n5107__1_3_1_1_15_3
n5108__1_3_1_1_14,n5108__1_3_1_1_14_3
n5109__1_3_1_1_18,n5109__1_3_1_1_18_3
n5110__1_3_1_1_12,n5110__1_3_1_1_12_3
n5111__1_3_1_1_6,n5111__1_3_1_1_6_3
n5112__1_3_1_1_13,n5112__1_3_1_1_13_3
n5113__1_3_1_1_16,n5113__1_3_1_1_16_3
n5114__1_3_1_1_8,n5114__1_3_1_1_8_3
n5115__1_3_1_1_10,n5115__1_3_1_1_10_3
n5116__1_3_1_1_11,n5116__1_3_1_1_11_3
n5117__1_3_1_1_10,n5117__1_3_1_1_10_3
n5118__1_3_1_1_18,n5118__1_3_1_1_18_3
n5119__1_3_1_1_8,n5119__1_3_1_1_8_3
n5120__1_3_1_1_8,n5120__1_3_1_1_8_3
n5121__1_3_1_1_9,n5121__1_3_1_1_9_3
n5122__1_3_1_1_10,n5122__1_3_1_1_10_3
n5123__1_3_1_1_10,n5123__1_3_1_1_10_3
n5124__1_3_1_1_11,n5124__1_3_1_1_11_3
n5125__1_3_1_1_8,n5125__1_3_1_1_8_3
n5126__1_3_1_1_12,n5126__1_3_1_1_12_3
n5127__1_3_1_1_8,n5127__1_3_1_1_8_3
n5128__1_3_1_1_7,n5128__1_3_1_1_7_3
n5129__1_3_1_1_11,n5129__1_3_1_1_11_3
n5130__1_3_1_1_11,n5130__1_3_1_1_11_3
n5131__1_3_1_1_23,n5131__1_3_1_1_23_3
n5132__1_3_1_1_7,n5132__1_3_1_1_7_3
n5133__1_3_1_1_19,n5133__1_3_1_1_19_3
n5134__1_3_1_1_16,n5134__1_3_1_1_16_3
n5135__1_3_1_1_13,n5135__1_3_1_1_13_3
n5136__1_3_1_1_21,n5136__1_3_1_1_21_3
n5137__1_3_1_1_16,n5137__1_3_1_1_16_3
n5138__1_3_1_1_9,n5138__1_3_1_1_9_3
n5139__1_3_1_1_9,n5139__1_3_1_1_9_3
n5140__1_3_1_1_17,n5140__1_3_1_1_17_3
n5141__1_3_1_1_21,n5141__1_3_1_1_21_3
n5142__1_3_1_1_9,n5142__1_3_1_1_9_3
n5143__1_3_1_1_12,n5143__1_3_1_1_12_3
n5144__1_3_1_1_7,n5144__1_3_1_1_7_3
n5145__1_3_1_1_11,n5145__1_3_1_1_11_3
n5146__1_3_1_1_14,n5146__1_3_1_1_14_3
n5147__1_3_1_1_7,n5147__1_3_1_1_7_3
n5148__1_3_1_1_8,n5148__1_3_1_1_8_3
n5149__1_3_1_1_19,n5149__1_3_1_1_19_3
n5150__1_3_1_1_12,n5150__1_3_1_1_12_3
n5151__1_3_1_1_9,n5151__1_3_1_1_9_3
n5152__1_3_1_1_16,n5152__1_3_1_1_16_3
n5153__1_3_1_1_8,n5153__1_3_1_1_8_3
n5154__1_3_1_1_7,n5154__1_3_1_1_7_3
n5155__1_3_1_1_10,n5155__1_3_1_1_10_3
n5156__1_3_1_1_9,n5156__1_3_1_1_9_3
n5157__1_3_1_1_11,n5157__1_3_1_1_11_3
n5158__1_3_1_1_8,n5158__1_3_1_1_8_3
n5159__1_3_1_1_13,n5159__1_3_1_1_13_3
n5160__1_3_1_1_27,n5160__1_3_1_1_27_3
n5161__1_3_1_1_14,n5161__1_3_1_1_14_3
n5162__1_3_1_1_18,n5162__1_3_1_1_18_3
n5163__1_3_1_1_8,n5163__1_3_1_1_8_3
n5164__1_3_1_1_12,n5164__1_3_1_1_12_3
n5165__1_3_1_1_11,n5165__1_3_1_1_11_3
n5166__1_3_1_1_16,n5166__1_3_1_1_16_3
n5167__1_3_1_1_15,n5167__1_3_1_1_15_3
n5168__1_3_1_1_23,n5168__1_3_1_1_23_3
n5169__1_3_1_1_18,n5169__1_3_1_1_18_3
n5170__1_3_1_1_21,n5170__1_3_1_1_21_3
n5171__1_3_1_1_8,n5171__1_3_1_1_8_3
n5172__1_3_1_1_9,n5172__1_3_1_1_9_3
n5173__1_3_1_1_8,n5173__1_3_1_1_8_3
n5174__1_3_1_1_13,n5174__1_3_1_1_13_3
n5175__1_3_1_1_9,n5175__1_3_1_1_9_3
n5176__1_3_1_1_9,n5176__1_3_1_1_9_3
n5177__1_3_1_1_10,n5177__1_3_1_1_10_3
n5178__1_3_1_1_12,n5178__1_3_1_1_12_3
n5179__1_3_1_1_11,n5179__1_3_1_1_11_3
n5180__1_3_1_1_13,n5180__1_3_1_1_13_3
n5181__1_3_1_1_12,n5181__1_3_1_1_12_3
n5182__1_3_1_1_8,n5182__1_3_1_1_8_3
n5183__1_3_1_1_11,n5183__1_3_1_1_11_3
n5184__1_3_1_1_8,n5184__1_3_1_1_8_3
n5185__1_3_1_1_6,n5185__1_3_1_1_6_3
n5186__1_3_1_1_14,n5186__1_3_1_1_14_3
n5187__1_3_1_1_8,n5187__1_3_1_1_8_3
n5188__1_3_1_1_14,n5188__1_3_1_1_14_3
n5189__1_3_1_1_11,n5189__1_3_1_1_11_3
n5190__1_3_1_1_8,n5190__1_3_1_1_8_3
n5191__1_3_1_1_31,n5191__1_3_1_1_31_3
n5192__1_3_1_1_15,n5192__1_3_1_1_15_3
n5193__1_3_1_1_23,n5193__1_3_1_1_23_3
n5194__1_3_1_1_7,n5194__1_3_1_1_7_3
n5195__1_3_1_1_16,n5195__1_3_1_1_16_3
n5196__1_3_1_1_9,n5196__1_3_1_1_9_3
n5197__1_3_1_1_10,n5197__1_3_1_1_10_3
n5198__1_3_1_1_14,n5198__1_3_1_1_14_3
n5199__1_3_1_1_8,n5199__1_3_1_1_8_3
n5200__1_3_1_1_8,n5200__1_3_1_1_8_3
n5201__1_3_1_1_9,n5201__1_3_1_1_9_3
n5202__1_3_1_1_12,n5202__1_3_1_1_12_3
n5203__1_3_1_1_8,n5203__1_3_1_1_8_3
n5204__1_3_1_1_14,n5204__1_3_1_1_14_3
n5205__1_3_1_1_9,n5205__1_3_1_1_9_3
n5206__1_3_1_1_10,n5206__1_3_1_1_10_3
n5207__1_3_1_1_10,n5207__1_3_1_1_10_3
n5208__1_3_1_1_6,n5208__1_3_1_1_6_3
n5209__1_3_1_1_12,n5209__1_3_1_1_12_3
n5210__1_3_1_1_9,n5210__1_3_1_1_9_3
n5211__1_3_1_1_10,n5211__1_3_1_1_10_3
n5212__1_3_1_1_11,n5212__1_3_1_1_11_3
n5213__1_3_1_1_9,n5213__1_3_1_1_9_3
n5214__1_3_1_1_7,n5214__1_3_1_1_7_3
n5215__1_3_1_1_7,n5215__1_3_1_1_7_3
n5216__1_3_1_1_12,n5216__1_3_1_1_12_3
n5217__1_3_1_1_16,n5217__1_3_1_1_16_3
n5218__1_3_1_1_13,n5218__1_3_1_1_13_3
n5219__1_3_1_1_13,n5219__1_3_1_1_13_3
n5220__1_3_1_1_8,n5220__1_3_1_1_8_3
n5221__1_3_1_1_11,n5221__1_3_1_1_11_3
n5222__1_3_1_1_19,n5222__1_3_1_1_19_3
n5223__1_3_1_1_8,n5223__1_3_1_1_8_3
n5224__1_3_1_1_29,n5224__1_3_1_1_29_3
n5225__1_3_1_1_8,n5225__1_3_1_1_8_3
n5226__1_3_1_1_14,n5226__1_3_1_1_14_3
n5227__1_3_1_1_8,n5227__1_3_1_1_8_3
n5228__1_3_1_1_13,n5228__1_3_1_1_13_3
n5229__1_3_1_1_8,n5229__1_3_1_1_8_3
n5230__1_3_1_1_16,n5230__1_3_1_1_16_3
n5231__1_3_1_1_10,n5231__1_3_1_1_10_3
n5232__1_3_1_1_17,n5232__1_3_1_1_17_3
n5233__1_3_1_1_13,n5233__1_3_1_1_13_3
n5234__1_3_1_1_14,n5234__1_3_1_1_14_3
n5235__1_3_1_1_13,n5235__1_3_1_1_13_3
n5236__1_3_1_1_7,n5236__1_3_1_1_7_3
n5237__1_3_1_1_14,n5237__1_3_1_1_14_3
n5238__1_3_1_1_12,n5238__1_3_1_1_12_3
n5239__1_3_1_1_8,n5239__1_3_1_1_8_3
n5240__1_3_1_1_13,n5240__1_3_1_1_13_3
n5241__1_3_1_1_8,n5241__1_3_1_1_8_3
n5242__1_3_1_1_24,n5242__1_3_1_1_24_3
n5243__1_3_1_1_9,n5243__1_3_1_1_9_3
n5244__1_3_1_1_10,n5244__1_3_1_1_10_3
n5245__1_3_1_1_7,n5245__1_3_1_1_7_3
n5246__1_3_1_1_11,n5246__1_3_1_1_11_3
n5247__1_3_1_1_14,n5247__1_3_1_1_14_3
n5248__1_3_1_1_9,n5248__1_3_1_1_9_3
n5249__1_3_1_1_7,n5249__1_3_1_1_7_3
n5250__1_3_1_1_7,n5250__1_3_1_1_7_3
n5251__1_3_1_1_8,n5251__1_3_1_1_8_3
n5252__1_3_1_1_9,n5252__1_3_1_1_9_3
n5253__1_3_1_1_10,n5253__1_3_1_1_10_3
n5254__1_3_1_1_9,n5254__1_3_1_1_9_3
n5255__1_3_1_1_7,n5255__1_3_1_1_7_3
n5256__1_3_1_1_10,n5256__1_3_1_1_10_3
n5257__1_3_1_1_14,n5257__1_3_1_1_14_3
n5258__1_3_1_1_13,n5258__1_3_1_1_13_3
n5259__1_3_1_1_9,n5259__1_3_1_1_9_3
n5260__1_3_1_1_9,n5260__1_3_1_1_9_3
n5261__1_3_1_1_6,n5261__1_3_1_1_6_3
n5262__1_3_1_1_20,n5262__1_3_1_1_20_3
n5263__1_3_1_1_18,n5263__1_3_1_1_18_3
n5264__1_3_1_1_16,n5264__1_3_1_1_16_3
n5265__1_3_1_1_10,n5265__1_3_1_1_10_3
n5266__1_3_1_1_6,n5266__1_3_1_1_6_3
n5267__1_3_1_1_10,n5267__1_3_1_1_10_3
n5268__1_3_1_1_16,n5268__1_3_1_1_16_3
n5269__1_3_1_1_9,n5269__1_3_1_1_9_3
n5270__1_3_1_1_15,n5270__1_3_1_1_15_3
n5271__1_3_1_1_12,n5271__1_3_1_1_12_3
n5272__1_3_1_1_14,n5272__1_3_1_1_14_3
n5273__1_3_1_1_13,n5273__1_3_1_1_13_3
n5274__1_3_1_1_7,n5274__1_3_1_1_7_3
n5275__1_3_1_1_16,n5275__1_3_1_1_16_3
n5276__1_3_1_1_11,n5276__1_3_1_1_11_3
n5277__1_3_1_1_24,n5277__1_3_1_1_24_3
n5278__1_3_1_1_6,n5278__1_3_1_1_6_3
n5279__1_3_1_1_6,n5279__1_3_1_1_6_3
n5280__1_3_1_1_12,n5280__1_3_1_1_12_3
n5281__1_3_1_1_10,n5281__1_3_1_1_10_3
n5282__1_3_1_1_13,n5282__1_3_1_1_13_3
n5283__1_3_1_1_11,n5283__1_3_1_1_11_3
n5284__1_3_1_1_9,n5284__1_3_1_1_9_3
n5285__1_3_1_1_11,n5285__1_3_1_1_11_3
n5286__1_3_1_1_23,n5286__1_3_1_1_23_3
n5287__1_3_1_1_9,n5287__1_3_1_1_9_3
n5288__1_3_1_1_9,n5288__1_3_1_1_9_3
n5289__1_3_1_1_10,n5289__1_3_1_1_10_3
n5290__1_3_1_1_8,n5290__1_3_1_1_8_3
n5291__1_3_1_1_8,n5291__1_3_1_1_8_3
n5292__1_3_1_1_18,n5292__1_3_1_1_18_3
n5293__1_3_1_1_10,n5293__1_3_1_1_10_3
n5294__1_3_1_1_10,n5294__1_3_1_1_10_3
n5295__1_3_1_1_8,n5295__1_3_1_1_8_3
n5296__1_3_1_1_7,n5296__1_3_1_1_7_3
n5297__1_3_1_1_15,n5297__1_3_1_1_15_3
n5298__1_3_1_1_12,n5298__1_3_1_1_12_3
n5299__1_3_1_1_10,n5299__1_3_1_1_10_3
n5300__1_3_1_1_23,n5300__1_3_1_1_23_3
n5301__1_3_1_1_8,n5301__1_3_1_1_8_3
n5302__1_3_1_1_19,n5302__1_3_1_1_19_3
n5303__1_3_1_1_9,n5303__1_3_1_1_9_3
n5304__1_3_1_1_19,n5304__1_3_1_1_19_3
n5305__1_3_1_1_16,n5305__1_3_1_1_16_3
n5306__1_3_1_1_9,n5306__1_3_1_1_9_3
n5307__1_3_1_1_10,n5307__1_3_1_1_10_3
n5308__1_3_1_1_7,n5308__1_3_1_1_7_3
n5309__1_3_1_1_11,n5309__1_3_1_1_11_3
n5310__1_3_1_1_13,n5310__1_3_1_1_13_3
n5311__1_3_1_1_10,n5311__1_3_1_1_10_3
n5312__1_3_1_1_11,n5312__1_3_1_1_11_3
n5313__1_3_1_1_9,n5313__1_3_1_1_9_3
n5314__1_3_1_1_6,n5314__1_3_1_1_6_3
n5315__1_3_1_1_15,n5315__1_3_1_1_15_3
n5316__1_3_1_1_7,n5316__1_3_1_1_7_3
n5317__1_3_1_1_10,n5317__1_3_1_1_10_3
n5318__1_3_1_1_14,n5318__1_3_1_1_14_3
n5319__1_3_1_1_10,n5319__1_3_1_1_10_3
n5320__1_3_1_1_8,n5320__1_3_1_1_8_3
n5321__1_3_1_1_8,n5321__1_3_1_1_8_3
n5322__1_3_1_1_13,n5322__1_3_1_1_13_3
n5323__1_3_1_1_16,n5323__1_3_1_1_16_3
n5324__1_3_1_1_6,n5324__1_3_1_1_6_3
n5325__1_3_1_1_9,n5325__1_3_1_1_9_3
n5326__1_3_1_1_7,n5326__1_3_1_1_7_3
n5327__1_3_1_1_6,n5327__1_3_1_1_6_3
n5328__1_3_1_1_10,n5328__1_3_1_1_10_3
n5329__1_3_1_1_11,n5329__1_3_1_1_11_3
n5330__1_3_1_1_11,n5330__1_3_1_1_11_3
n5331__1_3_1_1_9,n5331__1_3_1_1_9_3
n5332__1_3_1_1_17,n5332__1_3_1_1_17_3
n5333__1_3_1_1_9,n5333__1_3_1_1_9_3
n5334__1_3_1_1_15,n5334__1_3_1_1_15_3
n5335__1_3_1_1_9,n5335__1_3_1_1_9_3
n5336__1_3_1_1_14,n5336__1_3_1_1_14_3
n5337__1_3_1_1_8,n5337__1_3_1_1_8_3
n5338__1_3_1_1_16,n5338__1_3_1_1_16_3
n5339__1_3_1_1_8,n5339__1_3_1_1_8_3
n5340__1_3_1_1_11,n5340__1_3_1_1_11_3
n5341__1_3_1_1_17,n5341__1_3_1_1_17_3
n5342__1_3_1_1_11,n5342__1_3_1_1_11_3
n5343__1_3_1_1_30,n5343__1_3_1_1_30_3
n5344__1_3_1_1_10,n5344__1_3_1_1_10_3
n5345__1_3_1_1_10,n5345__1_3_1_1_10_3
n5346__1_3_1_1_9,n5346__1_3_1_1_9_3
n5347__1_3_1_1_12,n5347__1_3_1_1_12_3
n5348__1_3_1_1_13,n5348__1_3_1_1_13_3
n5349__1_3_1_1_19,n5349__1_3_1_1_19_3
n5350__1_3_1_1_8,n5350__1_3_1_1_8_3
n5351__1_3_1_1_11,n5351__1_3_1_1_11_3
n5352__1_3_1_1_10,n5352__1_3_1_1_10_3
n5353__1_3_1_1_14,n5353__1_3_1_1_14_3
n5354__1_3_1_1_15,n5354__1_3_1_1_15_3
n5355__1_3_1_1_26,n5355__1_3_1_1_26_3
n5356__1_3_1_1_10,n5356__1_3_1_1_10_3
n5357__1_3_1_1_16,n5357__1_3_1_1_16_3
n5358__1_3_1_1_15,n5358__1_3_1_1_15_3
n5359__1_3_1_1_25,n5359__1_3_1_1_25_3
n5360__1_3_1_1_19,n5360__1_3_1_1_19_3
n5361__1_3_1_1_17,n5361__1_3_1_1_17_3
n5362__1_3_1_1_15,n5362__1_3_1_1_15_3
n5363__1_3_1_1_8,n5363__1_3_1_1_8_3
n5364__1_3_1_1_7,n5364__1_3_1_1_7_3
n5365__1_3_1_1_8,n5365__1_3_1_1_8_3
n5366__1_3_1_1_7,n5366__1_3_1_1_7_3
n5367__1_3_1_1_12,n5367__1_3_1_1_12_3
n5368__1_3_1_1_19,n5368__1_3_1_1_19_3
n5369__1_3_1_1_42,n5369__1_3_1_1_42_3
n5370__1_3_1_1_12,n5370__1_3_1_1_12_3
n5371__1_3_1_1_7,n5371__1_3_1_1_7_3
n5372__1_3_1_1_6,n5372__1_3_1_1_6_3
n5373__1_3_1_1_7,n5373__1_3_1_1_7_3
n5374__1_3_1_1_12,n5374__1_3_1_1_12_3
n5375__1_3_1_1_13,n5375__1_3_1_1_13_3
n5376__1_3_1_1_8,n5376__1_3_1_1_8_3
n5377__1_3_1_1_8,n5377__1_3_1_1_8_3
n5378__1_3_1_1_11,n5378__1_3_1_1_11_3
n5379__1_3_1_1_8,n5379__1_3_1_1_8_3
n5380__1_3_1_1_11,n5380__1_3_1_1_11_3
n5381__1_3_1_1_14,n5381__1_3_1_1_14_3
n5382__1_3_1_1_7,n5382__1_3_1_1_7_3
n5383__1_3_1_1_14,n5383__1_3_1_1_14_3
n5384__1_3_1_1_10,n5384__1_3_1_1_10_3
n5385__1_3_1_1_10,n5385__1_3_1_1_10_3
n5386__1_3_1_1_9,n5386__1_3_1_1_9_3
n5387__1_3_1_1_19,n5387__1_3_1_1_19_3
n5388__1_3_1_1_15,n5388__1_3_1_1_15_3
n5389__1_3_1_1_9,n5389__1_3_1_1_9_3
n5390__1_3_1_1_6,n5390__1_3_1_1_6_3
n5391__1_3_1_1_19,n5391__1_3_1_1_19_3
n5392__1_3_1_1_13,n5392__1_3_1_1_13_3
n5393__1_3_1_1_8,n5393__1_3_1_1_8_3
n5394__1_3_1_1_9,n5394__1_3_1_1_9_3
n5395__1_3_1_1_8,n5395__1_3_1_1_8_3
n5396__1_3_1_1_11,n5396__1_3_1_1_11_3
n5397__1_3_1_1_11,n5397__1_3_1_1_11_3
n5398__1_3_1_1_14,n5398__1_3_1_1_14_3
n5399__1_3_1_1_11,n5399__1_3_1_1_11_3
n5400__1_3_1_1_11,n5400__1_3_1_1_11_3
n5401__1_3_1_1_8,n5401__1_3_1_1_8_3
n5402__1_3_1_1_18,n5402__1_3_1_1_18_3
n5403__1_3_1_1_10,n5403__1_3_1_1_10_3
n5404__1_3_1_1_16,n5404__1_3_1_1_16_3
n5405__1_3_1_1_10,n5405__1_3_1_1_10_3
n5406__1_3_1_1_12,n5406__1_3_1_1_12_3
n5407__1_3_1_1_29,n5407__1_3_1_1_29_3
n5408__1_3_1_1_10,n5408__1_3_1_1_10_3
n5409__1_3_1_1_9,n5409__1_3_1_1_9_3
n5410__1_3_1_1_11,n5410__1_3_1_1_11_3
n5411__1_3_1_1_28,n5411__1_3_1_1_28_3
n5412__1_3_1_1_12,n5412__1_3_1_1_12_3
n5413__1_3_1_1_13,n5413__1_3_1_1_13_3
n5414__1_3_1_1_9,n5414__1_3_1_1_9_3
n5415__1_3_1_1_7,n5415__1_3_1_1_7_3
n5416__1_3_1_1_10,n5416__1_3_1_1_10_3
n5417__1_3_1_1_7,n5417__1_3_1_1_7_3
n5418__1_3_1_1_9,n5418__1_3_1_1_9_3
n5419__1_3_1_1_10,n5419__1_3_1_1_10_3
n5420__1_3_1_1_18,n5420__1_3_1_1_18_3
n5421__1_3_1_1_7,n5421__1_3_1_1_7_3
n5422__1_3_1_1_13,n5422__1_3_1_1_13_3
n5423__1_3_1_1_9,n5423__1_3_1_1_9_3
n5424__1_3_1_1_7,n5424__1_3_1_1_7_3
n5425__1_3_1_1_19,n5425__1_3_1_1_19_3
n5426__1_3_1_1_12,n5426__1_3_1_1_12_3
n5427__1_3_1_1_16,n5427__1_3_1_1_16_3
n5428__1_3_1_1_8,n5428__1_3_1_1_8_3
n5429__1_3_1_1_15,n5429__1_3_1_1_15_3
n5430__1_3_1_1_11,n5430__1_3_1_1_11_3
n5431__1_3_1_1_9,n5431__1_3_1_1_9_3
n5432__1_3_1_1_17,n5432__1_3_1_1_17_3
n5433__1_3_1_1_10,n5433__1_3_1_1_10_3
n5434__1_3_1_1_15,n5434__1_3_1_1_15_3
n5435__1_3_1_1_7,n5435__1_3_1_1_7_3
n5436__1_3_1_1_17,n5436__1_3_1_1_17_3
n5437__1_3_1_1_12,n5437__1_3_1_1_12_3
n5438__1_3_1_1_13,n5438__1_3_1_1_13_3
n5439__1_3_1_1_16,n5439__1_3_1_1_16_3
n5440__1_3_1_1_10,n5440__1_3_1_1_10_3
n5441__1_3_1_1_11,n5441__1_3_1_1_11_3
n5442__1_3_1_1_10,n5442__1_3_1_1_10_3
n5443__1_3_1_1_7,n5443__1_3_1_1_7_3
n5444__1_3_1_1_9,n5444__1_3_1_1_9_3
n5445__1_3_1_1_21,n5445__1_3_1_1_21_3
n5446__1_3_1_1_9,n5446__1_3_1_1_9_3
n5447__1_3_1_1_9,n5447__1_3_1_1_9_3
n5448__1_3_1_1_7,n5448__1_3_1_1_7_3
n5449__1_3_1_1_9,n5449__1_3_1_1_9_3
n5450__1_3_1_1_9,n5450__1_3_1_1_9_3
n5451__1_3_1_1_27,n5451__1_3_1_1_27_3
n5452__1_3_1_1_9,n5452__1_3_1_1_9_3
n5453__1_3_1_1_29,n5453__1_3_1_1_29_3
n5454__1_3_1_1_9,n5454__1_3_1_1_9_3
n5455__1_3_1_1_20,n5455__1_3_1_1_20_3
n5456__1_3_1_1_10,n5456__1_3_1_1_10_3
n5457__1_3_1_1_13,n5457__1_3_1_1_13_3
n5458__1_3_1_1_18,n5458__1_3_1_1_18_3
n5459__1_3_1_1_9,n5459__1_3_1_1_9_3
n5460__1_3_1_1_8,n5460__1_3_1_1_8_3
n5461__1_3_1_1_8,n5461__1_3_1_1_8_3
n5462__1_3_1_1_10,n5462__1_3_1_1_10_3
n5463__1_3_1_1_8,n5463__1_3_1_1_8_3
n5464__1_3_1_1_20,n5464__1_3_1_1_20_3
n5465__1_3_1_1_7,n5465__1_3_1_1_7_3
n5466__1_3_1_1_7,n5466__1_3_1_1_7_3
n5467__1_3_1_1_22,n5467__1_3_1_1_22_3
n5468__1_3_1_1_11,n5468__1_3_1_1_11_3
n5469__1_3_1_1_7,n5469__1_3_1_1_7_3
n5470__1_3_1_1_10,n5470__1_3_1_1_10_3
n5471__1_3_1_1_8,n5471__1_3_1_1_8_3
n5472__1_3_1_1_11,n5472__1_3_1_1_11_3
n5473__1_3_1_1_19,n5473__1_3_1_1_19_3
n5474__1_3_1_1_13,n5474__1_3_1_1_13_3
n5475__1_3_1_1_8,n5475__1_3_1_1_8_3
n5476__1_3_1_1_16,n5476__1_3_1_1_16_3
n5477__1_3_1_1_17,n5477__1_3_1_1_17_3
n5478__1_3_1_1_7,n5478__1_3_1_1_7_3
n5479__1_3_1_1_7,n5479__1_3_1_1_7_3
n5480__1_3_1_1_7,n5480__1_3_1_1_7_3
n5481__1_3_1_1_8,n5481__1_3_1_1_8_3
n5482__1_3_1_1_23,n5482__1_3_1_1_23_3
n5483__1_3_1_1_7,n5483__1_3_1_1_7_3
n5484__1_3_1_1_10,n5484__1_3_1_1_10_3
n5485__1_3_1_1_12,n5485__1_3_1_1_12_3
n5486__1_3_1_1_12,n5486__1_3_1_1_12_3
n5487__1_3_1_1_9,n5487__1_3_1_1_9_3
n5488__1_3_1_1_8,n5488__1_3_1_1_8_3
n5489__1_3_1_1_7,n5489__1_3_1_1_7_3
n5490__1_3_1_1_9,n5490__1_3_1_1_9_3
n5491__1_3_1_1_8,n5491__1_3_1_1_8_3
n5492__1_3_1_1_16,n5492__1_3_1_1_16_3
n5493__1_3_1_1_19,n5493__1_3_1_1_19_3
n5494__1_3_1_1_12,n5494__1_3_1_1_12_3
n5495__1_3_1_1_7,n5495__1_3_1_1_7_3
n5496__1_3_1_1_8,n5496__1_3_1_1_8_3
n5497__1_3_1_1_9,n5497__1_3_1_1_9_3
n5498__1_3_1_1_16,n5498__1_3_1_1_16_3
n5499__1_3_1_1_11,n5499__1_3_1_1_11_3
n5500__1_3_1_1_17,n5500__1_3_1_1_17_3
n5501__1_3_1_1_10,n5501__1_3_1_1_10_3
n5502__1_3_1_1_6,n5502__1_3_1_1_6_3
n5503__1_3_1_1_12,n5503__1_3_1_1_12_3
n5504__1_3_1_1_9,n5504__1_3_1_1_9_3
n5505__1_3_1_1_8,n5505__1_3_1_1_8_3
n5506__1_3_1_1_10,n5506__1_3_1_1_10_3
n5507__1_3_1_1_17,n5507__1_3_1_1_17_3
n5508__1_3_1_1_9,n5508__1_3_1_1_9_3
n5509__1_3_1_1_8,n5509__1_3_1_1_8_3
n5510__1_3_1_1_6,n5510__1_3_1_1_6_3
n5511__1_3_1_1_16,n5511__1_3_1_1_16_3
n5512__1_3_1_1_22,n5512__1_3_1_1_22_3
n5513__1_3_1_1_6,n5513__1_3_1_1_6_3
n5514__1_3_1_1_16,n5514__1_3_1_1_16_3
n5515__1_3_1_1_9,n5515__1_3_1_1_9_3
n5516__1_3_1_1_22,n5516__1_3_1_1_22_3
n5517__1_3_1_1_11,n5517__1_3_1_1_11_3
n5518__1_3_1_1_8,n5518__1_3_1_1_8_3
n5519__1_3_1_1_12,n5519__1_3_1_1_12_3
n5520__1_3_1_1_13,n5520__1_3_1_1_13_3
n5521__1_3_1_1_14,n5521__1_3_1_1_14_3
n5522__1_3_1_1_13,n5522__1_3_1_1_13_3
n5523__1_3_1_1_9,n5523__1_3_1_1_9_3
n5524__1_3_1_1_11,n5524__1_3_1_1_11_3
n5525__1_3_1_1_7,n5525__1_3_1_1_7_3
n5526__1_3_1_1_8,n5526__1_3_1_1_8_3
n5527__1_3_1_1_17,n5527__1_3_1_1_17_3
n5528__1_3_1_1_8,n5528__1_3_1_1_8_3
n5529__1_3_1_1_9,n5529__1_3_1_1_9_3
n5530__1_3_1_1_7,n5530__1_3_1_1_7_3
n5531__1_3_1_1_7,n5531__1_3_1_1_7_3
n5532__1_3_1_1_11,n5532__1_3_1_1_11_3
n5533__1_3_1_1_10,n5533__1_3_1_1_10_3
n5534__1_3_1_1_8,n5534__1_3_1_1_8_3
n5535__1_3_1_1_16,n5535__1_3_1_1_16_3
n5536__1_3_1_1_26,n5536__1_3_1_1_26_3
n5537__1_3_1_1_12,n5537__1_3_1_1_12_3
n5538__1_3_1_1_8,n5538__1_3_1_1_8_3
n5539__1_3_1_1_12,n5539__1_3_1_1_12_3
n5540__1_3_1_1_10,n5540__1_3_1_1_10_3
n5541__1_3_1_1_12,n5541__1_3_1_1_12_3
n5542__1_3_1_1_14,n5542__1_3_1_1_14_3
n5543__1_3_1_1_9,n5543__1_3_1_1_9_3
n5544__1_3_1_1_9,n5544__1_3_1_1_9_3
n5545__1_3_1_1_19,n5545__1_3_1_1_19_3
n5546__1_3_1_1_13,n5546__1_3_1_1_13_3
n5547__1_3_1_1_14,n5547__1_3_1_1_14_3
n5548__1_3_1_1_7,n5548__1_3_1_1_7_3
n5549__1_3_1_1_17,n5549__1_3_1_1_17_3
n5550__1_3_1_1_12,n5550__1_3_1_1_12_3
n5551__1_3_1_1_13,n5551__1_3_1_1_13_3
n5552__1_3_1_1_8,n5552__1_3_1_1_8_3
n5553__1_3_1_1_12,n5553__1_3_1_1_12_3
n5554__1_3_1_1_6,n5554__1_3_1_1_6_3
n5555__1_3_1_1_11,n5555__1_3_1_1_11_3
n5556__1_3_1_1_11,n5556__1_3_1_1_11_3
n5557__1_3_1_1_14,n5557__1_3_1_1_14_3
n5558__1_3_1_1_10,n5558__1_3_1_1_10_3
n5559__1_3_1_1_9,n5559__1_3_1_1_9_3
n5560__1_3_1_1_10,n5560__1_3_1_1_10_3
n5561__1_3_1_1_12,n5561__1_3_1_1_12_3
n5562__1_3_1_1_13,n5562__1_3_1_1_13_3
n5563__1_3_1_1_14,n5563__1_3_1_1_14_3
n5564__1_3_1_1_7,n5564__1_3_1_1_7_3
n5565__1_3_1_1_8,n5565__1_3_1_1_8_3
n5566__1_3_1_1_10,n5566__1_3_1_1_10_3
n5567__1_3_1_1_7,n5567__1_3_1_1_7_3
n5568__1_3_1_1_11,n5568__1_3_1_1_11_3
n5569__1_3_1_1_7,n5569__1_3_1_1_7_3
n5570__1_3_1_1_9,n5570__1_3_1_1_9_3
n5571__1_3_1_1_6,n5571__1_3_1_1_6_3
n5572__1_3_1_1_25,n5572__1_3_1_1_25_3
n5573__1_3_1_1_8,n5573__1_3_1_1_8_3
n5574__1_3_1_1_9,n5574__1_3_1_1_9_3
n5575__1_3_1_1_21,n5575__1_3_1_1_21_3
n5576__1_3_1_1_13,n5576__1_3_1_1_13_3
n5577__1_3_1_1_13,n5577__1_3_1_1_13_3
n5578__1_3_1_1_13,n5578__1_3_1_1_13_3
n5579__1_3_1_1_10,n5579__1_3_1_1_10_3
n5580__1_3_1_1_13,n5580__1_3_1_1_13_3
n5581__1_3_1_1_8,n5581__1_3_1_1_8_3
n5582__1_3_1_1_7,n5582__1_3_1_1_7_3
n5583__1_3_1_1_9,n5583__1_3_1_1_9_3
n5584__1_3_1_1_11,n5584__1_3_1_1_11_3
n5585__1_3_1_1_9,n5585__1_3_1_1_9_3
n5586__1_3_1_1_9,n5586__1_3_1_1_9_3
n5587__1_3_1_1_14,n5587__1_3_1_1_14_3
n5588__1_3_1_1_9,n5588__1_3_1_1_9_3
n5589__1_3_1_1_6,n5589__1_3_1_1_6_3
n5590__1_3_1_1_8,n5590__1_3_1_1_8_3
n5591__1_3_1_1_12,n5591__1_3_1_1_12_3
n5592__1_3_1_1_22,n5592__1_3_1_1_22_3
n5593__1_3_1_1_12,n5593__1_3_1_1_12_3
n5594__1_3_1_1_8,n5594__1_3_1_1_8_3
n5595__1_3_1_1_11,n5595__1_3_1_1_11_3
n5596__1_3_1_1_8,n5596__1_3_1_1_8_3
n5597__1_3_1_1_11,n5597__1_3_1_1_11_3
n5598__1_3_1_1_9,n5598__1_3_1_1_9_3
n5599__1_3_1_1_11,n5599__1_3_1_1_11_3
n5600__1_3_1_1_10,n5600__1_3_1_1_10_3
n5601__1_3_1_1_19,n5601__1_3_1_1_19_3
n5602__1_3_1_1_9,n5602__1_3_1_1_9_3
n5603__1_3_1_1_16,n5603__1_3_1_1_16_3
n5604__1_3_1_1_9,n5604__1_3_1_1_9_3
n5605__1_3_1_1_10,n5605__1_3_1_1_10_3
n5606__1_3_1_1_15,n5606__1_3_1_1_15_3
n5607__1_3_1_1_7,n5607__1_3_1_1_7_3
n5608__1_3_1_1_13,n5608__1_3_1_1_13_3
n5609__1_3_1_1_19,n5609__1_3_1_1_19_3
n5610__1_3_1_1_10,n5610__1_3_1_1_10_3
n5611__1_3_1_1_14,n5611__1_3_1_1_14_3
n5612__1_3_1_1_12,n5612__1_3_1_1_12_3
n5613__1_3_1_1_15,n5613__1_3_1_1_15_3
n5614__1_3_1_1_11,n5614__1_3_1_1_11_3
n5615__1_3_1_1_13,n5615__1_3_1_1_13_3
n5616__1_3_1_1_8,n5616__1_3_1_1_8_3
n5617__1_3_1_1_13,n5617__1_3_1_1_13_3
n5618__1_3_1_1_8,n5618__1_3_1_1_8_3
n5619__1_3_1_1_14,n5619__1_3_1_1_14_3
n5620__1_3_1_1_8,n5620__1_3_1_1_8_3
n5621__1_3_1_1_13,n5621__1_3_1_1_13_3
n5622__1_3_1_1_8,n5622__1_3_1_1_8_3
n5623__1_3_1_1_20,n5623__1_3_1_1_20_3
n5624__1_3_1_1_8,n5624__1_3_1_1_8_3
n5625__1_3_1_1_7,n5625__1_3_1_1_7_3
n5626__1_3_1_1_9,n5626__1_3_1_1_9_3
n5627__1_3_1_1_22,n5627__1_3_1_1_22_3
n5628__1_3_1_1_10,n5628__1_3_1_1_10_3
n5629__1_3_1_1_17,n5629__1_3_1_1_17_3
n5630__1_3_1_1_12,n5630__1_3_1_1_12_3
n5631__1_3_1_1_11,n5631__1_3_1_1_11_3
n5632__1_3_1_1_11,n5632__1_3_1_1_11_3
n5633__1_3_1_1_16,n5633__1_3_1_1_16_3
n5634__1_3_1_1_8,n5634__1_3_1_1_8_3
n5635__1_3_1_1_20,n5635__1_3_1_1_20_3
n5636__1_3_1_1_13,n5636__1_3_1_1_13_3
n5637__1_3_1_1_9,n5637__1_3_1_1_9_3
n5638__1_3_1_1_8,n5638__1_3_1_1_8_3
n5639__1_3_1_1_12,n5639__1_3_1_1_12_3
n5640__1_3_1_1_8,n5640__1_3_1_1_8_3
n5641__1_3_1_1_14,n5641__1_3_1_1_14_3
n5642__1_3_1_1_14,n5642__1_3_1_1_14_3
n5643__1_3_1_1_15,n5643__1_3_1_1_15_3
n5644__1_3_1_1_8,n5644__1_3_1_1_8_3
n5645__1_3_1_1_7,n5645__1_3_1_1_7_3
n5646__1_3_1_1_13,n5646__1_3_1_1_13_3
n5647__1_3_1_1_15,n5647__1_3_1_1_15_3
n5648__1_3_1_1_10,n5648__1_3_1_1_10_3
n5649__1_3_1_1_23,n5649__1_3_1_1_23_3
n5650__1_3_1_1_12,n5650__1_3_1_1_12_3
n5651__1_3_1_1_16,n5651__1_3_1_1_16_3
n5652__1_3_1_1_10,n5652__1_3_1_1_10_3
n5653__1_3_1_1_16,n5653__1_3_1_1_16_3
n5654__1_3_1_1_26,n5654__1_3_1_1_26_3
n5655__1_3_1_1_33,n5655__1_3_1_1_33_3
n5656__1_3_1_1_13,n5656__1_3_1_1_13_3
n5657__1_3_1_1_12,n5657__1_3_1_1_12_3
n5658__1_3_1_1_14,n5658__1_3_1_1_14_3
n5659__1_3_1_1_8,n5659__1_3_1_1_8_3
n5660__1_3_1_1_7,n5660__1_3_1_1_7_3
n5661__1_3_1_1_9,n5661__1_3_1_1_9_3
n5662__1_3_1_1_8,n5662__1_3_1_1_8_3
n5663__1_3_1_1_7,n5663__1_3_1_1_7_3
n5664__1_3_1_1_24,n5664__1_3_1_1_24_3
n5665__1_3_1_1_12,n5665__1_3_1_1_12_3
n5666__1_3_1_1_12,n5666__1_3_1_1_12_3
n5667__1_3_1_1_9,n5667__1_3_1_1_9_3
n5668__1_3_1_1_16,n5668__1_3_1_1_16_3
n5669__1_3_1_1_15,n5669__1_3_1_1_15_3
n5670__1_3_1_1_7,n5670__1_3_1_1_7_3
n5671__1_3_1_1_8,n5671__1_3_1_1_8_3
n5672__1_3_1_1_6,n5672__1_3_1_1_6_3
n5673__1_3_1_1_12,n5673__1_3_1_1_12_3
n5674__1_3_1_1_10,n5674__1_3_1_1_10_3
n5675__1_3_1_1_7,n5675__1_3_1_1_7_3
n5676__1_3_1_1_9,n5676__1_3_1_1_9_3
n5677__1_3_1_1_14,n5677__1_3_1_1_14_3
n5678__1_3_1_1_10,n5678__1_3_1_1_10_3
n5679__1_3_1_1_7,n5679__1_3_1_1_7_3
n5680__1_3_1_1_15,n5680__1_3_1_1_15_3
n5681__1_3_1_1_12,n5681__1_3_1_1_12_3
n5682__1_3_1_1_13,n5682__1_3_1_1_13_3
n5683__1_3_1_1_14,n5683__1_3_1_1_14_3
n5684__1_3_1_1_11,n5684__1_3_1_1_11_3
n5685__1_3_1_1_13,n5685__1_3_1_1_13_3
n5686__1_3_1_1_15,n5686__1_3_1_1_15_3
n5687__1_3_1_1_21,n5687__1_3_1_1_21_3
n5688__1_3_1_1_9,n5688__1_3_1_1_9_3
n5689__1_3_1_1_7,n5689__1_3_1_1_7_3
n5690__1_3_1_1_18,n5690__1_3_1_1_18_3
n5691__1_3_1_1_12,n5691__1_3_1_1_12_3
n5692__1_3_1_1_12,n5692__1_3_1_1_12_3
n5693__1_3_1_1_27,n5693__1_3_1_1_27_3
n5694__1_3_1_1_25,n5694__1_3_1_1_25_3
n5695__1_3_1_1_8,n5695__1_3_1_1_8_3
n5696__1_3_1_1_8,n5696__1_3_1_1_8_3
n5697__1_3_1_1_13,n5697__1_3_1_1_13_3
n5698__1_3_1_1_39,n5698__1_3_1_1_39_3
n5699__1_3_1_1_10,n5699__1_3_1_1_10_3
n5700__1_3_1_1_10,n5700__1_3_1_1_10_3
n5701__1_3_1_1_13,n5701__1_3_1_1_13_3
n5702__1_3_1_1_21,n5702__1_3_1_1_21_3
n5703__1_3_1_1_37,n5703__1_3_1_1_37_3
n5704__1_3_1_1_11,n5704__1_3_1_1_11_3
n5705__1_3_1_1_8,n5705__1_3_1_1_8_3
n5706__1_3_1_1_15,n5706__1_3_1_1_15_3
n5707__1_3_1_1_17,n5707__1_3_1_1_17_3
n5708__1_3_1_1_16,n5708__1_3_1_1_16_3
n5709__1_3_1_1_8,n5709__1_3_1_1_8_3
n5710__1_3_1_1_9,n5710__1_3_1_1_9_3
n5711__1_3_1_1_7,n5711__1_3_1_1_7_3
n5712__1_3_1_1_10,n5712__1_3_1_1_10_3
n5713__1_3_1_1_7,n5713__1_3_1_1_7_3
n5714__1_3_1_1_20,n5714__1_3_1_1_20_3
n5715__1_3_1_1_19,n5715__1_3_1_1_19_3
n5716__1_3_1_1_8,n5716__1_3_1_1_8_3
n5717__1_3_1_1_9,n5717__1_3_1_1_9_3
n5718__1_3_1_1_20,n5718__1_3_1_1_20_3
n5719__1_3_1_1_10,n5719__1_3_1_1_10_3
n5720__1_3_1_1_9,n5720__1_3_1_1_9_3
n5721__1_3_1_1_10,n5721__1_3_1_1_10_3
n5722__1_3_1_1_8,n5722__1_3_1_1_8_3
n5723__1_3_1_1_11,n5723__1_3_1_1_11_3
n5724__1_3_1_1_11,n5724__1_3_1_1_11_3
n5725__1_3_1_1_9,n5725__1_3_1_1_9_3
n5726__1_3_1_1_11,n5726__1_3_1_1_11_3
n5727__1_3_1_1_10,n5727__1_3_1_1_10_3
n5728__1_3_1_1_8,n5728__1_3_1_1_8_3
n5729__1_3_1_1_22,n5729__1_3_1_1_22_3
n5730__1_3_1_1_15,n5730__1_3_1_1_15_3
n5731__1_3_1_1_8,n5731__1_3_1_1_8_3
n5732__1_3_1_1_27,n5732__1_3_1_1_27_3
n5733__1_3_1_1_19,n5733__1_3_1_1_19_3
n5734__1_3_1_1_8,n5734__1_3_1_1_8_3
n5735__1_3_1_1_15,n5735__1_3_1_1_15_3
n5736__1_3_1_1_9,n5736__1_3_1_1_9_3
n5737__1_3_1_1_9,n5737__1_3_1_1_9_3
n5738__1_3_1_1_11,n5738__1_3_1_1_11_3
n5739__1_3_1_1_13,n5739__1_3_1_1_13_3
n5740__1_3_1_1_12,n5740__1_3_1_1_12_3
n5741__1_3_1_1_13,n5741__1_3_1_1_13_3
n5742__1_3_1_1_9,n5742__1_3_1_1_9_3
n5743__1_3_1_1_21,n5743__1_3_1_1_21_3
n5744__1_3_1_1_7,n5744__1_3_1_1_7_3
n5745__1_3_1_1_7,n5745__1_3_1_1_7_3
n5746__1_3_1_1_9,n5746__1_3_1_1_9_3
n5747__1_3_1_1_8,n5747__1_3_1_1_8_3
n5748__1_3_1_1_11,n5748__1_3_1_1_11_3
n5749__1_3_1_1_10,n5749__1_3_1_1_10_3
n5750__1_3_1_1_9,n5750__1_3_1_1_9_3
n5751__1_3_1_1_10,n5751__1_3_1_1_10_3
n5752__1_3_1_1_24,n5752__1_3_1_1_24_3
n5753__1_3_1_1_32,n5753__1_3_1_1_32_3
n5754__1_3_1_1_8,n5754__1_3_1_1_8_3
n5755__1_3_1_1_17,n5755__1_3_1_1_17_3
n5756__1_3_1_1_7,n5756__1_3_1_1_7_3
n5757__1_3_1_1_8,n5757__1_3_1_1_8_3
n5758__1_3_1_1_7,n5758__1_3_1_1_7_3
n5759__1_3_1_1_15,n5759__1_3_1_1_15_3
n5760__1_3_1_1_7,n5760__1_3_1_1_7_3
n5761__1_3_1_1_15,n5761__1_3_1_1_15_3
n5762__1_3_1_1_9,n5762__1_3_1_1_9_3
n5763__1_3_1_1_11,n5763__1_3_1_1_11_3
n5764__1_3_1_1_11,n5764__1_3_1_1_11_3
n5765__1_3_1_1_17,n5765__1_3_1_1_17_3
n5766__1_3_1_1_8,n5766__1_3_1_1_8_3
n5767__1_3_1_1_8,n5767__1_3_1_1_8_3
n5768__1_3_1_1_7,n5768__1_3_1_1_7_3
n5769__1_3_1_1_11,n5769__1_3_1_1_11_3
n5770__1_3_1_1_15,n5770__1_3_1_1_15_3
n5771__1_3_1_1_7,n5771__1_3_1_1_7_3
n5772__1_3_1_1_11,n5772__1_3_1_1_11_3
n5773__1_3_1_1_10,n5773__1_3_1_1_10_3
n5774__1_3_1_1_10,n5774__1_3_1_1_10_3
n5775__1_3_1_1_11,n5775__1_3_1_1_11_3
n5776__1_3_1_1_7,n5776__1_3_1_1_7_3
n5777__1_3_1_1_11,n5777__1_3_1_1_11_3
n5778__1_3_1_1_12,n5778__1_3_1_1_12_3
n5779__1_3_1_1_9,n5779__1_3_1_1_9_3
n5780__1_3_1_1_7,n5780__1_3_1_1_7_3
n5781__1_3_1_1_19,n5781__1_3_1_1_19_3
n5782__1_3_1_1_15,n5782__1_3_1_1_15_3
n5783__1_3_1_1_14,n5783__1_3_1_1_14_3
n5784__1_3_1_1_23,n5784__1_3_1_1_23_3
n5785__1_3_1_1_21,n5785__1_3_1_1_21_3
n5786__1_3_1_1_8,n5786__1_3_1_1_8_3
n5787__1_3_1_1_9,n5787__1_3_1_1_9_3
n5788__1_3_1_1_19,n5788__1_3_1_1_19_3
n5789__1_3_1_1_12,n5789__1_3_1_1_12_3
n5790__1_3_1_1_16,n5790__1_3_1_1_16_3
n5791__1_3_1_1_9,n5791__1_3_1_1_9_3
n5792__1_3_1_1_13,n5792__1_3_1_1_13_3
n5793__1_3_1_1_15,n5793__1_3_1_1_15_3
n5794__1_3_1_1_12,n5794__1_3_1_1_12_3
n5795__1_3_1_1_12,n5795__1_3_1_1_12_3
n5796__1_3_1_1_8,n5796__1_3_1_1_8_3
n5797__1_3_1_1_13,n5797__1_3_1_1_13_3
n5798__1_3_1_1_18,n5798__1_3_1_1_18_3
n5799__1_3_1_1_13,n5799__1_3_1_1_13_3
n5800__1_3_1_1_21,n5800__1_3_1_1_21_3
n5801__1_3_1_1_11,n5801__1_3_1_1_11_3
n5802__1_3_1_1_7,n5802__1_3_1_1_7_3
n5803__1_3_1_1_26,n5803__1_3_1_1_26_3
n5804__1_3_1_1_10,n5804__1_3_1_1_10_3
n5805__1_3_1_1_7,n5805__1_3_1_1_7_3
n5806__1_3_1_1_15,n5806__1_3_1_1_15_3
n5807__1_3_1_1_16,n5807__1_3_1_1_16_3
n5808__1_3_1_1_8,n5808__1_3_1_1_8_3
n5809__1_3_1_1_13,n5809__1_3_1_1_13_3
n5810__1_3_1_1_10,n5810__1_3_1_1_10_3
n5811__1_3_1_1_8,n5811__1_3_1_1_8_3
n5812__1_3_1_1_18,n5812__1_3_1_1_18_3
n5813__1_3_1_1_10,n5813__1_3_1_1_10_3
n5814__1_3_1_1_7,n5814__1_3_1_1_7_3
n5815__1_3_1_1_11,n5815__1_3_1_1_11_3
n5816__1_3_1_1_10,n5816__1_3_1_1_10_3
n5817__1_3_1_1_7,n5817__1_3_1_1_7_3
n5818__1_3_1_1_10,n5818__1_3_1_1_10_3
n5819__1_3_1_1_13,n5819__1_3_1_1_13_3
n5820__1_3_1_1_18,n5820__1_3_1_1_18_3
n5821__1_3_1_1_19,n5821__1_3_1_1_19_3
n5822__1_3_1_1_10,n5822__1_3_1_1_10_3
n5823__1_3_1_1_7,n5823__1_3_1_1_7_3
n5824__1_3_1_1_10,n5824__1_3_1_1_10_3
n5825__1_3_1_1_17,n5825__1_3_1_1_17_3
n5826__1_3_1_1_9,n5826__1_3_1_1_9_3
n5827__1_3_1_1_11,n5827__1_3_1_1_11_3
n5828__1_3_1_1_9,n5828__1_3_1_1_9_3
n5829__1_3_1_1_11,n5829__1_3_1_1_11_3
n5830__1_3_1_1_7,n5830__1_3_1_1_7_3
n5831__1_3_1_1_11,n5831__1_3_1_1_11_3
n5832__1_3_1_1_11,n5832__1_3_1_1_11_3
n5833__1_3_1_1_10,n5833__1_3_1_1_10_3
n5834__1_3_1_1_10,n5834__1_3_1_1_10_3
n5835__1_3_1_1_11,n5835__1_3_1_1_11_3
n5836__1_3_1_1_19,n5836__1_3_1_1_19_3
n5837__1_3_1_1_12,n5837__1_3_1_1_12_3
n5838__1_3_1_1_7,n5838__1_3_1_1_7_3
n5839__1_3_1_1_13,n5839__1_3_1_1_13_3
n5840__1_3_1_1_15,n5840__1_3_1_1_15_3
n5841__1_3_1_1_14,n5841__1_3_1_1_14_3
n5842__1_3_1_1_8,n5842__1_3_1_1_8_3
n5843__1_3_1_1_16,n5843__1_3_1_1_16_3
n5844__1_3_1_1_19,n5844__1_3_1_1_19_3
n5845__1_3_1_1_8,n5845__1_3_1_1_8_3
n5846__1_3_1_1_14,n5846__1_3_1_1_14_3
n5847__1_3_1_1_13,n5847__1_3_1_1_13_3
n5848__1_3_1_1_11,n5848__1_3_1_1_11_3
n5849__1_3_1_1_9,n5849__1_3_1_1_9_3
n5850__1_3_1_1_16,n5850__1_3_1_1_16_3
n5851__1_3_1_1_21,n5851__1_3_1_1_21_3
n5852__1_3_1_1_9,n5852__1_3_1_1_9_3
n5853__1_3_1_1_16,n5853__1_3_1_1_16_3
n5854__1_3_1_1_18,n5854__1_3_1_1_18_3
n5855__1_3_1_1_8,n5855__1_3_1_1_8_3
n5856__1_3_1_1_7,n5856__1_3_1_1_7_3
n5857__1_3_1_1_9,n5857__1_3_1_1_9_3
n5858__1_3_1_1_12,n5858__1_3_1_1_12_3
n5859__1_3_1_1_9,n5859__1_3_1_1_9_3
n5860__1_3_1_1_18,n5860__1_3_1_1_18_3
n5861__1_3_1_1_17,n5861__1_3_1_1_17_3
n5862__1_3_1_1_10,n5862__1_3_1_1_10_3
n5863__1_3_1_1_7,n5863__1_3_1_1_7_3
n5864__1_3_1_1_12,n5864__1_3_1_1_12_3
n5865__1_3_1_1_7,n5865__1_3_1_1_7_3
n5866__1_3_1_1_16,n5866__1_3_1_1_16_3
n5867__1_3_1_1_7,n5867__1_3_1_1_7_3
n5868__1_3_1_1_9,n5868__1_3_1_1_9_3
n5869__1_3_1_1_20,n5869__1_3_1_1_20_3
n5870__1_3_1_1_8,n5870__1_3_1_1_8_3
n5871__1_3_1_1_16,n5871__1_3_1_1_16_3
n5872__1_3_1_1_12,n5872__1_3_1_1_12_3
n5873__1_3_1_1_7,n5873__1_3_1_1_7_3
n5874__1_3_1_1_7,n5874__1_3_1_1_7_3
n5875__1_3_1_1_11,n5875__1_3_1_1_11_3
n5876__1_3_1_1_9,n5876__1_3_1_1_9_3
n5877__1_3_1_1_9,n5877__1_3_1_1_9_3
n5878__1_3_1_1_8,n5878__1_3_1_1_8_3
n5879__1_3_1_1_17,n5879__1_3_1_1_17_3
n5880__1_3_1_1_8,n5880__1_3_1_1_8_3
n5881__1_3_1_1_8,n5881__1_3_1_1_8_3
n5882__1_3_1_1_22,n5882__1_3_1_1_22_3
n5883__1_3_1_1_18,n5883__1_3_1_1_18_3
n5884__1_3_1_1_14,n5884__1_3_1_1_14_3
n5885__1_3_1_1_8,n5885__1_3_1_1_8_3
n5886__1_3_1_1_9,n5886__1_3_1_1_9_3
n5887__1_3_1_1_18,n5887__1_3_1_1_18_3
n5888__1_3_1_1_27,n5888__1_3_1_1_27_3
n5889__1_3_1_1_12,n5889__1_3_1_1_12_3
n5890__1_3_1_1_8,n5890__1_3_1_1_8_3
n5891__1_3_1_1_8,n5891__1_3_1_1_8_3
n5892__1_3_1_1_13,n5892__1_3_1_1_13_3
n5893__1_3_1_1_13,n5893__1_3_1_1_13_3
n5894__1_3_1_1_7,n5894__1_3_1_1_7_3
n5895__1_3_1_1_10,n5895__1_3_1_1_10_3
n5896__1_3_1_1_10,n5896__1_3_1_1_10_3
n5897__1_3_1_1_12,n5897__1_3_1_1_12_3
n5898__1_3_1_1_7,n5898__1_3_1_1_7_3
n5899__1_3_1_1_8,n5899__1_3_1_1_8_3
n5900__1_3_1_1_21,n5900__1_3_1_1_21_3
n5901__1_3_1_1_8,n5901__1_3_1_1_8_3
n5902__1_3_1_1_10,n5902__1_3_1_1_10_3
n5903__1_3_1_1_6,n5903__1_3_1_1_6_3
n5904__1_3_1_1_15,n5904__1_3_1_1_15_3
n5905__1_3_1_1_9,n5905__1_3_1_1_9_3
n5906__1_3_1_1_8,n5906__1_3_1_1_8_3
n5907__1_3_1_1_10,n5907__1_3_1_1_10_3
n5908__1_3_1_1_11,n5908__1_3_1_1_11_3
n5909__1_3_1_1_7,n5909__1_3_1_1_7_3
n5910__1_3_1_1_12,n5910__1_3_1_1_12_3
n5911__1_3_1_1_10,n5911__1_3_1_1_10_3
n5912__1_3_1_1_8,n5912__1_3_1_1_8_3
n5913__1_3_1_1_19,n5913__1_3_1_1_19_3
n5914__1_3_1_1_8,n5914__1_3_1_1_8_3
n5915__1_3_1_1_16,n5915__1_3_1_1_16_3
n5916__1_3_1_1_11,n5916__1_3_1_1_11_3
n5917__1_3_1_1_16,n5917__1_3_1_1_16_3
n5918__1_3_1_1_12,n5918__1_3_1_1_12_3
n5919__1_3_1_1_11,n5919__1_3_1_1_11_3
n5920__1_3_1_1_15,n5920__1_3_1_1_15_3
n5921__1_3_1_1_12,n5921__1_3_1_1_12_3
n5922__1_3_1_1_9,n5922__1_3_1_1_9_3
n5923__1_3_1_1_10,n5923__1_3_1_1_10_3
n5924__1_3_1_1_7,n5924__1_3_1_1_7_3
n5925__1_3_1_1_6,n5925__1_3_1_1_6_3
n5926__1_3_1_1_8,n5926__1_3_1_1_8_3
n5927__1_3_1_1_10,n5927__1_3_1_1_10_3
n5928__1_3_1_1_10,n5928__1_3_1_1_10_3
n5929__1_3_1_1_8,n5929__1_3_1_1_8_3
n5930__1_3_1_1_11,n5930__1_3_1_1_11_3
n5931__1_3_1_1_10,n5931__1_3_1_1_10_3
n5932__1_3_1_1_17,n5932__1_3_1_1_17_3
n5933__1_3_1_1_8,n5933__1_3_1_1_8_3
n5934__1_3_1_1_7,n5934__1_3_1_1_7_3
n5935__1_3_1_1_7,n5935__1_3_1_1_7_3
n5936__1_3_1_1_9,n5936__1_3_1_1_9_3
n5937__1_3_1_1_15,n5937__1_3_1_1_15_3
n5938__1_3_1_1_9,n5938__1_3_1_1_9_3
n5939__1_3_1_1_17,n5939__1_3_1_1_17_3
n5940__1_3_1_1_10,n5940__1_3_1_1_10_3
n5941__1_3_1_1_16,n5941__1_3_1_1_16_3
n5942__1_3_1_1_11,n5942__1_3_1_1_11_3
n5943__1_3_1_1_7,n5943__1_3_1_1_7_3
n5944__1_3_1_1_9,n5944__1_3_1_1_9_3
n5945__1_3_1_1_10,n5945__1_3_1_1_10_3
n5946__1_3_1_1_9,n5946__1_3_1_1_9_3
n5947__1_3_1_1_11,n5947__1_3_1_1_11_3
n5948__1_3_1_1_12,n5948__1_3_1_1_12_3
n5949__1_3_1_1_9,n5949__1_3_1_1_9_3
n5950__1_3_1_1_9,n5950__1_3_1_1_9_3
n5951__1_3_1_1_12,n5951__1_3_1_1_12_3
n5952__1_3_1_1_10,n5952__1_3_1_1_10_3
n5953__1_3_1_1_39,n5953__1_3_1_1_39_3
n5954__1_3_1_1_17,n5954__1_3_1_1_17_3
n5955__1_3_1_1_10,n5955__1_3_1_1_10_3
n5956__1_3_1_1_9,n5956__1_3_1_1_9_3
n5957__1_3_1_1_14,n5957__1_3_1_1_14_3
n5958__1_3_1_1_9,n5958__1_3_1_1_9_3
n5959__1_3_1_1_13,n5959__1_3_1_1_13_3
n5960__1_3_1_1_9,n5960__1_3_1_1_9_3
n5961__1_3_1_1_11,n5961__1_3_1_1_11_3
n5962__1_3_1_1_19,n5962__1_3_1_1_19_3
n5963__1_3_1_1_9,n5963__1_3_1_1_9_3
n5964__1_3_1_1_12,n5964__1_3_1_1_12_3
n5965__1_3_1_1_18,n5965__1_3_1_1_18_3
n5966__1_3_1_1_13,n5966__1_3_1_1_13_3
n5967__1_3_1_1_10,n5967__1_3_1_1_10_3
n5968__1_3_1_1_8,n5968__1_3_1_1_8_3
n5969__1_3_1_1_14,n5969__1_3_1_1_14_3
n5970__1_3_1_1_17,n5970__1_3_1_1_17_3
n5971__1_3_1_1_9,n5971__1_3_1_1_9_3
n5972__1_3_1_1_37,n5972__1_3_1_1_37_3
n5973__1_3_1_1_7,n5973__1_3_1_1_7_3
n5974__1_3_1_1_20,n5974__1_3_1_1_20_3
n5975__1_3_1_1_8,n5975__1_3_1_1_8_3
n5976__1_3_1_1_11,n5976__1_3_1_1_11_3
n5977__1_3_1_1_37,n5977__1_3_1_1_37_3
n5978__1_3_1_1_19,n5978__1_3_1_1_19_3
n5979__1_3_1_1_11,n5979__1_3_1_1_11_3
n5980__1_3_1_1_17,n5980__1_3_1_1_17_3
n5981__1_3_1_1_16,n5981__1_3_1_1_16_3
n5982__1_3_1_1_11,n5982__1_3_1_1_11_3
n5983__1_3_1_1_10,n5983__1_3_1_1_10_3
n5984__1_3_1_1_16,n5984__1_3_1_1_16_3
n5985__1_3_1_1_7,n5985__1_3_1_1_7_3
n5986__1_3_1_1_9,n5986__1_3_1_1_9_3
n5987__1_3_1_1_10,n5987__1_3_1_1_10_3
n5988__1_3_1_1_17,n5988__1_3_1_1_17_3
n5989__1_3_1_1_10,n5989__1_3_1_1_10_3
n5990__1_3_1_1_10,n5990__1_3_1_1_10_3
n5991__1_3_1_1_11,n5991__1_3_1_1_11_3
n5992__1_3_1_1_20,n5992__1_3_1_1_20_3
n5993__1_3_1_1_14,n5993__1_3_1_1_14_3
n5994__1_3_1_1_8,n5994__1_3_1_1_8_3
n5995__1_3_1_1_11,n5995__1_3_1_1_11_3
n5996__1_3_1_1_27,n5996__1_3_1_1_27_3
n5997__1_3_1_1_13,n5997__1_3_1_1_13_3
n5998__1_3_1_1_13,n5998__1_3_1_1_13_3
n5999__1_3_1_1_13,n5999__1_3_1_1_13_3
n6000__1_3_1_1_16,n6000__1_3_1_1_16_3
n6001__1_3_1_1_13,n6001__1_3_1_1_13_3
n6002__1_3_1_1_7,n6002__1_3_1_1_7_3
n6003__1_3_1_1_8,n6003__1_3_1_1_8_3
n6004__1_3_1_1_13,n6004__1_3_1_1_13_3
n6005__1_3_1_1_8,n6005__1_3_1_1_8_3
n6006__1_3_1_1_22,n6006__1_3_1_1_22_3
n6007__1_3_1_1_20,n6007__1_3_1_1_20_3
n6008__1_3_1_1_18,n6008__1_3_1_1_18_3
n6009__1_3_1_1_8,n6009__1_3_1_1_8_3
n6010__1_3_1_1_12,n6010__1_3_1_1_12_3
n6011__1_3_1_1_9,n6011__1_3_1_1_9_3
n6012__1_3_1_1_9,n6012__1_3_1_1_9_3
n6013__1_3_1_1_10,n6013__1_3_1_1_10_3
n6014__1_3_1_1_32,n6014__1_3_1_1_32_3
n6015__1_3_1_1_6,n6015__1_3_1_1_6_3
n6016__1_3_1_1_8,n6016__1_3_1_1_8_3
n6017__1_3_1_1_8,n6017__1_3_1_1_8_3
n6018__1_3_1_1_8,n6018__1_3_1_1_8_3
n6019__1_3_1_1_26,n6019__1_3_1_1_26_3
n6020__1_3_1_1_15,n6020__1_3_1_1_15_3
n6021__1_3_1_1_7,n6021__1_3_1_1_7_3
n6022__1_3_1_1_17,n6022__1_3_1_1_17_3
n6023__1_3_1_1_7,n6023__1_3_1_1_7_3
n6024__1_3_1_1_8,n6024__1_3_1_1_8_3
n6025__1_3_1_1_8,n6025__1_3_1_1_8_3
n6026__1_3_1_1_17,n6026__1_3_1_1_17_3
n6027__1_3_1_1_14,n6027__1_3_1_1_14_3
n6028__1_3_1_1_7,n6028__1_3_1_1_7_3
n6029__1_3_1_1_12,n6029__1_3_1_1_12_3
n6030__1_3_1_1_12,n6030__1_3_1_1_12_3
n6031__1_3_1_1_7,n6031__1_3_1_1_7_3
n6032__1_3_1_1_11,n6032__1_3_1_1_11_3
n6033__1_3_1_1_20,n6033__1_3_1_1_20_3
n6034__1_3_1_1_14,n6034__1_3_1_1_14_3
n6035__1_3_1_1_8,n6035__1_3_1_1_8_3
n6036__1_3_1_1_7,n6036__1_3_1_1_7_3
n6037__1_3_1_1_8,n6037__1_3_1_1_8_3
n6038__1_3_1_1_10,n6038__1_3_1_1_10_3
n6039__1_3_1_1_14,n6039__1_3_1_1_14_3
n6040__1_3_1_1_7,n6040__1_3_1_1_7_3
n6041__1_3_1_1_30,n6041__1_3_1_1_30_3
n6042__1_3_1_1_10,n6042__1_3_1_1_10_3
n6043__1_3_1_1_9,n6043__1_3_1_1_9_3
n6044__1_3_1_1_16,n6044__1_3_1_1_16_3
n6045__1_3_1_1_8,n6045__1_3_1_1_8_3
n6046__1_3_1_1_11,n6046__1_3_1_1_11_3
n6047__1_3_1_1_9,n6047__1_3_1_1_9_3
n6048__1_3_1_1_7,n6048__1_3_1_1_7_3
n6049__1_3_1_1_12,n6049__1_3_1_1_12_3
n6050__1_3_1_1_27,n6050__1_3_1_1_27_3
n6051__1_3_1_1_7,n6051__1_3_1_1_7_3
n6052__1_3_1_1_66,n6052__1_3_1_1_66_3
n6053__1_3_1_1_10,n6053__1_3_1_1_10_3
n6054__1_3_1_1_15,n6054__1_3_1_1_15_3
n6055__1_3_1_1_28,n6055__1_3_1_1_28_3
n6056__1_3_1_1_8,n6056__1_3_1_1_8_3
n6057__1_3_1_1_11,n6057__1_3_1_1_11_3
n6058__1_3_1_1_13,n6058__1_3_1_1_13_3
n6059__1_3_1_1_7,n6059__1_3_1_1_7_3
n6060__1_3_1_1_8,n6060__1_3_1_1_8_3
n6061__1_3_1_1_7,n6061__1_3_1_1_7_3
n6062__1_3_1_1_9,n6062__1_3_1_1_9_3
n6063__1_3_1_1_10,n6063__1_3_1_1_10_3
n6064__1_3_1_1_7,n6064__1_3_1_1_7_3
n6065__1_3_1_1_11,n6065__1_3_1_1_11_3
n6066__1_3_1_1_8,n6066__1_3_1_1_8_3
n6067__1_3_1_1_11,n6067__1_3_1_1_11_3
n6068__1_3_1_1_8,n6068__1_3_1_1_8_3
n6069__1_3_1_1_6,n6069__1_3_1_1_6_3
n6070__1_3_1_1_10,n6070__1_3_1_1_10_3
n6071__1_3_1_1_8,n6071__1_3_1_1_8_3
n6072__1_3_1_1_17,n6072__1_3_1_1_17_3
n6073__1_3_1_1_21,n6073__1_3_1_1_21_3
n6074__1_3_1_1_9,n6074__1_3_1_1_9_3
n6075__1_3_1_1_12,n6075__1_3_1_1_12_3
n6076__1_3_1_1_8,n6076__1_3_1_1_8_3
n6077__1_3_1_1_12,n6077__1_3_1_1_12_3
n6078__1_3_1_1_9,n6078__1_3_1_1_9_3
n6079__1_3_1_1_12,n6079__1_3_1_1_12_3
n6080__1_3_1_1_15,n6080__1_3_1_1_15_3
n6081__1_3_1_1_7,n6081__1_3_1_1_7_3
n6082__1_3_1_1_8,n6082__1_3_1_1_8_3
n6083__1_3_1_1_13,n6083__1_3_1_1_13_3
n6084__1_3_1_1_7,n6084__1_3_1_1_7_3
n6085__1_3_1_1_10,n6085__1_3_1_1_10_3
n6086__1_3_1_1_10,n6086__1_3_1_1_10_3
n6087__1_3_1_1_7,n6087__1_3_1_1_7_3
n6088__1_3_1_1_10,n6088__1_3_1_1_10_3
n6089__1_3_1_1_11,n6089__1_3_1_1_11_3
n6090__1_3_1_1_8,n6090__1_3_1_1_8_3
n6091__1_3_1_1_9,n6091__1_3_1_1_9_3
n6092__1_3_1_1_21,n6092__1_3_1_1_21_3
n6093__1_3_1_1_11,n6093__1_3_1_1_11_3
n6094__1_3_1_1_18,n6094__1_3_1_1_18_3
n6095__1_3_1_1_10,n6095__1_3_1_1_10_3
n6096__1_3_1_1_18,n6096__1_3_1_1_18_3
n6097__1_3_1_1_9,n6097__1_3_1_1_9_3
n6098__1_3_1_1_19,n6098__1_3_1_1_19_3
n6099__1_3_1_1_22,n6099__1_3_1_1_22_3
n6100__1_3_1_1_8,n6100__1_3_1_1_8_3
n6101__1_3_1_1_21,n6101__1_3_1_1_21_3
n6102__1_3_1_1_10,n6102__1_3_1_1_10_3
n6103__1_3_1_1_19,n6103__1_3_1_1_19_3
n6104__1_3_1_1_7,n6104__1_3_1_1_7_3
n6105__1_3_1_1_7,n6105__1_3_1_1_7_3
n6106__1_3_1_1_13,n6106__1_3_1_1_13_3
n6107__1_3_1_1_25,n6107__1_3_1_1_25_3
n6108__1_3_1_1_12,n6108__1_3_1_1_12_3
n6109__1_3_1_1_8,n6109__1_3_1_1_8_3
n6110__1_3_1_1_8,n6110__1_3_1_1_8_3
n6111__1_3_1_1_11,n6111__1_3_1_1_11_3
n6112__1_3_1_1_11,n6112__1_3_1_1_11_3
n6113__1_3_1_1_16,n6113__1_3_1_1_16_3
n6114__1_3_1_1_10,n6114__1_3_1_1_10_3
n6115__1_3_1_1_13,n6115__1_3_1_1_13_3
n6116__1_3_1_1_8,n6116__1_3_1_1_8_3
n6117__1_3_1_1_8,n6117__1_3_1_1_8_3
n6118__1_3_1_1_11,n6118__1_3_1_1_11_3
n6119__1_3_1_1_14,n6119__1_3_1_1_14_3
n6120__1_3_1_1_12,n6120__1_3_1_1_12_3
n6121__1_3_1_1_14,n6121__1_3_1_1_14_3
n6122__1_3_1_1_20,n6122__1_3_1_1_20_3
n6123__1_3_1_1_9,n6123__1_3_1_1_9_3
n6124__1_3_1_1_13,n6124__1_3_1_1_13_3
n6125__1_3_1_1_7,n6125__1_3_1_1_7_3
n6126__1_3_1_1_8,n6126__1_3_1_1_8_3
n6127__1_3_1_1_8,n6127__1_3_1_1_8_3
n6128__1_3_1_1_8,n6128__1_3_1_1_8_3
n6129__1_3_1_1_8,n6129__1_3_1_1_8_3
n6130__1_3_1_1_8,n6130__1_3_1_1_8_3
n6131__1_3_1_1_8,n6131__1_3_1_1_8_3
n6132__1_3_1_1_8,n6132__1_3_1_1_8_3
n6133__1_3_1_1_8,n6133__1_3_1_1_8_3
n6134__1_3_1_1_8,n6134__1_3_1_1_8_3
n6135__1_3_1_1_8,n6135__1_3_1_1_8_3
n6136__1_3_1_1_8,n6136__1_3_1_1_8_3
n6137__1_3_1_1_8,n6137__1_3_1_1_8_3
n6138__1_3_1_1_8,n6138__1_3_1_1_8_3
n6139__1_3_1_1_8,n6139__1_3_1_1_8_3
n6140__1_3_1_1_8,n6140__1_3_1_1_8_3
n6141__1_3_1_1_8,n6141__1_3_1_1_8_3
n6142__1_3_1_1_8,n6142__1_3_1_1_8_3
n6143__1_3_1_1_8,n6143__1_3_1_1_8_3
n6144__1_3_1_1_8,n6144__1_3_1_1_8_3
n6145__1_3_1_1_8,n6145__1_3_1_1_8_3
n6146__1_3_1_1_8,n6146__1_3_1_1_8_3
n6147__1_3_1_1_8,n6147__1_3_1_1_8_3
n6148__1_3_1_1_8,n6148__1_3_1_1_8_3
n6149__1_3_1_1_8,n6149__1_3_1_1_8_3
n6150__1_3_1_1_8,n6150__1_3_1_1_8_3
n6151__1_3_1_1_8,n6151__1_3_1_1_8_3
n6152__1_3_1_1_8,n6152__1_3_1_1_8_3
n6153__1_3_1_1_8,n6153__1_3_1_1_8_3
n6154__1_3_1_1_8,n6154__1_3_1_1_8_3
n6155__1_3_1_1_8,n6155__1_3_1_1_8_3
n6156__1_3_1_1_8,n6156__1_3_1_1_8_3
n6157__1_3_1_1_8,n6157__1_3_1_1_8_3
n6158__1_3_1_1_8,n6158__1_3_1_1_8_3
n6159__1_3_1_1_8,n6159__1_3_1_1_8_3
n6160__1_3_1_1_8,n6160__1_3_1_1_8_3
n6161__1_3_1_1_8,n6161__1_3_1_1_8_3
n6162__1_3_1_1_8,n6162__1_3_1_1_8_3
n6163__1_3_1_1_8,n6163__1_3_1_1_8_3
n6164__1_3_1_1_8,n6164__1_3_1_1_8_3
n6165__1_3_1_1_8,n6165__1_3_1_1_8_3
n6166__1_3_1_1_8,n6166__1_3_1_1_8_3
n6167__1_3_1_1_8,n6167__1_3_1_1_8_3
n6168__1_3_1_1_8,n6168__1_3_1_1_8_3
n6169__1_3_1_1_8,n6169__1_3_1_1_8_3
n6170__1_3_1_1_8,n6170__1_3_1_1_8_3
n6171__1_3_1_1_8,n6171__1_3_1_1_8_3
n6172__1_3_1_1_8,n6172__1_3_1_1_8_3
n6173__1_3_1_1_8,n6173__1_3_1_1_8_3
n6174__1_3_1_1_8,n6174__1_3_1_1_8_3
n6175__1_3_1_1_8,n6175__1_3_1_1_8_3
n6176__1_3_1_1_8,n6176__1_3_1_1_8_3
n6177__1_3_1_1_8,n6177__1_3_1_1_8_3
n6178__1_3_1_1_8,n6178__1_3_1_1_8_3
n6179__1_3_1_1_8,n6179__1_3_1_1_8_3
n6180__1_3_1_1_8,n6180__1_3_1_1_8_3
n6181__1_3_1_1_8,n6181__1_3_1_1_8_3
n6182__1_3_1_1_8,n6182__1_3_1_1_8_3
n6183__1_3_1_1_8,n6183__1_3_1_1_8_3
n6184__1_3_1_1_8,n6184__1_3_1_1_8_3
n6185__1_3_1_1_8,n6185__1_3_1_1_8_3
n6186__1_3_1_1_8,n6186__1_3_1_1_8_3
n6187__1_3_1_1_8,n6187__1_3_1_1_8_3
n6188__1_3_1_1_8,n6188__1_3_1_1_8_3
n6189__1_3_1_1_8,n6189__1_3_1_1_8_3
n6190__1_3_1_1_8,n6190__1_3_1_1_8_3
n6191__1_3_1_1_8,n6191__1_3_1_1_8_3
n6192__1_3_1_1_8,n6192__1_3_1_1_8_3
n6193__1_3_1_1_8,n6193__1_3_1_1_8_3
n6194__1_3_1_1_8,n6194__1_3_1_1_8_3
n6195__1_3_1_1_8,n6195__1_3_1_1_8_3
n6196__1_3_1_1_8,n6196__1_3_1_1_8_3
n6197__1_3_1_1_8,n6197__1_3_1_1_8_3
n6198__1_3_1_1_8,n6198__1_3_1_1_8_3
n6199__1_3_1_1_8,n6199__1_3_1_1_8_3
n6200__1_3_1_1_8,n6200__1_3_1_1_8_3
n6201__1_3_1_1_8,n6201__1_3_1_1_8_3
n6202__1_3_1_1_8,n6202__1_3_1_1_8_3
n6203__1_3_1_1_8,n6203__1_3_1_1_8_3
n6204__1_3_1_1_8,n6204__1_3_1_1_8_3
n6205__1_3_1_1_8,n6205__1_3_1_1_8_3
n6206__1_3_1_1_8,n6206__1_3_1_1_8_3
n6207__1_3_1_1_8,n6207__1_3_1_1_8_3
n6208__1_3_1_1_8,n6208__1_3_1_1_8_3
n6209__1_3_1_1_8,n6209__1_3_1_1_8_3
n6210__1_3_1_1_8,n6210__1_3_1_1_8_3
n6211__1_3_1_1_8,n6211__1_3_1_1_8_3
n6212__1_3_1_1_8,n6212__1_3_1_1_8_3
n6213__1_3_1_1_8,n6213__1_3_1_1_8_3
n6214__1_3_1_1_8,n6214__1_3_1_1_8_3
n6215__1_3_1_1_8,n6215__1_3_1_1_8_3
n6216__1_3_1_1_8,n6216__1_3_1_1_8_3
n6217__1_3_1_1_8,n6217__1_3_1_1_8_3
n6218__1_3_1_1_8,n6218__1_3_1_1_8_3
n6219__1_3_1_1_8,n6219__1_3_1_1_8_3
n6220__1_3_1_1_8,n6220__1_3_1_1_8_3
n6221__1_3_1_1_8,n6221__1_3_1_1_8_3
n6222__1_3_1_1_8,n6222__1_3_1_1_8_3
n6223__1_3_1_1_8,n6223__1_3_1_1_8_3
n6224__1_3_1_1_8,n6224__1_3_1_1_8_3
n6225__1_3_1_1_8,n6225__1_3_1_1_8_3
n6226__1_3_1_1_8,n6226__1_3_1_1_8_3
n6227__1_3_1_1_8,n6227__1_3_1_1_8_3
n6228__1_3_1_1_8,n6228__1_3_1_1_8_3
n6229__1_3_1_1_8,n6229__1_3_1_1_8_3
n6230__1_3_1_1_8,n6230__1_3_1_1_8_3
n6231__1_3_1_1_8,n6231__1_3_1_1_8_3
n6232__1_3_1_1_8,n6232__1_3_1_1_8_3
n6233__1_3_1_1_8,n6233__1_3_1_1_8_3
n6234__1_3_1_1_8,n6234__1_3_1_1_8_3
n6235__1_3_1_1_8,n6235__1_3_1_1_8_3
n6236__1_3_1_1_8,n6236__1_3_1_1_8_3
n6237__1_3_1_1_8,n6237__1_3_1_1_8_3
n6238__1_3_1_1_8,n6238__1_3_1_1_8_3
n6239__1_3_1_1_8,n6239__1_3_1_1_8_3
n6240__1_3_1_1_8,n6240__1_3_1_1_8_3
n6241__1_3_1_1_8,n6241__1_3_1_1_8_3
n6242__1_3_1_1_8,n6242__1_3_1_1_8_3
n6243__1_3_1_1_8,n6243__1_3_1_1_8_3
n6244__1_3_1_1_8,n6244__1_3_1_1_8_3
n6245__1_3_1_1_8,n6245__1_3_1_1_8_3
n6246__1_3_1_1_8,n6246__1_3_1_1_8_3
n6247__1_3_1_1_8,n6247__1_3_1_1_8_3
n6248__1_3_1_1_8,n6248__1_3_1_1_8_3
n6249__1_3_1_1_8,n6249__1_3_1_1_8_3
n6250__1_3_1_1_8,n6250__1_3_1_1_8_3
n6251__1_3_1_1_8,n6251__1_3_1_1_8_3
n6252__1_3_1_1_8,n6252__1_3_1_1_8_3
n6253__1_3_1_1_8,n6253__1_3_1_1_8_3
n6254__1_3_1_1_8,n6254__1_3_1_1_8_3
n6255__1_3_1_1_8,n6255__1_3_1_1_8_3
n6256__1_3_1_1_8,n6256__1_3_1_1_8_3
n6257__1_3_1_1_8,n6257__1_3_1_1_8_3
n6258__1_3_1_1_8,n6258__1_3_1_1_8_3
n6259__1_3_1_1_8,n6259__1_3_1_1_8_3
n6260__1_3_1_1_8,n6260__1_3_1_1_8_3
n6261__1_3_1_1_8,n6261__1_3_1_1_8_3
n6262__1_3_1_1_8,n6262__1_3_1_1_8_3
n6263__1_3_1_1_8,n6263__1_3_1_1_8_3
n6264__1_3_1_1_8,n6264__1_3_1_1_8_3
n6265__1_3_1_1_8,n6265__1_3_1_1_8_3
n6266__1_3_1_1_8,n6266__1_3_1_1_8_3
n6267__1_3_1_1_8,n6267__1_3_1_1_8_3
n6268__1_3_1_1_8,n6268__1_3_1_1_8_3
n6269__1_3_1_1_8,n6269__1_3_1_1_8_3
n6270__1_3_1_1_8,n6270__1_3_1_1_8_3
n6271__1_3_1_1_8,n6271__1_3_1_1_8_3
n6272__1_3_1_1_8,n6272__1_3_1_1_8_3
n6273__1_3_1_1_8,n6273__1_3_1_1_8_3
n6274__1_3_1_1_8,n6274__1_3_1_1_8_3
n6275__1_3_1_1_8,n6275__1_3_1_1_8_3
n6276__1_3_1_1_8,n6276__1_3_1_1_8_3
n6277__1_3_1_1_8,n6277__1_3_1_1_8_3
n6278__1_3_1_1_8,n6278__1_3_1_1_8_3
n6279__1_3_1_1_8,n6279__1_3_1_1_8_3
n6280__1_3_1_1_8,n6280__1_3_1_1_8_3
n6281__1_3_1_1_8,n6281__1_3_1_1_8_3
n6282__1_3_1_1_8,n6282__1_3_1_1_8_3
n6283__1_3_1_1_8,n6283__1_3_1_1_8_3
n6284__1_3_1_1_8,n6284__1_3_1_1_8_3
n6285__1_3_1_1_8,n6285__1_3_1_1_8_3
n6286__1_3_1_1_8,n6286__1_3_1_1_8_3
n6287__1_3_1_1_8,n6287__1_3_1_1_8_3
n6288__1_3_1_1_8,n6288__1_3_1_1_8_3
n6289__1_3_1_1_8,n6289__1_3_1_1_8_3
n6290__1_3_1_1_8,n6290__1_3_1_1_8_3
n6291__1_3_1_1_8,n6291__1_3_1_1_8_3
n6292__1_3_1_1_8,n6292__1_3_1_1_8_3
n6293__1_3_1_1_8,n6293__1_3_1_1_8_3
n6294__1_3_1_1_8,n6294__1_3_1_1_8_3
n6295__1_3_1_1_8,n6295__1_3_1_1_8_3
n6296__1_3_1_1_8,n6296__1_3_1_1_8_3
n6297__1_3_1_1_8,n6297__1_3_1_1_8_3
n6298__1_3_1_1_8,n6298__1_3_1_1_8_3
n6299__1_3_1_1_8,n6299__1_3_1_1_8_3
n6300__1_3_1_1_8,n6300__1_3_1_1_8_3
n6301__1_3_1_1_8,n6301__1_3_1_1_8_3
n6302__1_3_1_1_8,n6302__1_3_1_1_8_3
n6303__1_3_1_1_8,n6303__1_3_1_1_8_3
n6304__1_3_1_1_8,n6304__1_3_1_1_8_3
n6305__1_3_1_1_8,n6305__1_3_1_1_8_3
n6306__1_3_1_1_8,n6306__1_3_1_1_8_3
n6307__1_3_1_1_8,n6307__1_3_1_1_8_3
n6308__1_3_1_1_8,n6308__1_3_1_1_8_3
n6309__1_3_1_1_8,n6309__1_3_1_1_8_3
n6310__1_3_1_1_8,n6310__1_3_1_1_8_3
n6311__1_3_1_1_8,n6311__1_3_1_1_8_3
n6312__1_3_1_1_8,n6312__1_3_1_1_8_3
n6313__1_3_1_1_8,n6313__1_3_1_1_8_3
n6314__1_3_1_1_8,n6314__1_3_1_1_8_3
n6315__1_3_1_1_8,n6315__1_3_1_1_8_3
n6316__1_3_1_1_8,n6316__1_3_1_1_8_3
n6317__1_3_1_1_8,n6317__1_3_1_1_8_3
n6318__1_3_1_1_8,n6318__1_3_1_1_8_3
n6319__1_3_1_1_8,n6319__1_3_1_1_8_3
n6320__1_3_1_1_8,n6320__1_3_1_1_8_3
n6321__1_3_1_1_8,n6321__1_3_1_1_8_3
n6322__1_3_1_1_8,n6322__1_3_1_1_8_3
n6323__1_3_1_1_8,n6323__1_3_1_1_8_3
n6324__1_3_1_1_8,n6324__1_3_1_1_8_3
n6325__1_3_1_1_8,n6325__1_3_1_1_8_3
n6326__1_3_1_1_8,n6326__1_3_1_1_8_3
n6327__1_3_1_1_8,n6327__1_3_1_1_8_3
n6328__1_3_1_1_8,n6328__1_3_1_1_8_3
n6329__1_3_1_1_8,n6329__1_3_1_1_8_3
n6330__1_3_1_1_8,n6330__1_3_1_1_8_3
n6331__1_3_1_1_8,n6331__1_3_1_1_8_3
n6332__1_3_1_1_8,n6332__1_3_1_1_8_3
n6333__1_3_1_1_8,n6333__1_3_1_1_8_3
n6334__1_3_1_1_8,n6334__1_3_1_1_8_3
n6335__1_3_1_1_8,n6335__1_3_1_1_8_3
n6336__1_3_1_1_8,n6336__1_3_1_1_8_3
n6337__1_3_1_1_8,n6337__1_3_1_1_8_3
n6338__1_3_1_1_8,n6338__1_3_1_1_8_3
n6339__1_3_1_1_8,n6339__1_3_1_1_8_3
n6340__1_3_1_1_8,n6340__1_3_1_1_8_3
n6341__1_3_1_1_8,n6341__1_3_1_1_8_3
n6342__1_3_1_1_8,n6342__1_3_1_1_8_3
n6343__1_3_1_1_8,n6343__1_3_1_1_8_3
n6344__1_3_1_1_8,n6344__1_3_1_1_8_3
n6345__1_3_1_1_8,n6345__1_3_1_1_8_3
n6346__1_3_1_1_8,n6346__1_3_1_1_8_3
n6347__1_3_1_1_8,n6347__1_3_1_1_8_3
n6348__1_3_1_1_8,n6348__1_3_1_1_8_3
n6349__1_3_1_1_8,n6349__1_3_1_1_8_3
n6350__1_3_1_1_8,n6350__1_3_1_1_8_3
n6351__1_3_1_1_8,n6351__1_3_1_1_8_3
n6352__1_3_1_1_8,n6352__1_3_1_1_8_3
n6353__1_3_1_1_8,n6353__1_3_1_1_8_3
n6354__1_3_1_1_8,n6354__1_3_1_1_8_3
n6355__1_3_1_1_8,n6355__1_3_1_1_8_3
n6356__1_3_1_1_8,n6356__1_3_1_1_8_3
n6357__1_3_1_1_8,n6357__1_3_1_1_8_3
n6358__1_3_1_1_8,n6358__1_3_1_1_8_3
n6359__1_3_1_1_8,n6359__1_3_1_1_8_3
n6360__1_3_1_1_8,n6360__1_3_1_1_8_3
n6361__1_3_1_1_8,n6361__1_3_1_1_8_3
n6362__1_3_1_1_8,n6362__1_3_1_1_8_3
n6363__1_3_1_1_8,n6363__1_3_1_1_8_3
n6364__1_3_1_1_8,n6364__1_3_1_1_8_3
n6365__1_3_1_1_8,n6365__1_3_1_1_8_3
n6366__1_3_1_1_8,n6366__1_3_1_1_8_3
n6367__1_3_1_1_8,n6367__1_3_1_1_8_3
n6368__1_3_1_1_8,n6368__1_3_1_1_8_3
n6369__1_3_1_1_8,n6369__1_3_1_1_8_3
n6370__1_3_1_1_8,n6370__1_3_1_1_8_3
n6371__1_3_1_1_8,n6371__1_3_1_1_8_3
n6372__1_3_1_1_8,n6372__1_3_1_1_8_3
n6373__1_3_1_1_8,n6373__1_3_1_1_8_3
n6374__1_3_1_1_8,n6374__1_3_1_1_8_3
n6375__1_3_1_1_8,n6375__1_3_1_1_8_3
n6376__1_3_1_1_8,n6376__1_3_1_1_8_3
n6377__1_3_1_1_8,n6377__1_3_1_1_8_3
n6378__1_3_1_1_8,n6378__1_3_1_1_8_3
n6379__1_3_1_1_8,n6379__1_3_1_1_8_3
n6380__1_3_1_1_8,n6380__1_3_1_1_8_3
n6381__1_3_1_1_8,n6381__1_3_1_1_8_3
n6382__1_3_1_1_8,n6382__1_3_1_1_8_3
n6383__1_3_1_1_8,n6383__1_3_1_1_8_3
n6384__1_3_1_1_8,n6384__1_3_1_1_8_3
n6385__1_3_1_1_8,n6385__1_3_1_1_8_3
n6386__1_3_1_1_8,n6386__1_3_1_1_8_3
n6387__1_3_1_1_8,n6387__1_3_1_1_8_3
n6388__1_3_1_1_8,n6388__1_3_1_1_8_3
n6389__1_3_1_1_8,n6389__1_3_1_1_8_3
n6390__1_3_1_1_8,n6390__1_3_1_1_8_3
n6391__1_3_1_1_8,n6391__1_3_1_1_8_3
n6392__1_3_1_1_8,n6392__1_3_1_1_8_3
n6393__1_3_1_1_8,n6393__1_3_1_1_8_3
n6394__1_3_1_1_8,n6394__1_3_1_1_8_3
n6395__1_3_1_1_8,n6395__1_3_1_1_8_3
n6396__1_3_1_1_8,n6396__1_3_1_1_8_3
n6397__1_3_1_1_8,n6397__1_3_1_1_8_3
n6398__1_3_1_1_8,n6398__1_3_1_1_8_3
n6399__1_3_1_1_8,n6399__1_3_1_1_8_3
n6400__1_3_1_1_8,n6400__1_3_1_1_8_3
n6401__1_3_1_1_8,n6401__1_3_1_1_8_3
n6402__1_3_1_1_8,n6402__1_3_1_1_8_3
n6403__1_3_1_1_8,n6403__1_3_1_1_8_3
n6404__1_3_1_1_8,n6404__1_3_1_1_8_3
n6405__1_3_1_1_8,n6405__1_3_1_1_8_3
n6406__1_3_1_1_8,n6406__1_3_1_1_8_3
n6407__1_3_1_1_8,n6407__1_3_1_1_8_3
n6408__1_3_1_1_8,n6408__1_3_1_1_8_3
n6409__1_3_1_1_8,n6409__1_3_1_1_8_3
n6410__1_3_1_1_8,n6410__1_3_1_1_8_3
n6411__1_3_1_1_8,n6411__1_3_1_1_8_3
n6412__1_3_1_1_8,n6412__1_3_1_1_8_3
n6413__1_3_1_1_8,n6413__1_3_1_1_8_3
n6414__1_3_1_1_8,n6414__1_3_1_1_8_3
n6415__1_3_1_1_8,n6415__1_3_1_1_8_3
n6416__1_3_1_1_8,n6416__1_3_1_1_8_3
n6417__1_3_1_1_8,n6417__1_3_1_1_8_3
n6418__1_3_1_1_8,n6418__1_3_1_1_8_3
n6419__1_3_1_1_8,n6419__1_3_1_1_8_3
n6420__1_3_1_1_8,n6420__1_3_1_1_8_3
n6421__1_3_1_1_8,n6421__1_3_1_1_8_3
n6422__1_3_1_1_8,n6422__1_3_1_1_8_3
n6423__1_3_1_1_8,n6423__1_3_1_1_8_3
n6424__1_3_1_1_8,n6424__1_3_1_1_8_3
n6425__1_3_1_1_8,n6425__1_3_1_1_8_3
n6426__1_3_1_1_8,n6426__1_3_1_1_8_3
n6427__1_3_1_1_8,n6427__1_3_1_1_8_3
n6428__1_3_1_1_8,n6428__1_3_1_1_8_3
n6429__1_3_1_1_8,n6429__1_3_1_1_8_3
n6430__1_3_1_1_8,n6430__1_3_1_1_8_3
n6431__1_3_1_1_8,n6431__1_3_1_1_8_3
n6432__1_3_1_1_8,n6432__1_3_1_1_8_3
n6433__1_3_1_1_8,n6433__1_3_1_1_8_3
n6434__1_3_1_1_8,n6434__1_3_1_1_8_3
n6435__1_3_1_1_8,n6435__1_3_1_1_8_3
n6436__1_3_1_1_8,n6436__1_3_1_1_8_3
n6437__1_3_1_1_8,n6437__1_3_1_1_8_3
n6438__1_3_1_1_8,n6438__1_3_1_1_8_3
n6439__1_3_1_1_8,n6439__1_3_1_1_8_3
n6440__1_3_1_1_8,n6440__1_3_1_1_8_3
n6441__1_3_1_1_8,n6441__1_3_1_1_8_3
n6442__1_3_1_1_8,n6442__1_3_1_1_8_3
n6443__1_3_1_1_8,n6443__1_3_1_1_8_3
n6444__1_3_1_1_8,n6444__1_3_1_1_8_3
n6445__1_3_1_1_8,n6445__1_3_1_1_8_3
n6446__1_3_1_1_8,n6446__1_3_1_1_8_3
n6447__1_3_1_1_8,n6447__1_3_1_1_8_3
n6448__1_3_1_1_8,n6448__1_3_1_1_8_3
n6449__1_3_1_1_8,n6449__1_3_1_1_8_3
n6450__1_3_1_1_8,n6450__1_3_1_1_8_3
n6451__1_3_1_1_8,n6451__1_3_1_1_8_3
n6452__1_3_1_1_8,n6452__1_3_1_1_8_3
n6453__1_3_1_1_8,n6453__1_3_1_1_8_3
n6454__1_3_1_1_8,n6454__1_3_1_1_8_3
n6455__1_3_1_1_8,n6455__1_3_1_1_8_3
n6456__1_3_1_1_8,n6456__1_3_1_1_8_3
n6457__1_3_1_1_8,n6457__1_3_1_1_8_3
n6458__1_3_1_1_8,n6458__1_3_1_1_8_3
n6459__1_3_1_1_8,n6459__1_3_1_1_8_3
n6460__1_3_1_1_8,n6460__1_3_1_1_8_3
n6461__1_3_1_1_8,n6461__1_3_1_1_8_3
n6462__1_3_1_1_8,n6462__1_3_1_1_8_3
n6463__1_3_1_1_8,n6463__1_3_1_1_8_3
n6464__1_3_1_1_8,n6464__1_3_1_1_8_3
n6465__1_3_1_1_8,n6465__1_3_1_1_8_3
n6466__1_3_1_1_8,n6466__1_3_1_1_8_3
n6467__1_3_1_1_8,n6467__1_3_1_1_8_3
n6468__1_3_1_1_8,n6468__1_3_1_1_8_3
n6469__1_3_1_1_8,n6469__1_3_1_1_8_3
n6470__1_3_1_1_8,n6470__1_3_1_1_8_3
n6471__1_3_1_1_8,n6471__1_3_1_1_8_3
n6472__1_3_1_1_8,n6472__1_3_1_1_8_3
n6473__1_3_1_1_8,n6473__1_3_1_1_8_3
n6474__1_3_1_1_8,n6474__1_3_1_1_8_3
n6475__1_3_1_1_8,n6475__1_3_1_1_8_3
n6476__1_3_1_1_8,n6476__1_3_1_1_8_3
n6477__1_3_1_1_8,n6477__1_3_1_1_8_3
n6478__1_3_1_1_8,n6478__1_3_1_1_8_3
n6479__1_3_1_1_8,n6479__1_3_1_1_8_3
n6480__1_3_1_1_8,n6480__1_3_1_1_8_3
n6481__1_3_1_1_8,n6481__1_3_1_1_8_3
n6482__1_3_1_1_8,n6482__1_3_1_1_8_3
n6483__1_3_1_1_8,n6483__1_3_1_1_8_3
n6484__1_3_1_1_8,n6484__1_3_1_1_8_3
n6485__1_3_1_1_8,n6485__1_3_1_1_8_3
n6486__1_3_1_1_8,n6486__1_3_1_1_8_3
n6487__1_3_1_1_8,n6487__1_3_1_1_8_3
n6488__1_3_1_1_8,n6488__1_3_1_1_8_3
n6489__1_3_1_1_8,n6489__1_3_1_1_8_3
n6490__1_3_1_1_8,n6490__1_3_1_1_8_3
n6491__1_3_1_1_8,n6491__1_3_1_1_8_3
n6492__1_3_1_1_8,n6492__1_3_1_1_8_3
n6493__1_3_1_1_8,n6493__1_3_1_1_8_3
n6494__1_3_1_1_8,n6494__1_3_1_1_8_3
n6495__1_3_1_1_8,n6495__1_3_1_1_8_3
n6496__1_3_1_1_8,n6496__1_3_1_1_8_3
n6497__1_3_1_1_8,n6497__1_3_1_1_8_3
n6498__1_3_1_1_8,n6498__1_3_1_1_8_3
n6499__1_3_1_1_8,n6499__1_3_1_1_8_3
n6500__1_3_1_1_8,n6500__1_3_1_1_8_3
n6501__1_3_1_1_8,n6501__1_3_1_1_8_3
n6502__1_3_1_1_8,n6502__1_3_1_1_8_3
n6503__1_3_1_1_8,n6503__1_3_1_1_8_3
n6504__1_3_1_1_8,n6504__1_3_1_1_8_3
n6505__1_3_1_1_8,n6505__1_3_1_1_8_3
n6506__1_3_1_1_8,n6506__1_3_1_1_8_3
n6507__1_3_1_1_8,n6507__1_3_1_1_8_3
n6508__1_3_1_1_8,n6508__1_3_1_1_8_3
n6509__1_3_1_1_8,n6509__1_3_1_1_8_3
n6510__1_3_1_1_8,n6510__1_3_1_1_8_3
n6511__1_3_1_1_8,n6511__1_3_1_1_8_3
n6512__1_3_1_1_8,n6512__1_3_1_1_8_3
n6513__1_3_1_1_8,n6513__1_3_1_1_8_3
n6514__1_3_1_1_8,n6514__1_3_1_1_8_3
n6515__1_3_1_1_8,n6515__1_3_1_1_8_3
n6516__1_3_1_1_8,n6516__1_3_1_1_8_3
n6517__1_3_1_1_8,n6517__1_3_1_1_8_3
n6518__1_3_1_1_8,n6518__1_3_1_1_8_3
n6519__1_3_1_1_8,n6519__1_3_1_1_8_3
n6520__1_3_1_1_8,n6520__1_3_1_1_8_3
n6521__1_3_1_1_8,n6521__1_3_1_1_8_3
n6522__1_3_1_1_8,n6522__1_3_1_1_8_3
n6523__1_3_1_1_8,n6523__1_3_1_1_8_3
n6524__1_3_1_1_8,n6524__1_3_1_1_8_3
n6525__1_3_1_1_8,n6525__1_3_1_1_8_3
n6526__1_3_1_1_8,n6526__1_3_1_1_8_3
n6527__1_3_1_1_8,n6527__1_3_1_1_8_3
n6528__1_3_1_1_8,n6528__1_3_1_1_8_3
n6529__1_3_1_1_8,n6529__1_3_1_1_8_3
n6530__1_3_1_1_8,n6530__1_3_1_1_8_3
n6531__1_3_1_1_8,n6531__1_3_1_1_8_3
n6532__1_3_1_1_8,n6532__1_3_1_1_8_3
n6533__1_3_1_1_8,n6533__1_3_1_1_8_3
n6534__1_3_1_1_8,n6534__1_3_1_1_8_3
n6535__1_3_1_1_8,n6535__1_3_1_1_8_3
n6536__1_3_1_1_8,n6536__1_3_1_1_8_3
n6537__1_3_1_1_8,n6537__1_3_1_1_8_3
n6538__1_3_1_1_8,n6538__1_3_1_1_8_3
n6539__1_3_1_1_8,n6539__1_3_1_1_8_3
n6540__1_3_1_1_8,n6540__1_3_1_1_8_3
n6541__1_3_1_1_8,n6541__1_3_1_1_8_3
n6542__1_3_1_1_8,n6542__1_3_1_1_8_3
n6543__1_3_1_1_8,n6543__1_3_1_1_8_3
n6544__1_3_1_1_8,n6544__1_3_1_1_8_3
n6545__1_3_1_1_8,n6545__1_3_1_1_8_3
n6546__1_3_1_1_8,n6546__1_3_1_1_8_3
n6547__1_3_1_1_8,n6547__1_3_1_1_8_3
n6548__1_3_1_1_8,n6548__1_3_1_1_8_3
n6549__1_3_1_1_8,n6549__1_3_1_1_8_3
n6550__1_3_1_1_8,n6550__1_3_1_1_8_3
n6551__1_3_1_1_8,n6551__1_3_1_1_8_3
n6552__1_3_1_1_8,n6552__1_3_1_1_8_3
n6553__1_3_1_1_8,n6553__1_3_1_1_8_3
n6554__1_3_1_1_8,n6554__1_3_1_1_8_3
n6555__1_3_1_1_8,n6555__1_3_1_1_8_3
n6556__1_3_1_1_8,n6556__1_3_1_1_8_3
n6557__1_3_1_1_8,n6557__1_3_1_1_8_3
n6558__1_3_1_1_8,n6558__1_3_1_1_8_3
n6559__1_3_1_1_8,n6559__1_3_1_1_8_3
n6560__1_3_1_1_8,n6560__1_3_1_1_8_3
n6561__1_3_1_1_8,n6561__1_3_1_1_8_3
n6562__1_3_1_1_8,n6562__1_3_1_1_8_3
n6563__1_3_1_1_8,n6563__1_3_1_1_8_3
n6564__1_3_1_1_8,n6564__1_3_1_1_8_3
n6565__1_3_1_1_8,n6565__1_3_1_1_8_3
n6566__1_3_1_1_8,n6566__1_3_1_1_8_3
n6567__1_3_1_1_8,n6567__1_3_1_1_8_3
n6568__1_3_1_1_8,n6568__1_3_1_1_8_3
n6569__1_3_1_1_8,n6569__1_3_1_1_8_3
n6570__1_3_1_1_8,n6570__1_3_1_1_8_3
n6571__1_3_1_1_8,n6571__1_3_1_1_8_3
n6572__1_3_1_1_8,n6572__1_3_1_1_8_3
n6573__1_3_1_1_8,n6573__1_3_1_1_8_3
n6574__1_3_1_1_8,n6574__1_3_1_1_8_3
n6575__1_3_1_1_8,n6575__1_3_1_1_8_3
n6576__1_3_1_1_8,n6576__1_3_1_1_8_3
n6577__1_3_1_1_8,n6577__1_3_1_1_8_3
n6578__1_3_1_1_8,n6578__1_3_1_1_8_3
n6579__1_3_1_1_8,n6579__1_3_1_1_8_3
n6580__1_3_1_1_8,n6580__1_3_1_1_8_3
n6581__1_3_1_1_8,n6581__1_3_1_1_8_3
n6582__1_3_1_1_8,n6582__1_3_1_1_8_3
n6583__1_3_1_1_8,n6583__1_3_1_1_8_3
n6584__1_3_1_1_8,n6584__1_3_1_1_8_3
n6585__1_3_1_1_8,n6585__1_3_1_1_8_3
n6586__1_3_1_1_8,n6586__1_3_1_1_8_3
n6587__1_3_1_1_8,n6587__1_3_1_1_8_3
n6588__1_3_1_1_8,n6588__1_3_1_1_8_3
n6589__1_3_1_1_8,n6589__1_3_1_1_8_3
n6590__1_3_1_1_8,n6590__1_3_1_1_8_3
n6591__1_3_1_1_8,n6591__1_3_1_1_8_3
n6592__1_3_1_1_8,n6592__1_3_1_1_8_3
n6593__1_3_1_1_8,n6593__1_3_1_1_8_3
n6594__1_3_1_1_8,n6594__1_3_1_1_8_3
n6595__1_3_1_1_8,n6595__1_3_1_1_8_3
n6596__1_3_1_1_8,n6596__1_3_1_1_8_3
n6597__1_3_1_1_8,n6597__1_3_1_1_8_3
n6598__1_3_1_1_8,n6598__1_3_1_1_8_3
n6599__1_3_1_1_8,n6599__1_3_1_1_8_3
n6600__1_3_1_1_8,n6600__1_3_1_1_8_3
n6601__1_3_1_1_8,n6601__1_3_1_1_8_3
n6602__1_3_1_1_8,n6602__1_3_1_1_8_3
n6603__1_3_1_1_8,n6603__1_3_1_1_8_3
n6604__1_3_1_1_8,n6604__1_3_1_1_8_3
n6605__1_3_1_1_8,n6605__1_3_1_1_8_3
n6606__1_3_1_1_8,n6606__1_3_1_1_8_3
n6607__1_3_1_1_8,n6607__1_3_1_1_8_3
n6608__1_3_1_1_8,n6608__1_3_1_1_8_3
n6609__1_3_1_1_8,n6609__1_3_1_1_8_3
n6610__1_3_1_1_8,n6610__1_3_1_1_8_3
n6611__1_3_1_1_8,n6611__1_3_1_1_8_3
n6612__1_3_1_1_8,n6612__1_3_1_1_8_3
n6613__1_3_1_1_8,n6613__1_3_1_1_8_3
n6614__1_3_1_1_8,n6614__1_3_1_1_8_3
n6615__1_3_1_1_8,n6615__1_3_1_1_8_3
n6616__1_3_1_1_8,n6616__1_3_1_1_8_3
n6617__1_3_1_1_8,n6617__1_3_1_1_8_3
n6618__1_3_1_1_8,n6618__1_3_1_1_8_3
n6619__1_3_1_1_8,n6619__1_3_1_1_8_3
n6620__1_3_1_1_8,n6620__1_3_1_1_8_3
n6621__1_3_1_1_8,n6621__1_3_1_1_8_3
n6622__1_3_1_1_8,n6622__1_3_1_1_8_3
n6623__1_3_1_1_8,n6623__1_3_1_1_8_3
n6624__1_3_1_1_8,n6624__1_3_1_1_8_3
n6625__1_3_1_1_8,n6625__1_3_1_1_8_3
n6626__1_3_1_1_8,n6626__1_3_1_1_8_3
n6627__1_3_1_1_8,n6627__1_3_1_1_8_3
n6628__1_3_1_1_8,n6628__1_3_1_1_8_3
n6629__1_3_1_1_8,n6629__1_3_1_1_8_3
n6630__1_3_1_1_8,n6630__1_3_1_1_8_3
n6631__1_3_1_1_8,n6631__1_3_1_1_8_3
n6632__1_3_1_1_8,n6632__1_3_1_1_8_3
n6633__1_3_1_1_8,n6633__1_3_1_1_8_3
n6634__1_3_1_1_8,n6634__1_3_1_1_8_3
n6635__1_3_1_1_8,n6635__1_3_1_1_8_3
n6636__1_3_1_1_8,n6636__1_3_1_1_8_3
n6637__1_3_1_1_8,n6637__1_3_1_1_8_3
n6638__1_3_1_1_8,n6638__1_3_1_1_8_3
n6639__1_3_1_1_8,n6639__1_3_1_1_8_3
n6640__1_3_1_1_8,n6640__1_3_1_1_8_3
n6641__1_3_1_1_8,n6641__1_3_1_1_8_3
n6642__1_3_1_1_8,n6642__1_3_1_1_8_3
n6643__1_3_1_1_8,n6643__1_3_1_1_8_3
n6644__1_3_1_1_8,n6644__1_3_1_1_8_3
n6645__1_3_1_1_8,n6645__1_3_1_1_8_3
n6646__1_3_1_1_8,n6646__1_3_1_1_8_3
n6647__1_3_1_1_8,n6647__1_3_1_1_8_3
n6648__1_3_1_1_8,n6648__1_3_1_1_8_3
n6649__1_3_1_1_8,n6649__1_3_1_1_8_3
n6650__1_3_1_1_8,n6650__1_3_1_1_8_3
n6651__1_3_1_1_8,n6651__1_3_1_1_8_3
n6652__1_3_1_1_8,n6652__1_3_1_1_8_3
n6653__1_3_1_1_8,n6653__1_3_1_1_8_3
n6654__1_3_1_1_8,n6654__1_3_1_1_8_3
n6655__1_3_1_1_8,n6655__1_3_1_1_8_3
n6656__1_3_1_1_8,n6656__1_3_1_1_8_3
n6657__1_3_1_1_8,n6657__1_3_1_1_8_3
n6658__1_3_1_1_8,n6658__1_3_1_1_8_3
n6659__1_3_1_1_8,n6659__1_3_1_1_8_3
n6660__1_3_1_1_8,n6660__1_3_1_1_8_3
n6661__1_3_1_1_8,n6661__1_3_1_1_8_3
n6662__1_3_1_1_8,n6662__1_3_1_1_8_3
n6663__1_3_1_1_8,n6663__1_3_1_1_8_3
n6664__1_3_1_1_8,n6664__1_3_1_1_8_3
n6665__1_3_1_1_8,n6665__1_3_1_1_8_3
n6666__1_3_1_1_8,n6666__1_3_1_1_8_3
n6667__1_3_1_1_8,n6667__1_3_1_1_8_3
n6668__1_3_1_1_8,n6668__1_3_1_1_8_3
n6669__1_3_1_1_8,n6669__1_3_1_1_8_3
n6670__1_3_1_1_8,n6670__1_3_1_1_8_3
n6671__1_3_1_1_8,n6671__1_3_1_1_8_3
n6672__1_3_1_1_8,n6672__1_3_1_1_8_3
n6673__1_3_1_1_8,n6673__1_3_1_1_8_3
n6674__1_3_1_1_8,n6674__1_3_1_1_8_3
n6675__1_3_1_1_8,n6675__1_3_1_1_8_3
n6676__1_3_1_1_8,n6676__1_3_1_1_8_3
n6677__1_3_1_1_8,n6677__1_3_1_1_8_3
n6678__1_3_1_1_8,n6678__1_3_1_1_8_3
n6679__1_3_1_1_8,n6679__1_3_1_1_8_3
n6680__1_3_1_1_8,n6680__1_3_1_1_8_3
n6681__1_3_1_1_8,n6681__1_3_1_1_8_3
n6682__1_3_1_1_8,n6682__1_3_1_1_8_3
n6683__1_3_1_1_8,n6683__1_3_1_1_8_3
n6684__1_3_1_1_8,n6684__1_3_1_1_8_3
n6685__1_3_1_1_8,n6685__1_3_1_1_8_3
n6686__1_3_1_1_8,n6686__1_3_1_1_8_3
n6687__1_3_1_1_8,n6687__1_3_1_1_8_3
n6688__1_3_1_1_8,n6688__1_3_1_1_8_3
n6689__1_3_1_1_8,n6689__1_3_1_1_8_3
n6690__1_3_1_1_8,n6690__1_3_1_1_8_3
n6691__1_3_1_1_8,n6691__1_3_1_1_8_3
n6692__1_3_1_1_8,n6692__1_3_1_1_8_3
n6693__1_3_1_1_8,n6693__1_3_1_1_8_3
n6694__1_3_1_1_8,n6694__1_3_1_1_8_3
n6695__1_3_1_1_8,n6695__1_3_1_1_8_3
n6696__1_3_1_1_8,n6696__1_3_1_1_8_3
n6697__1_3_1_1_8,n6697__1_3_1_1_8_3
n6698__1_3_1_1_8,n6698__1_3_1_1_8_3
n6699__1_3_1_1_8,n6699__1_3_1_1_8_3
n6700__1_3_1_1_8,n6700__1_3_1_1_8_3
n6701__1_3_1_1_8,n6701__1_3_1_1_8_3
n6702__1_3_1_1_8,n6702__1_3_1_1_8_3
n6703__1_3_1_1_8,n6703__1_3_1_1_8_3
n6704__1_3_1_1_8,n6704__1_3_1_1_8_3
n6705__1_3_1_1_8,n6705__1_3_1_1_8_3
n6706__1_3_1_1_8,n6706__1_3_1_1_8_3
n6707__1_3_1_1_8,n6707__1_3_1_1_8_3
n6708__1_3_1_1_8,n6708__1_3_1_1_8_3
n6709__1_3_1_1_8,n6709__1_3_1_1_8_3
n6710__1_3_1_1_8,n6710__1_3_1_1_8_3
n6711__1_3_1_1_8,n6711__1_3_1_1_8_3
n6712__1_3_1_1_8,n6712__1_3_1_1_8_3
n6713__1_3_1_1_8,n6713__1_3_1_1_8_3
n6714__1_3_1_1_8,n6714__1_3_1_1_8_3
n6715__1_3_1_1_8,n6715__1_3_1_1_8_3
n6716__1_3_1_1_8,n6716__1_3_1_1_8_3
n6717__1_3_1_1_8,n6717__1_3_1_1_8_3
n6718__1_3_1_1_8,n6718__1_3_1_1_8_3
n6719__1_3_1_1_8,n6719__1_3_1_1_8_3
n6720__1_3_1_1_8,n6720__1_3_1_1_8_3
n6721__1_3_1_1_8,n6721__1_3_1_1_8_3
n6722__1_3_1_1_8,n6722__1_3_1_1_8_3
n6723__1_3_1_1_8,n6723__1_3_1_1_8_3
n6724__1_3_1_1_8,n6724__1_3_1_1_8_3
n6725__1_3_1_1_8,n6725__1_3_1_1_8_3
n6726__1_3_1_1_8,n6726__1_3_1_1_8_3
n6727__1_3_1_1_8,n6727__1_3_1_1_8_3
n6728__1_3_1_1_8,n6728__1_3_1_1_8_3
n6729__1_3_1_1_8,n6729__1_3_1_1_8_3
n6730__1_3_1_1_8,n6730__1_3_1_1_8_3
n6731__1_3_1_1_8,n6731__1_3_1_1_8_3
n6732__1_3_1_1_8,n6732__1_3_1_1_8_3
n6733__1_3_1_1_8,n6733__1_3_1_1_8_3
n6734__1_3_1_1_8,n6734__1_3_1_1_8_3
n6735__1_3_1_1_8,n6735__1_3_1_1_8_3
n6736__1_3_1_1_8,n6736__1_3_1_1_8_3
n6737__1_3_1_1_8,n6737__1_3_1_1_8_3
n6738__1_3_1_1_8,n6738__1_3_1_1_8_3
n6739__1_3_1_1_8,n6739__1_3_1_1_8_3
n6740__1_3_1_1_8,n6740__1_3_1_1_8_3
n6741__1_3_1_1_8,n6741__1_3_1_1_8_3
n6742__1_3_1_1_8,n6742__1_3_1_1_8_3
n6743__1_3_1_1_8,n6743__1_3_1_1_8_3
n6744__1_3_1_1_8,n6744__1_3_1_1_8_3
n6745__1_3_1_1_8,n6745__1_3_1_1_8_3
n6746__1_3_1_1_8,n6746__1_3_1_1_8_3
n6747__1_3_1_1_8,n6747__1_3_1_1_8_3
n6748__1_3_1_1_8,n6748__1_3_1_1_8_3
n6749__1_3_1_1_8,n6749__1_3_1_1_8_3
n6750__1_3_1_1_8,n6750__1_3_1_1_8_3
n6751__1_3_1_1_8,n6751__1_3_1_1_8_3
n6752__1_3_1_1_8,n6752__1_3_1_1_8_3
n6753__1_3_1_1_8,n6753__1_3_1_1_8_3
n6754__1_3_1_1_8,n6754__1_3_1_1_8_3
n6755__1_3_1_1_8,n6755__1_3_1_1_8_3
n6756__1_3_1_1_8,n6756__1_3_1_1_8_3
n6757__1_3_1_1_8,n6757__1_3_1_1_8_3
n6758__1_3_1_1_8,n6758__1_3_1_1_8_3
n6759__1_3_1_1_8,n6759__1_3_1_1_8_3
n6760__1_3_1_1_8,n6760__1_3_1_1_8_3
n6761__1_3_1_1_8,n6761__1_3_1_1_8_3
n6762__1_3_1_1_8,n6762__1_3_1_1_8_3
n6763__1_3_1_1_8,n6763__1_3_1_1_8_3
n6764__1_3_1_1_8,n6764__1_3_1_1_8_3
n6765__1_3_1_1_8,n6765__1_3_1_1_8_3
n6766__1_3_1_1_8,n6766__1_3_1_1_8_3
n6767__1_3_1_1_8,n6767__1_3_1_1_8_3
n6768__1_3_1_1_8,n6768__1_3_1_1_8_3
n6769__1_3_1_1_8,n6769__1_3_1_1_8_3
n6770__1_3_1_1_8,n6770__1_3_1_1_8_3
n6771__1_3_1_1_8,n6771__1_3_1_1_8_3
n6772__1_3_1_1_8,n6772__1_3_1_1_8_3
n6773__1_3_1_1_8,n6773__1_3_1_1_8_3
n6774__1_3_1_1_8,n6774__1_3_1_1_8_3
n6775__1_3_1_1_8,n6775__1_3_1_1_8_3
n6776__1_3_1_1_8,n6776__1_3_1_1_8_3
n6777__1_3_1_1_8,n6777__1_3_1_1_8_3
n6778__1_3_1_1_8,n6778__1_3_1_1_8_3
n6779__1_3_1_1_8,n6779__1_3_1_1_8_3
n6780__1_3_1_1_8,n6780__1_3_1_1_8_3
n6781__1_3_1_1_8,n6781__1_3_1_1_8_3
n6782__1_3_1_1_8,n6782__1_3_1_1_8_3
n6783__1_3_1_1_8,n6783__1_3_1_1_8_3
n6784__1_3_1_1_8,n6784__1_3_1_1_8_3
n6785__1_3_1_1_8,n6785__1_3_1_1_8_3
n6786__1_3_1_1_8,n6786__1_3_1_1_8_3
n6787__1_3_1_1_8,n6787__1_3_1_1_8_3
n6788__1_3_1_1_8,n6788__1_3_1_1_8_3
n6789__1_3_1_1_8,n6789__1_3_1_1_8_3
n6790__1_3_1_1_8,n6790__1_3_1_1_8_3
n6791__1_3_1_1_8,n6791__1_3_1_1_8_3
n6792__1_3_1_1_8,n6792__1_3_1_1_8_3
n6793__1_3_1_1_8,n6793__1_3_1_1_8_3
n6794__1_3_1_1_8,n6794__1_3_1_1_8_3
n6795__1_3_1_1_8,n6795__1_3_1_1_8_3
n6796__1_3_1_1_8,n6796__1_3_1_1_8_3
n6797__1_3_1_1_8,n6797__1_3_1_1_8_3
n6798__1_3_1_1_8,n6798__1_3_1_1_8_3
n6799__1_3_1_1_8,n6799__1_3_1_1_8_3
n6800__1_3_1_1_8,n6800__1_3_1_1_8_3
n6801__1_3_1_1_8,n6801__1_3_1_1_8_3
n6802__1_3_1_1_8,n6802__1_3_1_1_8_3
n6803__1_3_1_1_8,n6803__1_3_1_1_8_3
n6804__1_3_1_1_8,n6804__1_3_1_1_8_3
n6805__1_3_1_1_8,n6805__1_3_1_1_8_3
n6806__1_3_1_1_8,n6806__1_3_1_1_8_3
n6807__1_3_1_1_8,n6807__1_3_1_1_8_3
n6808__1_3_1_1_8,n6808__1_3_1_1_8_3
n6809__1_3_1_1_8,n6809__1_3_1_1_8_3
n6810__1_3_1_1_8,n6810__1_3_1_1_8_3
n6811__1_3_1_1_8,n6811__1_3_1_1_8_3
n6812__1_3_1_1_8,n6812__1_3_1_1_8_3
n6813__1_3_1_1_8,n6813__1_3_1_1_8_3
n6814__1_3_1_1_8,n6814__1_3_1_1_8_3
n6815__1_3_1_1_8,n6815__1_3_1_1_8_3
n6816__1_3_1_1_8,n6816__1_3_1_1_8_3
n6817__1_3_1_1_8,n6817__1_3_1_1_8_3
n6818__1_3_1_1_8,n6818__1_3_1_1_8_3
n6819__1_3_1_1_8,n6819__1_3_1_1_8_3
n6820__1_3_1_1_8,n6820__1_3_1_1_8_3
n6821__1_3_1_1_8,n6821__1_3_1_1_8_3
n6822__1_3_1_1_8,n6822__1_3_1_1_8_3
n6823__1_3_1_1_8,n6823__1_3_1_1_8_3
n6824__1_3_1_1_8,n6824__1_3_1_1_8_3
n6825__1_3_1_1_8,n6825__1_3_1_1_8_3
n6826__1_3_1_1_8,n6826__1_3_1_1_8_3
n6827__1_3_1_1_8,n6827__1_3_1_1_8_3
n6828__1_3_1_1_8,n6828__1_3_1_1_8_3
n6829__1_3_1_1_8,n6829__1_3_1_1_8_3
n6830__1_3_1_1_8,n6830__1_3_1_1_8_3
n6831__1_3_1_1_8,n6831__1_3_1_1_8_3
n6832__1_3_1_1_8,n6832__1_3_1_1_8_3
n6833__1_3_1_1_8,n6833__1_3_1_1_8_3
n6834__1_3_1_1_8,n6834__1_3_1_1_8_3
n6835__1_3_1_1_8,n6835__1_3_1_1_8_3
n6836__1_3_1_1_8,n6836__1_3_1_1_8_3
n6837__1_3_1_1_8,n6837__1_3_1_1_8_3
n6838__1_3_1_1_8,n6838__1_3_1_1_8_3
n6839__1_3_1_1_8,n6839__1_3_1_1_8_3
n6840__1_3_1_1_8,n6840__1_3_1_1_8_3
n6841__1_3_1_1_8,n6841__1_3_1_1_8_3
n6842__1_3_1_1_8,n6842__1_3_1_1_8_3
n6843__1_3_1_1_8,n6843__1_3_1_1_8_3
n6844__1_3_1_1_8,n6844__1_3_1_1_8_3
n6845__1_3_1_1_8,n6845__1_3_1_1_8_3
n6846__1_3_1_1_8,n6846__1_3_1_1_8_3
n6847__1_3_1_1_8,n6847__1_3_1_1_8_3
n6848__1_3_1_1_8,n6848__1_3_1_1_8_3
n6849__1_3_1_1_8,n6849__1_3_1_1_8_3
n6850__1_3_1_1_8,n6850__1_3_1_1_8_3
n6851__1_3_1_1_8,n6851__1_3_1_1_8_3
n6852__1_3_1_1_8,n6852__1_3_1_1_8_3
n6853__1_3_1_1_8,n6853__1_3_1_1_8_3
n6854__1_3_1_1_8,n6854__1_3_1_1_8_3
n6855__1_3_1_1_8,n6855__1_3_1_1_8_3
n6856__1_3_1_1_8,n6856__1_3_1_1_8_3
n6857__1_3_1_1_8,n6857__1_3_1_1_8_3
n6858__1_3_1_1_8,n6858__1_3_1_1_8_3
n6859__1_3_1_1_8,n6859__1_3_1_1_8_3
n6860__1_3_1_1_8,n6860__1_3_1_1_8_3
n6861__1_3_1_1_8,n6861__1_3_1_1_8_3
n6862__1_3_1_1_8,n6862__1_3_1_1_8_3
n6863__1_3_1_1_8,n6863__1_3_1_1_8_3
n6864__1_3_1_1_8,n6864__1_3_1_1_8_3
n6865__1_3_1_1_8,n6865__1_3_1_1_8_3
n6866__1_3_1_1_8,n6866__1_3_1_1_8_3
n6867__1_3_1_1_8,n6867__1_3_1_1_8_3
n6868__1_3_1_1_8,n6868__1_3_1_1_8_3
n6869__1_3_1_1_8,n6869__1_3_1_1_8_3
n6870__1_3_1_1_8,n6870__1_3_1_1_8_3
n6871__1_3_1_1_8,n6871__1_3_1_1_8_3
n6872__1_3_1_1_8,n6872__1_3_1_1_8_3
n6873__1_3_1_1_8,n6873__1_3_1_1_8_3
n6874__1_3_1_1_8,n6874__1_3_1_1_8_3
n6875__1_3_1_1_8,n6875__1_3_1_1_8_3
n6876__1_3_1_1_8,n6876__1_3_1_1_8_3
n6877__1_3_1_1_8,n6877__1_3_1_1_8_3
n6878__1_3_1_1_8,n6878__1_3_1_1_8_3
n6879__1_3_1_1_8,n6879__1_3_1_1_8_3
n6880__1_3_1_1_8,n6880__1_3_1_1_8_3
n6881__1_3_1_1_8,n6881__1_3_1_1_8_3
n6882__1_3_1_1_8,n6882__1_3_1_1_8_3
n6883__1_3_1_1_8,n6883__1_3_1_1_8_3
n6884__1_3_1_1_8,n6884__1_3_1_1_8_3
n6885__1_3_1_1_8,n6885__1_3_1_1_8_3
n6886__1_3_1_1_8,n6886__1_3_1_1_8_3
n6887__1_3_1_1_8,n6887__1_3_1_1_8_3
n6888__1_3_1_1_8,n6888__1_3_1_1_8_3
n6889__1_3_1_1_8,n6889__1_3_1_1_8_3
n6890__1_3_1_1_8,n6890__1_3_1_1_8_3
n6891__1_3_1_1_8,n6891__1_3_1_1_8_3
n6892__1_3_1_1_8,n6892__1_3_1_1_8_3
n6893__1_3_1_1_8,n6893__1_3_1_1_8_3
n6894__1_3_1_1_8,n6894__1_3_1_1_8_3
n6895__1_3_1_1_8,n6895__1_3_1_1_8_3
n6896__1_3_1_1_8,n6896__1_3_1_1_8_3
n6897__1_3_1_1_8,n6897__1_3_1_1_8_3
n6898__1_3_1_1_8,n6898__1_3_1_1_8_3
n6899__1_3_1_1_8,n6899__1_3_1_1_8_3
n6900__1_3_1_1_8,n6900__1_3_1_1_8_3
n6901__1_3_1_1_8,n6901__1_3_1_1_8_3
n6902__1_3_1_1_8,n6902__1_3_1_1_8_3
n6903__1_3_1_1_8,n6903__1_3_1_1_8_3
n6904__1_3_1_1_8,n6904__1_3_1_1_8_3
n6905__1_3_1_1_8,n6905__1_3_1_1_8_3
n6906__1_3_1_1_8,n6906__1_3_1_1_8_3
n6907__1_3_1_1_8,n6907__1_3_1_1_8_3
n6908__1_3_1_1_8,n6908__1_3_1_1_8_3
n6909__1_3_1_1_8,n6909__1_3_1_1_8_3
n6910__1_3_1_1_8,n6910__1_3_1_1_8_3
n6911__1_3_1_1_8,n6911__1_3_1_1_8_3
n6912__1_3_1_1_8,n6912__1_3_1_1_8_3
n6913__1_3_1_1_8,n6913__1_3_1_1_8_3
n6914__1_3_1_1_8,n6914__1_3_1_1_8_3
n6915__1_3_1_1_8,n6915__1_3_1_1_8_3
n6916__1_3_1_1_8,n6916__1_3_1_1_8_3
n6917__1_3_1_1_8,n6917__1_3_1_1_8_3
n6918__1_3_1_1_8,n6918__1_3_1_1_8_3
n6919__1_3_1_1_8,n6919__1_3_1_1_8_3
n6920__1_3_1_1_8,n6920__1_3_1_1_8_3
n6921__1_3_1_1_8,n6921__1_3_1_1_8_3
n6922__1_3_1_1_8,n6922__1_3_1_1_8_3
n6923__1_3_1_1_8,n6923__1_3_1_1_8_3
n6924__1_3_1_1_8,n6924__1_3_1_1_8_3
n6925__1_3_1_1_8,n6925__1_3_1_1_8_3
n6926__1_3_1_1_8,n6926__1_3_1_1_8_3
n6927__1_3_1_1_8,n6927__1_3_1_1_8_3
n6928__1_3_1_1_8,n6928__1_3_1_1_8_3
n6929__1_3_1_1_8,n6929__1_3_1_1_8_3
n6930__1_3_1_1_8,n6930__1_3_1_1_8_3
n6931__1_3_1_1_8,n6931__1_3_1_1_8_3
n6932__1_3_1_1_8,n6932__1_3_1_1_8_3
n6933__1_3_1_1_8,n6933__1_3_1_1_8_3
n6934__1_3_1_1_8,n6934__1_3_1_1_8_3
n6935__1_3_1_1_8,n6935__1_3_1_1_8_3
n6936__1_3_1_1_8,n6936__1_3_1_1_8_3
n6937__1_3_1_1_8,n6937__1_3_1_1_8_3
n6938__1_3_1_1_8,n6938__1_3_1_1_8_3
n6939__1_3_1_1_8,n6939__1_3_1_1_8_3
n6940__1_3_1_1_8,n6940__1_3_1_1_8_3
n6941__1_3_1_1_8,n6941__1_3_1_1_8_3
n6942__1_3_1_1_8,n6942__1_3_1_1_8_3
n6943__1_3_1_1_8,n6943__1_3_1_1_8_3
n6944__1_3_1_1_8,n6944__1_3_1_1_8_3
n6945__1_3_1_1_8,n6945__1_3_1_1_8_3
n6946__1_3_1_1_8,n6946__1_3_1_1_8_3
n6947__1_3_1_1_8,n6947__1_3_1_1_8_3
n6948__1_3_1_1_8,n6948__1_3_1_1_8_3
n6949__1_3_1_1_8,n6949__1_3_1_1_8_3
n6950__1_3_1_1_8,n6950__1_3_1_1_8_3
n6951__1_3_1_1_8,n6951__1_3_1_1_8_3
n6952__1_3_1_1_8,n6952__1_3_1_1_8_3
n6953__1_3_1_1_8,n6953__1_3_1_1_8_3
n6954__1_3_1_1_8,n6954__1_3_1_1_8_3
n6955__1_3_1_1_8,n6955__1_3_1_1_8_3
n6956__1_3_1_1_8,n6956__1_3_1_1_8_3
n6957__1_3_1_1_8,n6957__1_3_1_1_8_3
n6958__1_3_1_1_8,n6958__1_3_1_1_8_3
n6959__1_3_1_1_8,n6959__1_3_1_1_8_3
n6960__1_3_1_1_8,n6960__1_3_1_1_8_3
n6961__1_3_1_1_8,n6961__1_3_1_1_8_3
n6962__1_3_1_1_8,n6962__1_3_1_1_8_3
n6963__1_3_1_1_8,n6963__1_3_1_1_8_3
n6964__1_3_1_1_8,n6964__1_3_1_1_8_3
n6965__1_3_1_1_8,n6965__1_3_1_1_8_3
n6966__1_3_1_1_8,n6966__1_3_1_1_8_3
n6967__1_3_1_1_8,n6967__1_3_1_1_8_3
n6968__1_3_1_1_8,n6968__1_3_1_1_8_3
n6969__1_3_1_1_8,n6969__1_3_1_1_8_3
n6970__1_3_1_1_8,n6970__1_3_1_1_8_3
n6971__1_3_1_1_8,n6971__1_3_1_1_8_3
n6972__1_3_1_1_8,n6972__1_3_1_1_8_3
n6973__1_3_1_1_8,n6973__1_3_1_1_8_3
n6974__1_3_1_1_8,n6974__1_3_1_1_8_3
n6975__1_3_1_1_8,n6975__1_3_1_1_8_3
n6976__1_3_1_1_8,n6976__1_3_1_1_8_3
n6977__1_3_1_1_8,n6977__1_3_1_1_8_3
n6978__1_3_1_1_8,n6978__1_3_1_1_8_3
n6979__1_3_1_1_8,n6979__1_3_1_1_8_3
n6980__1_3_1_1_8,n6980__1_3_1_1_8_3
n6981__1_3_1_1_8,n6981__1_3_1_1_8_3
n6982__1_3_1_1_8,n6982__1_3_1_1_8_3
n6983__1_3_1_1_8,n6983__1_3_1_1_8_3
n6984__1_3_1_1_8,n6984__1_3_1_1_8_3
n6985__1_3_1_1_8,n6985__1_3_1_1_8_3
n6986__1_3_1_1_8,n6986__1_3_1_1_8_3
n6987__1_3_1_1_8,n6987__1_3_1_1_8_3
n6988__1_3_1_1_8,n6988__1_3_1_1_8_3
n6989__1_3_1_1_8,n6989__1_3_1_1_8_3
n6990__1_3_1_1_8,n6990__1_3_1_1_8_3
n6991__1_3_1_1_8,n6991__1_3_1_1_8_3
n6992__1_3_1_1_8,n6992__1_3_1_1_8_3
n6993__1_3_1_1_8,n6993__1_3_1_1_8_3
n6994__1_3_1_1_8,n6994__1_3_1_1_8_3
n6995__1_3_1_1_8,n6995__1_3_1_1_8_3
n6996__1_3_1_1_8,n6996__1_3_1_1_8_3
n6997__1_3_1_1_8,n6997__1_3_1_1_8_3
n6998__1_3_1_1_8,n6998__1_3_1_1_8_3
n6999__1_3_1_1_8,n6999__1_3_1_1_8_3
n7000__1_3_1_1_8,n7000__1_3_1_1_8_3
n7001__1_3_1_1_8,n7001__1_3_1_1_8_3
n7002__1_3_1_1_8,n7002__1_3_1_1_8_3
n7003__1_3_1_1_8,n7003__1_3_1_1_8_3
n7004__1_3_1_1_8,n7004__1_3_1_1_8_3
n7005__1_3_1_1_8,n7005__1_3_1_1_8_3
n7006__1_3_1_1_8,n7006__1_3_1_1_8_3
n7007__1_3_1_1_8,n7007__1_3_1_1_8_3
n7008__1_3_1_1_8,n7008__1_3_1_1_8_3
n7009__1_3_1_1_8,n7009__1_3_1_1_8_3
n7010__1_3_1_1_8,n7010__1_3_1_1_8_3
n7011__1_3_1_1_8,n7011__1_3_1_1_8_3
n7012__1_3_1_1_8,n7012__1_3_1_1_8_3
n7013__1_3_1_1_8,n7013__1_3_1_1_8_3
n7014__1_3_1_1_8,n7014__1_3_1_1_8_3
n7015__1_3_1_1_8,n7015__1_3_1_1_8_3
n7016__1_3_1_1_8,n7016__1_3_1_1_8_3
n7017__1_3_1_1_8,n7017__1_3_1_1_8_3
n7018__1_3_1_1_8,n7018__1_3_1_1_8_3
n7019__1_3_1_1_8,n7019__1_3_1_1_8_3
n7020__1_3_1_1_8,n7020__1_3_1_1_8_3
n7021__1_3_1_1_8,n7021__1_3_1_1_8_3
n7022__1_3_1_1_8,n7022__1_3_1_1_8_3
n7023__1_3_1_1_8,n7023__1_3_1_1_8_3
n7024__1_3_1_1_8,n7024__1_3_1_1_8_3
n7025__1_3_1_1_8,n7025__1_3_1_1_8_3
n7026__1_3_1_1_8,n7026__1_3_1_1_8_3
n7027__1_3_1_1_8,n7027__1_3_1_1_8_3
n7028__1_3_1_1_8,n7028__1_3_1_1_8_3
n7029__1_3_1_1_8,n7029__1_3_1_1_8_3
n7030__1_3_1_1_8,n7030__1_3_1_1_8_3
n7031__1_3_1_1_8,n7031__1_3_1_1_8_3
n7032__1_3_1_1_8,n7032__1_3_1_1_8_3
n7033__1_3_1_1_8,n7033__1_3_1_1_8_3
n7034__1_3_1_1_8,n7034__1_3_1_1_8_3
n7035__1_3_1_1_8,n7035__1_3_1_1_8_3
n7036__1_3_1_1_8,n7036__1_3_1_1_8_3
n7037__1_3_1_1_8,n7037__1_3_1_1_8_3
n7038__1_3_1_1_8,n7038__1_3_1_1_8_3
n7039__1_3_1_1_8,n7039__1_3_1_1_8_3
n7040__1_3_1_1_8,n7040__1_3_1_1_8_3
n7041__1_3_1_1_8,n7041__1_3_1_1_8_3
n7042__1_3_1_1_8,n7042__1_3_1_1_8_3
n7043__1_3_1_1_8,n7043__1_3_1_1_8_3
n7044__1_3_1_1_8,n7044__1_3_1_1_8_3
n7045__1_3_1_1_8,n7045__1_3_1_1_8_3
n7046__1_3_1_1_8,n7046__1_3_1_1_8_3
n7047__1_3_1_1_8,n7047__1_3_1_1_8_3
n7048__1_3_1_1_8,n7048__1_3_1_1_8_3
n7049__1_3_1_1_8,n7049__1_3_1_1_8_3
n7050__1_3_1_1_8,n7050__1_3_1_1_8_3
n7051__1_3_1_1_8,n7051__1_3_1_1_8_3
n7052__1_3_1_1_8,n7052__1_3_1_1_8_3
n7053__1_3_1_1_8,n7053__1_3_1_1_8_3
n7054__1_3_1_1_8,n7054__1_3_1_1_8_3
n7055__1_3_1_1_8,n7055__1_3_1_1_8_3
n7056__1_3_1_1_8,n7056__1_3_1_1_8_3
n7057__1_3_1_1_8,n7057__1_3_1_1_8_3
n7058__1_3_1_1_8,n7058__1_3_1_1_8_3
n7059__1_3_1_1_8,n7059__1_3_1_1_8_3
n7060__1_3_1_1_8,n7060__1_3_1_1_8_3
n7061__1_3_1_1_8,n7061__1_3_1_1_8_3
n7062__1_3_1_1_8,n7062__1_3_1_1_8_3
n7063__1_3_1_1_8,n7063__1_3_1_1_8_3
n7064__1_3_1_1_8,n7064__1_3_1_1_8_3
n7065__1_3_1_1_8,n7065__1_3_1_1_8_3
n7066__1_3_1_1_8,n7066__1_3_1_1_8_3
n7067__1_3_1_1_8,n7067__1_3_1_1_8_3
n7068__1_3_1_1_8,n7068__1_3_1_1_8_3
n7069__1_3_1_1_8,n7069__1_3_1_1_8_3
n7070__1_3_1_1_8,n7070__1_3_1_1_8_3
n7071__1_3_1_1_8,n7071__1_3_1_1_8_3
n7072__1_3_1_1_8,n7072__1_3_1_1_8_3
n7073__1_3_1_1_8,n7073__1_3_1_1_8_3
n7074__1_3_1_1_8,n7074__1_3_1_1_8_3
n7075__1_3_1_1_8,n7075__1_3_1_1_8_3
n7076__1_3_1_1_8,n7076__1_3_1_1_8_3
n7077__1_3_1_1_8,n7077__1_3_1_1_8_3
n7078__1_3_1_1_8,n7078__1_3_1_1_8_3
n7079__1_3_1_1_8,n7079__1_3_1_1_8_3
n7080__1_3_1_1_8,n7080__1_3_1_1_8_3
n7081__1_3_1_1_8,n7081__1_3_1_1_8_3
n7082__1_3_1_1_8,n7082__1_3_1_1_8_3
n7083__1_3_1_1_8,n7083__1_3_1_1_8_3
n7084__1_3_1_1_8,n7084__1_3_1_1_8_3
n7085__1_3_1_1_8,n7085__1_3_1_1_8_3
n7086__1_3_1_1_8,n7086__1_3_1_1_8_3
n7087__1_3_1_1_8,n7087__1_3_1_1_8_3
n7088__1_3_1_1_8,n7088__1_3_1_1_8_3
n7089__1_3_1_1_8,n7089__1_3_1_1_8_3
n7090__1_3_1_1_8,n7090__1_3_1_1_8_3
n7091__1_3_1_1_8,n7091__1_3_1_1_8_3
n7092__1_3_1_1_8,n7092__1_3_1_1_8_3
n7093__1_3_1_1_8,n7093__1_3_1_1_8_3
n7094__1_3_1_1_8,n7094__1_3_1_1_8_3
n7095__1_3_1_1_8,n7095__1_3_1_1_8_3
n7096__1_3_1_1_8,n7096__1_3_1_1_8_3
n7097__1_3_1_1_8,n7097__1_3_1_1_8_3
n7098__1_3_1_1_8,n7098__1_3_1_1_8_3
n7099__1_3_1_1_8,n7099__1_3_1_1_8_3
n7100__1_3_1_1_8,n7100__1_3_1_1_8_3
