n2378__1_3_1_1,n2378__1_3_1_1_4
n2380__1_3_1_1,n2380__1_3_1_1_4
n2387__1_3_1_1,n2387__1_3_1_1_4
n2388__1_3_1_1,n2388__1_3_1_1_4
n2394__1_3_1_1,n2394__1_3_1_1_4
n2396__1_3_1_1,n2396__1_3_1_1_4
n2397__1_3_1_1,n2397__1_3_1_1_4
n2398__1_3_1_1,n2398__1_3_1_1_4
n2399__1_3_1_1,n2399__1_3_1_1_4
n2402__1_3_1_1,n2402__1_3_1_1_4
n2403__1_3_1_1,n2403__1_3_1_1_4
n2404__1_3_1_1,n2404__1_3_1_1_4
n2406__1_3_1_1,n2406__1_3_1_1_4
n2408__1_3_1_1,n2408__1_3_1_1_4
n2412__1_3_1_1,n2412__1_3_1_1_4
n2414__1_3_1_1,n2414__1_3_1_1_4
n2415__1_3_1_1,n2415__1_3_1_1_4
n2417__1_3_1_1,n2417__1_3_1_1_4
n2420__1_3_1_1,n2420__1_3_1_1_4
n2421__1_3_1_1,n2421__1_3_1_1_4
n2422__1_3_1_1,n2422__1_3_1_1_4
n2424__1_3_1_1,n2424__1_3_1_1_4
n2425__1_3_1_1,n2425__1_3_1_1_4
n2426__1_3_1_1,n2426__1_3_1_1_4
n2430__1_3_1_1,n2430__1_3_1_1_4
n2431__1_3_1_1,n2431__1_3_1_1_4
n2432__1_3_1_1,n2432__1_3_1_1_4
n2433__1_3_1_1,n2433__1_3_1_1_4
n2434__1_3_1_1,n2434__1_3_1_1_4
n2437__1_3_1_1,n2437__1_3_1_1_4
n2439__1_3_1_1,n2439__1_3_1_1_4
n2442__1_3_1_1,n2442__1_3_1_1_4
n2445__1_3_1_1,n2445__1_3_1_1_4
n2446__1_3_1_1,n2446__1_3_1_1_4
n2447__1_3_1_1,n2447__1_3_1_1_4
n2448__1_3_1_1,n2448__1_3_1_1_4
n2450__1_3_1_1,n2450__1_3_1_1_4
n2451__1_3_1_1,n2451__1_3_1_1_4
n2452__1_3_1_1,n2452__1_3_1_1_4
n2453__1_3_1_1,n2453__1_3_1_1_4
n2457__1_3_1_1,n2457__1_3_1_1_4
n2461__1_3_1_1,n2461__1_3_1_1_4
n2463__1_3_1_1,n2463__1_3_1_1_4
n2465__1_3_1_1,n2465__1_3_1_1_4
n2466__1_3_1_1,n2466__1_3_1_1_4
n2467__1_3_1_1,n2467__1_3_1_1_4
n2468__1_3_1_1,n2468__1_3_1_1_4
n2469__1_3_1_1,n2469__1_3_1_1_4
n2472__1_3_1_1,n2472__1_3_1_1_4
n2474__1_3_1_1,n2474__1_3_1_1_4
n2476__1_3_1_1,n2476__1_3_1_1_4
n2477__1_3_1_1,n2477__1_3_1_1_4
n2478__1_3_1_1,n2478__1_3_1_1_4
n2479__1_3_1_1,n2479__1_3_1_1_4
n2481__1_3_1_1,n2481__1_3_1_1_4
n2485__1_3_1_1,n2485__1_3_1_1_4
n2486__1_3_1_1,n2486__1_3_1_1_4
n2487__1_3_1_1,n2487__1_3_1_1_4
n2489__1_3_1_1,n2489__1_3_1_1_4
n2493__1_3_1_1,n2493__1_3_1_1_4
n2494__1_3_1_1,n2494__1_3_1_1_4
n2496__1_3_1_1,n2496__1_3_1_1_4
n2498__1_3_1_1,n2498__1_3_1_1_4
n2499__1_3_1_1,n2499__1_3_1_1_4
n2500__1_3_1_1,n2500__1_3_1_1_4
n2502__1_3_1_1,n2502__1_3_1_1_4
n2503__1_3_1_1,n2503__1_3_1_1_4
n2504__1_3_1_1,n2504__1_3_1_1_4
n2505__1_3_1_1,n2505__1_3_1_1_4
n2506__1_3_1_1,n2506__1_3_1_1_4
n2507__1_3_1_1,n2507__1_3_1_1_4
n2511__1_3_1_1,n2511__1_3_1_1_4
n2512__1_3_1_1,n2512__1_3_1_1_4
n2513__1_3_1_1,n2513__1_3_1_1_4
n2515__1_3_1_1,n2515__1_3_1_1_4
n2516__1_3_1_1,n2516__1_3_1_1_4
n2517__1_3_1_1,n2517__1_3_1_1_4
n2518__1_3_1_1,n2518__1_3_1_1_4
n2519__1_3_1_1,n2519__1_3_1_1_4
n2520__1_3_1_1,n2520__1_3_1_1_4
n2523__1_3_1_1,n2523__1_3_1_1_4
n2525__1_3_1_1,n2525__1_3_1_1_4
n2530__1_3_1_1,n2530__1_3_1_1_4
n2532__1_3_1_1,n2532__1_3_1_1_4
n2533__1_3_1_1,n2533__1_3_1_1_4
n2534__1_3_1_1,n2534__1_3_1_1_4
n2537__1_3_1_1,n2537__1_3_1_1_4
n2539__1_3_1_1,n2539__1_3_1_1_4
n2540__1_3_1_1,n2540__1_3_1_1_4
n2542__1_3_1_1,n2542__1_3_1_1_4
n2543__1_3_1_1,n2543__1_3_1_1_4
n2544__1_3_1_1,n2544__1_3_1_1_4
n2545__1_3_1_1,n2545__1_3_1_1_4
n2546__1_3_1_1,n2546__1_3_1_1_4
n2547__1_3_1_1,n2547__1_3_1_1_4
n2549__1_3_1_1,n2549__1_3_1_1_4
n2554__1_3_1_1,n2554__1_3_1_1_4
n2555__1_3_1_1,n2555__1_3_1_1_4
n2558__1_3_1_1,n2558__1_3_1_1_4
n2559__1_3_1_1,n2559__1_3_1_1_4
n2561__1_3_1_1,n2561__1_3_1_1_4
n2562__1_3_1_1,n2562__1_3_1_1_4
n2563__1_3_1_1,n2563__1_3_1_1_4
n2565__1_3_1_1,n2565__1_3_1_1_4
n2570__1_3_1_1,n2570__1_3_1_1_4
n2571__1_3_1_1,n2571__1_3_1_1_4
n2572__1_3_1_1,n2572__1_3_1_1_4
n2573__1_3_1_1,n2573__1_3_1_1_4
n2578__1_3_1_1,n2578__1_3_1_1_4
n2581__1_3_1_1,n2581__1_3_1_1_4
n2584__1_3_1_1,n2584__1_3_1_1_4
n2586__1_3_1_1,n2586__1_3_1_1_4
n2587__1_3_1_1,n2587__1_3_1_1_4
n2589__1_3_1_1,n2589__1_3_1_1_4
n2590__1_3_1_1,n2590__1_3_1_1_4
n2592__1_3_1_1,n2592__1_3_1_1_4
n2594__1_3_1_1,n2594__1_3_1_1_4
n2595__1_3_1_1,n2595__1_3_1_1_4
n2596__1_3_1_1,n2596__1_3_1_1_4
n2597__1_3_1_1,n2597__1_3_1_1_4
n2599__1_3_1_1,n2599__1_3_1_1_4
n2600__1_3_1_1,n2600__1_3_1_1_4
n2602__1_3_1_1,n2602__1_3_1_1_4
n2605__1_3_1_1,n2605__1_3_1_1_4
n2607__1_3_1_1,n2607__1_3_1_1_4
n2608__1_3_1_1,n2608__1_3_1_1_4
n2610__1_3_1_1,n2610__1_3_1_1_4
n2615__1_3_1_1,n2615__1_3_1_1_4
n2616__1_3_1_1,n2616__1_3_1_1_4
n2620__1_3_1_1,n2620__1_3_1_1_4
n2622__1_3_1_1,n2622__1_3_1_1_4
n2623__1_3_1_1,n2623__1_3_1_1_4
n2624__1_3_1_1,n2624__1_3_1_1_4
n2625__1_3_1_1,n2625__1_3_1_1_4
n2626__1_3_1_1,n2626__1_3_1_1_4
n2627__1_3_1_1,n2627__1_3_1_1_4
n2629__1_3_1_1,n2629__1_3_1_1_4
n2632__1_3_1_1,n2632__1_3_1_1_4
n2634__1_3_1_1,n2634__1_3_1_1_4
n2635__1_3_1_1,n2635__1_3_1_1_4
n2637__1_3_1_1,n2637__1_3_1_1_4
n2642__1_3_1_1,n2642__1_3_1_1_4
n2645__1_3_1_1,n2645__1_3_1_1_4
n2646__1_3_1_1,n2646__1_3_1_1_4
n2647__1_3_1_1,n2647__1_3_1_1_4
n2648__1_3_1_1,n2648__1_3_1_1_4
n2650__1_3_1_1,n2650__1_3_1_1_4
n2651__1_3_1_1,n2651__1_3_1_1_4
n2653__1_3_1_1,n2653__1_3_1_1_4
n2656__1_3_1_1,n2656__1_3_1_1_4
n2659__1_3_1_1,n2659__1_3_1_1_4
n2661__1_3_1_1,n2661__1_3_1_1_4
n2666__1_3_1_1,n2666__1_3_1_1_4
n2667__1_3_1_1,n2667__1_3_1_1_4
n2668__1_3_1_1,n2668__1_3_1_1_4
n2670__1_3_1_1,n2670__1_3_1_1_4
n2673__1_3_1_1,n2673__1_3_1_1_4
n2675__1_3_1_1,n2675__1_3_1_1_4
n2676__1_3_1_1,n2676__1_3_1_1_4
n2677__1_3_1_1,n2677__1_3_1_1_4
n2678__1_3_1_1,n2678__1_3_1_1_4
n2680__1_3_1_1,n2680__1_3_1_1_4
n2681__1_3_1_1,n2681__1_3_1_1_4
n2682__1_3_1_1,n2682__1_3_1_1_4
n2683__1_3_1_1,n2683__1_3_1_1_4
n2687__1_3_1_1,n2687__1_3_1_1_4
n2688__1_3_1_1,n2688__1_3_1_1_4
n2689__1_3_1_1,n2689__1_3_1_1_4
n2690__1_3_1_1,n2690__1_3_1_1_4
n2693__1_3_1_1,n2693__1_3_1_1_4
n2694__1_3_1_1,n2694__1_3_1_1_4
n2695__1_3_1_1,n2695__1_3_1_1_4
n2697__1_3_1_1,n2697__1_3_1_1_4
n2698__1_3_1_1,n2698__1_3_1_1_4
n2700__1_3_1_1,n2700__1_3_1_1_4
n2701__1_3_1_1,n2701__1_3_1_1_4
n2702__1_3_1_1,n2702__1_3_1_1_4
n2707__1_3_1_1,n2707__1_3_1_1_4
n2710__1_3_1_1,n2710__1_3_1_1_4
n2714__1_3_1_1,n2714__1_3_1_1_4
n2717__1_3_1_1,n2717__1_3_1_1_4
n2718__1_3_1_1,n2718__1_3_1_1_4
n2720__1_3_1_1,n2720__1_3_1_1_4
n2721__1_3_1_1,n2721__1_3_1_1_4
n2722__1_3_1_1,n2722__1_3_1_1_4
n2723__1_3_1_1,n2723__1_3_1_1_4
n2728__1_3_1_1,n2728__1_3_1_1_4
n2734__1_3_1_1,n2734__1_3_1_1_4
n2738__1_3_1_1,n2738__1_3_1_1_4
n2740__1_3_1_1,n2740__1_3_1_1_4
n2742__1_3_1_1,n2742__1_3_1_1_4
n2745__1_3_1_1,n2745__1_3_1_1_4
n2746__1_3_1_1,n2746__1_3_1_1_4
n2747__1_3_1_1,n2747__1_3_1_1_4
n2749__1_3_1_1,n2749__1_3_1_1_4
n2750__1_3_1_1,n2750__1_3_1_1_4
n2754__1_3_1_1,n2754__1_3_1_1_4
n2756__1_3_1_1,n2756__1_3_1_1_4
n2759__1_3_1_1,n2759__1_3_1_1_4
n2761__1_3_1_1,n2761__1_3_1_1_4
n2763__1_3_1_1,n2763__1_3_1_1_4
n2764__1_3_1_1,n2764__1_3_1_1_4
n2769__1_3_1_1,n2769__1_3_1_1_4
n2771__1_3_1_1,n2771__1_3_1_1_4
n2772__1_3_1_1,n2772__1_3_1_1_4
n2774__1_3_1_1,n2774__1_3_1_1_4
n2775__1_3_1_1,n2775__1_3_1_1_4
n2777__1_3_1_1,n2777__1_3_1_1_4
n2779__1_3_1_1,n2779__1_3_1_1_4
n2780__1_3_1_1,n2780__1_3_1_1_4
n2781__1_3_1_1,n2781__1_3_1_1_4
n2782__1_3_1_1,n2782__1_3_1_1_4
n2788__1_3_1_1,n2788__1_3_1_1_4
n2789__1_3_1_1,n2789__1_3_1_1_4
n2791__1_3_1_1,n2791__1_3_1_1_4
n2796__1_3_1_1,n2796__1_3_1_1_4
n2798__1_3_1_1,n2798__1_3_1_1_4
n2801__1_3_1_1,n2801__1_3_1_1_4
n2802__1_3_1_1,n2802__1_3_1_1_4
n2804__1_3_1_1,n2804__1_3_1_1_4
n2805__1_3_1_1,n2805__1_3_1_1_4
n2806__1_3_1_1,n2806__1_3_1_1_4
n2808__1_3_1_1,n2808__1_3_1_1_4
n2809__1_3_1_1,n2809__1_3_1_1_4
n2813__1_3_1_1,n2813__1_3_1_1_4
n2816__1_3_1_1,n2816__1_3_1_1_4
n2817__1_3_1_1,n2817__1_3_1_1_4
n2819__1_3_1_1,n2819__1_3_1_1_4
n2820__1_3_1_1,n2820__1_3_1_1_4
n2821__1_3_1_1,n2821__1_3_1_1_4
n2824__1_3_1_1,n2824__1_3_1_1_4
n2825__1_3_1_1,n2825__1_3_1_1_4
n2826__1_3_1_1,n2826__1_3_1_1_4
n2828__1_3_1_1,n2828__1_3_1_1_4
n2829__1_3_1_1,n2829__1_3_1_1_4
n2830__1_3_1_1,n2830__1_3_1_1_4
n2831__1_3_1_1,n2831__1_3_1_1_4
n2833__1_3_1_1,n2833__1_3_1_1_4
n2834__1_3_1_1,n2834__1_3_1_1_4
n2835__1_3_1_1,n2835__1_3_1_1_4
n2838__1_3_1_1,n2838__1_3_1_1_4
n2840__1_3_1_1,n2840__1_3_1_1_4
n2842__1_3_1_1,n2842__1_3_1_1_4
n2844__1_3_1_1,n2844__1_3_1_1_4
n2847__1_3_1_1,n2847__1_3_1_1_4
n2848__1_3_1_1,n2848__1_3_1_1_4
n2851__1_3_1_1,n2851__1_3_1_1_4
n2852__1_3_1_1,n2852__1_3_1_1_4
n2853__1_3_1_1,n2853__1_3_1_1_4
n2856__1_3_1_1,n2856__1_3_1_1_4
n2859__1_3_1_1,n2859__1_3_1_1_4
n2860__1_3_1_1,n2860__1_3_1_1_4
n2863__1_3_1_1,n2863__1_3_1_1_4
n2864__1_3_1_1,n2864__1_3_1_1_4
n2865__1_3_1_1,n2865__1_3_1_1_4
n2866__1_3_1_1,n2866__1_3_1_1_4
n2867__1_3_1_1,n2867__1_3_1_1_4
n2868__1_3_1_1,n2868__1_3_1_1_4
n2869__1_3_1_1,n2869__1_3_1_1_4
n2870__1_3_1_1,n2870__1_3_1_1_4
n2872__1_3_1_1,n2872__1_3_1_1_4
n2874__1_3_1_1,n2874__1_3_1_1_4
n2875__1_3_1_1,n2875__1_3_1_1_4
n2878__1_3_1_1,n2878__1_3_1_1_4
n2880__1_3_1_1,n2880__1_3_1_1_4
n2882__1_3_1_1,n2882__1_3_1_1_4
n2884__1_3_1_1,n2884__1_3_1_1_4
n2886__1_3_1_1,n2886__1_3_1_1_4
n2887__1_3_1_1,n2887__1_3_1_1_4
n2889__1_3_1_1,n2889__1_3_1_1_4
n2893__1_3_1_1,n2893__1_3_1_1_4
n2894__1_3_1_1,n2894__1_3_1_1_4
n2899__1_3_1_1,n2899__1_3_1_1_4
n2901__1_3_1_1,n2901__1_3_1_1_4
n2902__1_3_1_1,n2902__1_3_1_1_4
n2904__1_3_1_1,n2904__1_3_1_1_4
n2908__1_3_1_1,n2908__1_3_1_1_4
n2909__1_3_1_1,n2909__1_3_1_1_4
n2910__1_3_1_1,n2910__1_3_1_1_4
n2916__1_3_1_1,n2916__1_3_1_1_4
n2917__1_3_1_1,n2917__1_3_1_1_4
n2918__1_3_1_1,n2918__1_3_1_1_4
n2920__1_3_1_1,n2920__1_3_1_1_4
n2922__1_3_1_1,n2922__1_3_1_1_4
n2926__1_3_1_1,n2926__1_3_1_1_4
n2928__1_3_1_1,n2928__1_3_1_1_4
n2929__1_3_1_1,n2929__1_3_1_1_4
n2930__1_3_1_1,n2930__1_3_1_1_4
n2931__1_3_1_1,n2931__1_3_1_1_4
n2932__1_3_1_1,n2932__1_3_1_1_4
n2934__1_3_1_1,n2934__1_3_1_1_4
n2937__1_3_1_1,n2937__1_3_1_1_4
n2942__1_3_1_1,n2942__1_3_1_1_4
n2945__1_3_1_1,n2945__1_3_1_1_4
n2946__1_3_1_1,n2946__1_3_1_1_4
n2947__1_3_1_1,n2947__1_3_1_1_4
n2949__1_3_1_1,n2949__1_3_1_1_4
n2950__1_3_1_1,n2950__1_3_1_1_4
n2952__1_3_1_1,n2952__1_3_1_1_4
n2953__1_3_1_1,n2953__1_3_1_1_4
n2954__1_3_1_1,n2954__1_3_1_1_4
n2959__1_3_1_1,n2959__1_3_1_1_4
n2962__1_3_1_1,n2962__1_3_1_1_4
n2963__1_3_1_1,n2963__1_3_1_1_4
n2964__1_3_1_1,n2964__1_3_1_1_4
n2970__1_3_1_1,n2970__1_3_1_1_4
n2971__1_3_1_1,n2971__1_3_1_1_4
n2972__1_3_1_1,n2972__1_3_1_1_4
n2975__1_3_1_1,n2975__1_3_1_1_4
n2978__1_3_1_1,n2978__1_3_1_1_4
n2982__1_3_1_1,n2982__1_3_1_1_4
n2983__1_3_1_1,n2983__1_3_1_1_4
n2984__1_3_1_1,n2984__1_3_1_1_4
n2985__1_3_1_1,n2985__1_3_1_1_4
n2987__1_3_1_1,n2987__1_3_1_1_4
n2989__1_3_1_1,n2989__1_3_1_1_4
n2990__1_3_1_1,n2990__1_3_1_1_4
n2991__1_3_1_1,n2991__1_3_1_1_4
n2992__1_3_1_1,n2992__1_3_1_1_4
n2996__1_3_1_1,n2996__1_3_1_1_4
n3000__1_3_1_1,n3000__1_3_1_1_4
n3002__1_3_1_1,n3002__1_3_1_1_4
n3005__1_3_1_1,n3005__1_3_1_1_4
n3007__1_3_1_1,n3007__1_3_1_1_4
n3009__1_3_1_1,n3009__1_3_1_1_4
n3012__1_3_1_1,n3012__1_3_1_1_4
n3013__1_3_1_1,n3013__1_3_1_1_4
n3015__1_3_1_1,n3015__1_3_1_1_4
n3016__1_3_1_1,n3016__1_3_1_1_4
n3020__1_3_1_1,n3020__1_3_1_1_4
n3022__1_3_1_1,n3022__1_3_1_1_4
n3024__1_3_1_1,n3024__1_3_1_1_4
n3025__1_3_1_1,n3025__1_3_1_1_4
n3028__1_3_1_1,n3028__1_3_1_1_4
n3029__1_3_1_1,n3029__1_3_1_1_4
n3032__1_3_1_1,n3032__1_3_1_1_4
n3033__1_3_1_1,n3033__1_3_1_1_4
n3034__1_3_1_1,n3034__1_3_1_1_4
n3037__1_3_1_1,n3037__1_3_1_1_4
n3039__1_3_1_1,n3039__1_3_1_1_4
n3040__1_3_1_1,n3040__1_3_1_1_4
n3044__1_3_1_1,n3044__1_3_1_1_4
n3050__1_3_1_1,n3050__1_3_1_1_4
n3051__1_3_1_1,n3051__1_3_1_1_4
n3052__1_3_1_1,n3052__1_3_1_1_4
n3053__1_3_1_1,n3053__1_3_1_1_4
n3054__1_3_1_1,n3054__1_3_1_1_4
n3061__1_3_1_1,n3061__1_3_1_1_4
n3062__1_3_1_1,n3062__1_3_1_1_4
n3067__1_3_1_1,n3067__1_3_1_1_4
n3068__1_3_1_1,n3068__1_3_1_1_4
n3072__1_3_1_1,n3072__1_3_1_1_4
n3073__1_3_1_1,n3073__1_3_1_1_4
n3074__1_3_1_1,n3074__1_3_1_1_4
n3077__1_3_1_1,n3077__1_3_1_1_4
n3078__1_3_1_1,n3078__1_3_1_1_4
n3080__1_3_1_1,n3080__1_3_1_1_4
n3083__1_3_1_1,n3083__1_3_1_1_4
n3084__1_3_1_1,n3084__1_3_1_1_4
n3085__1_3_1_1,n3085__1_3_1_1_4
n3091__1_3_1_1,n3091__1_3_1_1_4
n3092__1_3_1_1,n3092__1_3_1_1_4
n3093__1_3_1_1,n3093__1_3_1_1_4
n3096__1_3_1_1,n3096__1_3_1_1_4
n3100__1_3_1_1,n3100__1_3_1_1_4
n3103__1_3_1_1,n3103__1_3_1_1_4
n3105__1_3_1_1,n3105__1_3_1_1_4
n3108__1_3_1_1,n3108__1_3_1_1_4
n3109__1_3_1_1,n3109__1_3_1_1_4
n3111__1_3_1_1,n3111__1_3_1_1_4
n3112__1_3_1_1,n3112__1_3_1_1_4
n3113__1_3_1_1,n3113__1_3_1_1_4
n3116__1_3_1_1,n3116__1_3_1_1_4
n3117__1_3_1_1,n3117__1_3_1_1_4
n3118__1_3_1_1,n3118__1_3_1_1_4
n3119__1_3_1_1,n3119__1_3_1_1_4
n3120__1_3_1_1,n3120__1_3_1_1_4
n3124__1_3_1_1,n3124__1_3_1_1_4
n3127__1_3_1_1,n3127__1_3_1_1_4
n3132__1_3_1_1,n3132__1_3_1_1_4
n3135__1_3_1_1,n3135__1_3_1_1_4
n3137__1_3_1_1,n3137__1_3_1_1_4
n3138__1_3_1_1,n3138__1_3_1_1_4
n3142__1_3_1_1,n3142__1_3_1_1_4
n3143__1_3_1_1,n3143__1_3_1_1_4
n3145__1_3_1_1,n3145__1_3_1_1_4
n3147__1_3_1_1,n3147__1_3_1_1_4
n3148__1_3_1_1,n3148__1_3_1_1_4
n3150__1_3_1_1,n3150__1_3_1_1_4
n3153__1_3_1_1,n3153__1_3_1_1_4
n3154__1_3_1_1,n3154__1_3_1_1_4
n3158__1_3_1_1,n3158__1_3_1_1_4
n3159__1_3_1_1,n3159__1_3_1_1_4
n3164__1_3_1_1,n3164__1_3_1_1_4
n3165__1_3_1_1,n3165__1_3_1_1_4
n3169__1_3_1_1,n3169__1_3_1_1_4
n3170__1_3_1_1,n3170__1_3_1_1_4
n3171__1_3_1_1,n3171__1_3_1_1_4
n3174__1_3_1_1,n3174__1_3_1_1_4
n3179__1_3_1_1,n3179__1_3_1_1_4
n3181__1_3_1_1,n3181__1_3_1_1_4
n3182__1_3_1_1,n3182__1_3_1_1_4
n3183__1_3_1_1,n3183__1_3_1_1_4
n3184__1_3_1_1,n3184__1_3_1_1_4
n3187__1_3_1_1,n3187__1_3_1_1_4
n3190__1_3_1_1,n3190__1_3_1_1_4
n3191__1_3_1_1,n3191__1_3_1_1_4
n3192__1_3_1_1,n3192__1_3_1_1_4
n3193__1_3_1_1,n3193__1_3_1_1_4
n3194__1_3_1_1,n3194__1_3_1_1_4
n3195__1_3_1_1,n3195__1_3_1_1_4
n3196__1_3_1_1,n3196__1_3_1_1_4
n3199__1_3_1_1,n3199__1_3_1_1_4
n3200__1_3_1_1,n3200__1_3_1_1_4
n3202__1_3_1_1,n3202__1_3_1_1_4
n3204__1_3_1_1,n3204__1_3_1_1_4
n3207__1_3_1_1,n3207__1_3_1_1_4
n3209__1_3_1_1,n3209__1_3_1_1_4
n3210__1_3_1_1,n3210__1_3_1_1_4
n3211__1_3_1_1,n3211__1_3_1_1_4
n3212__1_3_1_1,n3212__1_3_1_1_4
n3214__1_3_1_1,n3214__1_3_1_1_4
n3215__1_3_1_1,n3215__1_3_1_1_4
n3216__1_3_1_1,n3216__1_3_1_1_4
n3217__1_3_1_1,n3217__1_3_1_1_4
n3219__1_3_1_1,n3219__1_3_1_1_4
n3220__1_3_1_1,n3220__1_3_1_1_4
n3221__1_3_1_1,n3221__1_3_1_1_4
n3224__1_3_1_1,n3224__1_3_1_1_4
n3228__1_3_1_1,n3228__1_3_1_1_4
n3233__1_3_1_1,n3233__1_3_1_1_4
n3234__1_3_1_1,n3234__1_3_1_1_4
n3240__1_3_1_1,n3240__1_3_1_1_4
n3242__1_3_1_1,n3242__1_3_1_1_4
n3243__1_3_1_1,n3243__1_3_1_1_4
n3245__1_3_1_1,n3245__1_3_1_1_4
n3249__1_3_1_1,n3249__1_3_1_1_4
n3252__1_3_1_1,n3252__1_3_1_1_4
n3254__1_3_1_1,n3254__1_3_1_1_4
n3255__1_3_1_1,n3255__1_3_1_1_4
n3256__1_3_1_1,n3256__1_3_1_1_4
n3257__1_3_1_1,n3257__1_3_1_1_4
n3258__1_3_1_1,n3258__1_3_1_1_4
n3261__1_3_1_1,n3261__1_3_1_1_4
n3262__1_3_1_1,n3262__1_3_1_1_4
n3264__1_3_1_1,n3264__1_3_1_1_4
n3265__1_3_1_1,n3265__1_3_1_1_4
n3266__1_3_1_1,n3266__1_3_1_1_4
n3270__1_3_1_1,n3270__1_3_1_1_4
n3273__1_3_1_1,n3273__1_3_1_1_4
n3275__1_3_1_1,n3275__1_3_1_1_4
n3279__1_3_1_1,n3279__1_3_1_1_4
n3280__1_3_1_1,n3280__1_3_1_1_4
n3281__1_3_1_1,n3281__1_3_1_1_4
n3283__1_3_1_1,n3283__1_3_1_1_4
n3287__1_3_1_1,n3287__1_3_1_1_4
n3288__1_3_1_1,n3288__1_3_1_1_4
n3290__1_3_1_1,n3290__1_3_1_1_4
n3291__1_3_1_1,n3291__1_3_1_1_4
n3292__1_3_1_1,n3292__1_3_1_1_4
n3293__1_3_1_1,n3293__1_3_1_1_4
n3296__1_3_1_1,n3296__1_3_1_1_4
n3297__1_3_1_1,n3297__1_3_1_1_4
n3298__1_3_1_1,n3298__1_3_1_1_4
n3301__1_3_1_1,n3301__1_3_1_1_4
n3302__1_3_1_1,n3302__1_3_1_1_4
n3303__1_3_1_1,n3303__1_3_1_1_4
n3304__1_3_1_1,n3304__1_3_1_1_4
n3307__1_3_1_1,n3307__1_3_1_1_4
n3308__1_3_1_1,n3308__1_3_1_1_4
n3311__1_3_1_1,n3311__1_3_1_1_4
n3314__1_3_1_1,n3314__1_3_1_1_4
n3315__1_3_1_1,n3315__1_3_1_1_4
n3316__1_3_1_1,n3316__1_3_1_1_4
n3320__1_3_1_1,n3320__1_3_1_1_4
n3323__1_3_1_1,n3323__1_3_1_1_4
n3325__1_3_1_1,n3325__1_3_1_1_4
n3327__1_3_1_1,n3327__1_3_1_1_4
n3329__1_3_1_1,n3329__1_3_1_1_4
n3330__1_3_1_1,n3330__1_3_1_1_4
n3331__1_3_1_1,n3331__1_3_1_1_4
n3333__1_3_1_1,n3333__1_3_1_1_4
n3335__1_3_1_1,n3335__1_3_1_1_4
n3336__1_3_1_1,n3336__1_3_1_1_4
n3337__1_3_1_1,n3337__1_3_1_1_4
n3338__1_3_1_1,n3338__1_3_1_1_4
n3339__1_3_1_1,n3339__1_3_1_1_4
n3341__1_3_1_1,n3341__1_3_1_1_4
n3343__1_3_1_1,n3343__1_3_1_1_4
n3350__1_3_1_1,n3350__1_3_1_1_4
n3351__1_3_1_1,n3351__1_3_1_1_4
n3353__1_3_1_1,n3353__1_3_1_1_4
n3355__1_3_1_1,n3355__1_3_1_1_4
n3356__1_3_1_1,n3356__1_3_1_1_4
n3358__1_3_1_1,n3358__1_3_1_1_4
n3359__1_3_1_1,n3359__1_3_1_1_4
n3360__1_3_1_1,n3360__1_3_1_1_4
n3362__1_3_1_1,n3362__1_3_1_1_4
n3363__1_3_1_1,n3363__1_3_1_1_4
n3364__1_3_1_1,n3364__1_3_1_1_4
n3367__1_3_1_1,n3367__1_3_1_1_4
n3368__1_3_1_1,n3368__1_3_1_1_4
n3370__1_3_1_1,n3370__1_3_1_1_4
n3371__1_3_1_1,n3371__1_3_1_1_4
n3373__1_3_1_1,n3373__1_3_1_1_4
n3381__1_3_1_1,n3381__1_3_1_1_4
n3382__1_3_1_1,n3382__1_3_1_1_4
n3388__1_3_1_1,n3388__1_3_1_1_4
n3390__1_3_1_1,n3390__1_3_1_1_4
n3391__1_3_1_1,n3391__1_3_1_1_4
n3393__1_3_1_1,n3393__1_3_1_1_4
n3395__1_3_1_1,n3395__1_3_1_1_4
n3396__1_3_1_1,n3396__1_3_1_1_4
n3398__1_3_1_1,n3398__1_3_1_1_4
n3399__1_3_1_1,n3399__1_3_1_1_4
n3401__1_3_1_1,n3401__1_3_1_1_4
n3402__1_3_1_1,n3402__1_3_1_1_4
n3404__1_3_1_1,n3404__1_3_1_1_4
n3405__1_3_1_1,n3405__1_3_1_1_4
n3407__1_3_1_1,n3407__1_3_1_1_4
n3410__1_3_1_1,n3410__1_3_1_1_4
n3411__1_3_1_1,n3411__1_3_1_1_4
n3413__1_3_1_1,n3413__1_3_1_1_4
n3415__1_3_1_1,n3415__1_3_1_1_4
n3416__1_3_1_1,n3416__1_3_1_1_4
n3418__1_3_1_1,n3418__1_3_1_1_4
n3420__1_3_1_1,n3420__1_3_1_1_4
n3421__1_3_1_1,n3421__1_3_1_1_4
n3424__1_3_1_1,n3424__1_3_1_1_4
n3425__1_3_1_1,n3425__1_3_1_1_4
n3427__1_3_1_1,n3427__1_3_1_1_4
n3428__1_3_1_1,n3428__1_3_1_1_4
n3430__1_3_1_1,n3430__1_3_1_1_4
n3434__1_3_1_1,n3434__1_3_1_1_4
n3436__1_3_1_1,n3436__1_3_1_1_4
n3440__1_3_1_1,n3440__1_3_1_1_4
n3442__1_3_1_1,n3442__1_3_1_1_4
n3446__1_3_1_1,n3446__1_3_1_1_4
n3447__1_3_1_1,n3447__1_3_1_1_4
n3450__1_3_1_1,n3450__1_3_1_1_4
n3452__1_3_1_1,n3452__1_3_1_1_4
n3456__1_3_1_1,n3456__1_3_1_1_4
n3458__1_3_1_1,n3458__1_3_1_1_4
n3459__1_3_1_1,n3459__1_3_1_1_4
n3461__1_3_1_1,n3461__1_3_1_1_4
n3465__1_3_1_1,n3465__1_3_1_1_4
n3466__1_3_1_1,n3466__1_3_1_1_4
n3467__1_3_1_1,n3467__1_3_1_1_4
n3469__1_3_1_1,n3469__1_3_1_1_4
n3474__1_3_1_1,n3474__1_3_1_1_4
n3475__1_3_1_1,n3475__1_3_1_1_4
n3478__1_3_1_1,n3478__1_3_1_1_4
n3480__1_3_1_1,n3480__1_3_1_1_4
n3482__1_3_1_1,n3482__1_3_1_1_4
n3484__1_3_1_1,n3484__1_3_1_1_4
n3485__1_3_1_1,n3485__1_3_1_1_4
n3487__1_3_1_1,n3487__1_3_1_1_4
n3492__1_3_1_1,n3492__1_3_1_1_4
n3494__1_3_1_1,n3494__1_3_1_1_4
n3497__1_3_1_1,n3497__1_3_1_1_4
n3499__1_3_1_1,n3499__1_3_1_1_4
n3500__1_3_1_1,n3500__1_3_1_1_4
n3502__1_3_1_1,n3502__1_3_1_1_4
n3504__1_3_1_1,n3504__1_3_1_1_4
n3505__1_3_1_1,n3505__1_3_1_1_4
n3507__1_3_1_1,n3507__1_3_1_1_4
n3509__1_3_1_1,n3509__1_3_1_1_4
n3512__1_3_1_1,n3512__1_3_1_1_4
n3514__1_3_1_1,n3514__1_3_1_1_4
n3516__1_3_1_1,n3516__1_3_1_1_4
n3518__1_3_1_1,n3518__1_3_1_1_4
n3521__1_3_1_1,n3521__1_3_1_1_4
n3526__1_3_1_1,n3526__1_3_1_1_4
n3527__1_3_1_1,n3527__1_3_1_1_4
n3528__1_3_1_1,n3528__1_3_1_1_4
n3532__1_3_1_1,n3532__1_3_1_1_4
n3535__1_3_1_1,n3535__1_3_1_1_4
n3536__1_3_1_1,n3536__1_3_1_1_4
n3537__1_3_1_1,n3537__1_3_1_1_4
n3539__1_3_1_1,n3539__1_3_1_1_4
n3541__1_3_1_1,n3541__1_3_1_1_4
n3542__1_3_1_1,n3542__1_3_1_1_4
n3543__1_3_1_1,n3543__1_3_1_1_4
n3545__1_3_1_1,n3545__1_3_1_1_4
n3546__1_3_1_1,n3546__1_3_1_1_4
n3548__1_3_1_1,n3548__1_3_1_1_4
n3551__1_3_1_1,n3551__1_3_1_1_4
n3553__1_3_1_1,n3553__1_3_1_1_4
n3556__1_3_1_1,n3556__1_3_1_1_4
n3557__1_3_1_1,n3557__1_3_1_1_4
n3558__1_3_1_1,n3558__1_3_1_1_4
n3559__1_3_1_1,n3559__1_3_1_1_4
n3560__1_3_1_1,n3560__1_3_1_1_4
n3562__1_3_1_1,n3562__1_3_1_1_4
n3563__1_3_1_1,n3563__1_3_1_1_4
n3564__1_3_1_1,n3564__1_3_1_1_4
n3566__1_3_1_1,n3566__1_3_1_1_4
n3567__1_3_1_1,n3567__1_3_1_1_4
n3569__1_3_1_1,n3569__1_3_1_1_4
n3571__1_3_1_1,n3571__1_3_1_1_4
n3572__1_3_1_1,n3572__1_3_1_1_4
n3573__1_3_1_1,n3573__1_3_1_1_4
n3575__1_3_1_1,n3575__1_3_1_1_4
n3577__1_3_1_1,n3577__1_3_1_1_4
n3579__1_3_1_1,n3579__1_3_1_1_4
n3580__1_3_1_1,n3580__1_3_1_1_4
n3581__1_3_1_1,n3581__1_3_1_1_4
n3582__1_3_1_1,n3582__1_3_1_1_4
n3583__1_3_1_1,n3583__1_3_1_1_4
n3584__1_3_1_1,n3584__1_3_1_1_4
n3588__1_3_1_1,n3588__1_3_1_1_4
n3590__1_3_1_1,n3590__1_3_1_1_4
n3596__1_3_1_1,n3596__1_3_1_1_4
n3601__1_3_1_1,n3601__1_3_1_1_4
n3606__1_3_1_1,n3606__1_3_1_1_4
n3610__1_3_1_1,n3610__1_3_1_1_4
n3612__1_3_1_1,n3612__1_3_1_1_4
n3613__1_3_1_1,n3613__1_3_1_1_4
n3614__1_3_1_1,n3614__1_3_1_1_4
n3616__1_3_1_1,n3616__1_3_1_1_4
n3617__1_3_1_1,n3617__1_3_1_1_4
n3618__1_3_1_1,n3618__1_3_1_1_4
n3621__1_3_1_1,n3621__1_3_1_1_4
n3623__1_3_1_1,n3623__1_3_1_1_4
n3626__1_3_1_1,n3626__1_3_1_1_4
n3627__1_3_1_1,n3627__1_3_1_1_4
n3630__1_3_1_1,n3630__1_3_1_1_4
n3631__1_3_1_1,n3631__1_3_1_1_4
n3632__1_3_1_1,n3632__1_3_1_1_4
n3634__1_3_1_1,n3634__1_3_1_1_4
n3635__1_3_1_1,n3635__1_3_1_1_4
n3638__1_3_1_1,n3638__1_3_1_1_4
n3641__1_3_1_1,n3641__1_3_1_1_4
n3642__1_3_1_1,n3642__1_3_1_1_4
n3644__1_3_1_1,n3644__1_3_1_1_4
n3646__1_3_1_1,n3646__1_3_1_1_4
n3647__1_3_1_1,n3647__1_3_1_1_4
n3648__1_3_1_1,n3648__1_3_1_1_4
n3649__1_3_1_1,n3649__1_3_1_1_4
n3650__1_3_1_1,n3650__1_3_1_1_4
n3651__1_3_1_1,n3651__1_3_1_1_4
n3652__1_3_1_1,n3652__1_3_1_1_4
n3653__1_3_1_1,n3653__1_3_1_1_4
n3654__1_3_1_1,n3654__1_3_1_1_4
n3657__1_3_1_1,n3657__1_3_1_1_4
n3659__1_3_1_1,n3659__1_3_1_1_4
n3661__1_3_1_1,n3661__1_3_1_1_4
n3662__1_3_1_1,n3662__1_3_1_1_4
n3665__1_3_1_1,n3665__1_3_1_1_4
n3668__1_3_1_1,n3668__1_3_1_1_4
n3671__1_3_1_1,n3671__1_3_1_1_4
n3672__1_3_1_1,n3672__1_3_1_1_4
n3673__1_3_1_1,n3673__1_3_1_1_4
n3674__1_3_1_1,n3674__1_3_1_1_4
n3676__1_3_1_1,n3676__1_3_1_1_4
n3677__1_3_1_1,n3677__1_3_1_1_4
n3681__1_3_1_1,n3681__1_3_1_1_4
n3682__1_3_1_1,n3682__1_3_1_1_4
n3683__1_3_1_1,n3683__1_3_1_1_4
n3684__1_3_1_1,n3684__1_3_1_1_4
n3685__1_3_1_1,n3685__1_3_1_1_4
n3688__1_3_1_1,n3688__1_3_1_1_4
n3692__1_3_1_1,n3692__1_3_1_1_4
n3693__1_3_1_1,n3693__1_3_1_1_4
n3695__1_3_1_1,n3695__1_3_1_1_4
n3697__1_3_1_1,n3697__1_3_1_1_4
n3698__1_3_1_1,n3698__1_3_1_1_4
n3699__1_3_1_1,n3699__1_3_1_1_4
n3701__1_3_1_1,n3701__1_3_1_1_4
n3702__1_3_1_1,n3702__1_3_1_1_4
n3703__1_3_1_1,n3703__1_3_1_1_4
n3704__1_3_1_1,n3704__1_3_1_1_4
n3707__1_3_1_1,n3707__1_3_1_1_4
n3708__1_3_1_1,n3708__1_3_1_1_4
n3709__1_3_1_1,n3709__1_3_1_1_4
n3710__1_3_1_1,n3710__1_3_1_1_4
n3713__1_3_1_1,n3713__1_3_1_1_4
n3715__1_3_1_1,n3715__1_3_1_1_4
n3717__1_3_1_1,n3717__1_3_1_1_4
n3718__1_3_1_1,n3718__1_3_1_1_4
n3719__1_3_1_1,n3719__1_3_1_1_4
n3721__1_3_1_1,n3721__1_3_1_1_4
n3722__1_3_1_1,n3722__1_3_1_1_4
n3723__1_3_1_1,n3723__1_3_1_1_4
n3727__1_3_1_1,n3727__1_3_1_1_4
n3728__1_3_1_1,n3728__1_3_1_1_4
n3729__1_3_1_1,n3729__1_3_1_1_4
n3730__1_3_1_1,n3730__1_3_1_1_4
n3731__1_3_1_1,n3731__1_3_1_1_4
n3736__1_3_1_1,n3736__1_3_1_1_4
n3737__1_3_1_1,n3737__1_3_1_1_4
n3738__1_3_1_1,n3738__1_3_1_1_4
n3739__1_3_1_1,n3739__1_3_1_1_4
n3742__1_3_1_1,n3742__1_3_1_1_4
n3743__1_3_1_1,n3743__1_3_1_1_4
n3745__1_3_1_1,n3745__1_3_1_1_4
n3746__1_3_1_1,n3746__1_3_1_1_4
n3747__1_3_1_1,n3747__1_3_1_1_4
n3748__1_3_1_1,n3748__1_3_1_1_4
n3750__1_3_1_1,n3750__1_3_1_1_4
n3752__1_3_1_1,n3752__1_3_1_1_4
n3759__1_3_1_1,n3759__1_3_1_1_4
n3762__1_3_1_1,n3762__1_3_1_1_4
n3765__1_3_1_1,n3765__1_3_1_1_4
n3767__1_3_1_1,n3767__1_3_1_1_4
n3769__1_3_1_1,n3769__1_3_1_1_4
n3770__1_3_1_1,n3770__1_3_1_1_4
n3774__1_3_1_1,n3774__1_3_1_1_4
n3776__1_3_1_1,n3776__1_3_1_1_4
n3779__1_3_1_1,n3779__1_3_1_1_4
n3780__1_3_1_1,n3780__1_3_1_1_4
n3782__1_3_1_1,n3782__1_3_1_1_4
n3786__1_3_1_1,n3786__1_3_1_1_4
n3788__1_3_1_1,n3788__1_3_1_1_4
n3795__1_3_1_1,n3795__1_3_1_1_4
n3796__1_3_1_1,n3796__1_3_1_1_4
n3797__1_3_1_1,n3797__1_3_1_1_4
n3799__1_3_1_1,n3799__1_3_1_1_4
n3800__1_3_1_1,n3800__1_3_1_1_4
n3802__1_3_1_1,n3802__1_3_1_1_4
n3803__1_3_1_1,n3803__1_3_1_1_4
n3804__1_3_1_1,n3804__1_3_1_1_4
n3805__1_3_1_1,n3805__1_3_1_1_4
n3807__1_3_1_1,n3807__1_3_1_1_4
n3809__1_3_1_1,n3809__1_3_1_1_4
n3811__1_3_1_1,n3811__1_3_1_1_4
n3813__1_3_1_1,n3813__1_3_1_1_4
n3815__1_3_1_1,n3815__1_3_1_1_4
n3817__1_3_1_1,n3817__1_3_1_1_4
n3818__1_3_1_1,n3818__1_3_1_1_4
n3819__1_3_1_1,n3819__1_3_1_1_4
n3822__1_3_1_1,n3822__1_3_1_1_4
n3823__1_3_1_1,n3823__1_3_1_1_4
n3825__1_3_1_1,n3825__1_3_1_1_4
n3826__1_3_1_1,n3826__1_3_1_1_4
n3827__1_3_1_1,n3827__1_3_1_1_4
n3828__1_3_1_1,n3828__1_3_1_1_4
n3829__1_3_1_1,n3829__1_3_1_1_4
n3830__1_3_1_1,n3830__1_3_1_1_4
n3831__1_3_1_1,n3831__1_3_1_1_4
n3836__1_3_1_1,n3836__1_3_1_1_4
n3837__1_3_1_1,n3837__1_3_1_1_4
n3840__1_3_1_1,n3840__1_3_1_1_4
n3843__1_3_1_1,n3843__1_3_1_1_4
n3845__1_3_1_1,n3845__1_3_1_1_4
n3846__1_3_1_1,n3846__1_3_1_1_4
n3847__1_3_1_1,n3847__1_3_1_1_4
n3848__1_3_1_1,n3848__1_3_1_1_4
n3849__1_3_1_1,n3849__1_3_1_1_4
n3855__1_3_1_1,n3855__1_3_1_1_4
n3856__1_3_1_1,n3856__1_3_1_1_4
n3857__1_3_1_1,n3857__1_3_1_1_4
n3859__1_3_1_1,n3859__1_3_1_1_4
n3865__1_3_1_1,n3865__1_3_1_1_4
n3866__1_3_1_1,n3866__1_3_1_1_4
n3867__1_3_1_1,n3867__1_3_1_1_4
n3870__1_3_1_1,n3870__1_3_1_1_4
n3873__1_3_1_1,n3873__1_3_1_1_4
n3874__1_3_1_1,n3874__1_3_1_1_4
n3876__1_3_1_1,n3876__1_3_1_1_4
n3877__1_3_1_1,n3877__1_3_1_1_4
n3878__1_3_1_1,n3878__1_3_1_1_4
n3879__1_3_1_1,n3879__1_3_1_1_4
n3881__1_3_1_1,n3881__1_3_1_1_4
n3882__1_3_1_1,n3882__1_3_1_1_4
n3883__1_3_1_1,n3883__1_3_1_1_4
n3884__1_3_1_1,n3884__1_3_1_1_4
n3887__1_3_1_1,n3887__1_3_1_1_4
n3890__1_3_1_1,n3890__1_3_1_1_4
n3892__1_3_1_1,n3892__1_3_1_1_4
n3895__1_3_1_1,n3895__1_3_1_1_4
n3899__1_3_1_1,n3899__1_3_1_1_4
n3901__1_3_1_1,n3901__1_3_1_1_4
n3902__1_3_1_1,n3902__1_3_1_1_4
n3905__1_3_1_1,n3905__1_3_1_1_4
n3907__1_3_1_1,n3907__1_3_1_1_4
n3908__1_3_1_1,n3908__1_3_1_1_4
n3909__1_3_1_1,n3909__1_3_1_1_4
n3910__1_3_1_1,n3910__1_3_1_1_4
n3912__1_3_1_1,n3912__1_3_1_1_4
n3913__1_3_1_1,n3913__1_3_1_1_4
n3914__1_3_1_1,n3914__1_3_1_1_4
n3916__1_3_1_1,n3916__1_3_1_1_4
n3918__1_3_1_1,n3918__1_3_1_1_4
n3919__1_3_1_1,n3919__1_3_1_1_4
n3921__1_3_1_1,n3921__1_3_1_1_4
n3923__1_3_1_1,n3923__1_3_1_1_4
n3924__1_3_1_1,n3924__1_3_1_1_4
n3927__1_3_1_1,n3927__1_3_1_1_4
n3932__1_3_1_1,n3932__1_3_1_1_4
n3934__1_3_1_1,n3934__1_3_1_1_4
n3937__1_3_1_1,n3937__1_3_1_1_4
n3938__1_3_1_1,n3938__1_3_1_1_4
n3940__1_3_1_1,n3940__1_3_1_1_4
n3943__1_3_1_1,n3943__1_3_1_1_4
n3944__1_3_1_1,n3944__1_3_1_1_4
n3945__1_3_1_1,n3945__1_3_1_1_4
n3951__1_3_1_1,n3951__1_3_1_1_4
n3952__1_3_1_1,n3952__1_3_1_1_4
n3953__1_3_1_1,n3953__1_3_1_1_4
n3954__1_3_1_1,n3954__1_3_1_1_4
n3955__1_3_1_1,n3955__1_3_1_1_4
n3958__1_3_1_1,n3958__1_3_1_1_4
n3959__1_3_1_1,n3959__1_3_1_1_4
n3961__1_3_1_1,n3961__1_3_1_1_4
n3963__1_3_1_1,n3963__1_3_1_1_4
n3964__1_3_1_1,n3964__1_3_1_1_4
n3966__1_3_1_1,n3966__1_3_1_1_4
n3967__1_3_1_1,n3967__1_3_1_1_4
n3970__1_3_1_1,n3970__1_3_1_1_4
n3971__1_3_1_1,n3971__1_3_1_1_4
n3972__1_3_1_1,n3972__1_3_1_1_4
n3976__1_3_1_1,n3976__1_3_1_1_4
n3978__1_3_1_1,n3978__1_3_1_1_4
n3980__1_3_1_1,n3980__1_3_1_1_4
n3982__1_3_1_1,n3982__1_3_1_1_4
n3984__1_3_1_1,n3984__1_3_1_1_4
n3985__1_3_1_1,n3985__1_3_1_1_4
n3986__1_3_1_1,n3986__1_3_1_1_4
n3990__1_3_1_1,n3990__1_3_1_1_4
n3992__1_3_1_1,n3992__1_3_1_1_4
n3994__1_3_1_1,n3994__1_3_1_1_4
n3996__1_3_1_1,n3996__1_3_1_1_4
n3998__1_3_1_1,n3998__1_3_1_1_4
n4001__1_3_1_1,n4001__1_3_1_1_4
n4004__1_3_1_1,n4004__1_3_1_1_4
n4006__1_3_1_1,n4006__1_3_1_1_4
n4007__1_3_1_1,n4007__1_3_1_1_4
n4009__1_3_1_1,n4009__1_3_1_1_4
n4010__1_3_1_1,n4010__1_3_1_1_4
n4013__1_3_1_1,n4013__1_3_1_1_4
n4014__1_3_1_1,n4014__1_3_1_1_4
n4015__1_3_1_1,n4015__1_3_1_1_4
n4018__1_3_1_1,n4018__1_3_1_1_4
n4020__1_3_1_1,n4020__1_3_1_1_4
n4022__1_3_1_1,n4022__1_3_1_1_4
n4024__1_3_1_1,n4024__1_3_1_1_4
n4025__1_3_1_1,n4025__1_3_1_1_4
n4026__1_3_1_1,n4026__1_3_1_1_4
n4028__1_3_1_1,n4028__1_3_1_1_4
n4030__1_3_1_1,n4030__1_3_1_1_4
n4032__1_3_1_1,n4032__1_3_1_1_4
n4035__1_3_1_1,n4035__1_3_1_1_4
n4036__1_3_1_1,n4036__1_3_1_1_4
n4038__1_3_1_1,n4038__1_3_1_1_4
n4039__1_3_1_1,n4039__1_3_1_1_4
n4040__1_3_1_1,n4040__1_3_1_1_4
n4042__1_3_1_1,n4042__1_3_1_1_4
n4044__1_3_1_1,n4044__1_3_1_1_4
n4047__1_3_1_1,n4047__1_3_1_1_4
n4048__1_3_1_1,n4048__1_3_1_1_4
n4051__1_3_1_1,n4051__1_3_1_1_4
n4052__1_3_1_1,n4052__1_3_1_1_4
n4054__1_3_1_1,n4054__1_3_1_1_4
n4055__1_3_1_1,n4055__1_3_1_1_4
n4057__1_3_1_1,n4057__1_3_1_1_4
n4058__1_3_1_1,n4058__1_3_1_1_4
n4060__1_3_1_1,n4060__1_3_1_1_4
n4061__1_3_1_1,n4061__1_3_1_1_4
n4065__1_3_1_1,n4065__1_3_1_1_4
n4068__1_3_1_1,n4068__1_3_1_1_4
n4072__1_3_1_1,n4072__1_3_1_1_4
n4073__1_3_1_1,n4073__1_3_1_1_4
n4075__1_3_1_1,n4075__1_3_1_1_4
n4076__1_3_1_1,n4076__1_3_1_1_4
n4078__1_3_1_1,n4078__1_3_1_1_4
n4080__1_3_1_1,n4080__1_3_1_1_4
n4081__1_3_1_1,n4081__1_3_1_1_4
n4082__1_3_1_1,n4082__1_3_1_1_4
n4085__1_3_1_1,n4085__1_3_1_1_4
n4086__1_3_1_1,n4086__1_3_1_1_4
n4087__1_3_1_1,n4087__1_3_1_1_4
n4089__1_3_1_1,n4089__1_3_1_1_4
n4090__1_3_1_1,n4090__1_3_1_1_4
n4091__1_3_1_1,n4091__1_3_1_1_4
n4095__1_3_1_1,n4095__1_3_1_1_4
n4096__1_3_1_1,n4096__1_3_1_1_4
n4102__1_3_1_1,n4102__1_3_1_1_4
n4103__1_3_1_1,n4103__1_3_1_1_4
n4108__1_3_1_1,n4108__1_3_1_1_4
n4109__1_3_1_1,n4109__1_3_1_1_4
n4113__1_3_1_1,n4113__1_3_1_1_4
n4115__1_3_1_1,n4115__1_3_1_1_4
n4117__1_3_1_1,n4117__1_3_1_1_4
n4118__1_3_1_1,n4118__1_3_1_1_4
n4119__1_3_1_1,n4119__1_3_1_1_4
n4121__1_3_1_1,n4121__1_3_1_1_4
n4123__1_3_1_1,n4123__1_3_1_1_4
n4124__1_3_1_1,n4124__1_3_1_1_4
n4125__1_3_1_1,n4125__1_3_1_1_4
n4126__1_3_1_1,n4126__1_3_1_1_4
n4127__1_3_1_1,n4127__1_3_1_1_4
n4128__1_3_1_1,n4128__1_3_1_1_4
n4131__1_3_1_1,n4131__1_3_1_1_4
n4132__1_3_1_1,n4132__1_3_1_1_4
n4133__1_3_1_1,n4133__1_3_1_1_4
n4134__1_3_1_1,n4134__1_3_1_1_4
n4136__1_3_1_1,n4136__1_3_1_1_4
n4137__1_3_1_1,n4137__1_3_1_1_4
n4140__1_3_1_1,n4140__1_3_1_1_4
n4142__1_3_1_1,n4142__1_3_1_1_4
n4143__1_3_1_1,n4143__1_3_1_1_4
n4144__1_3_1_1,n4144__1_3_1_1_4
n4145__1_3_1_1,n4145__1_3_1_1_4
n4146__1_3_1_1,n4146__1_3_1_1_4
n4151__1_3_1_1,n4151__1_3_1_1_4
n4153__1_3_1_1,n4153__1_3_1_1_4
n4156__1_3_1_1,n4156__1_3_1_1_4
n4160__1_3_1_1,n4160__1_3_1_1_4
n4163__1_3_1_1,n4163__1_3_1_1_4
n4165__1_3_1_1,n4165__1_3_1_1_4
n4168__1_3_1_1,n4168__1_3_1_1_4
n4169__1_3_1_1,n4169__1_3_1_1_4
n4170__1_3_1_1,n4170__1_3_1_1_4
n4173__1_3_1_1,n4173__1_3_1_1_4
n4175__1_3_1_1,n4175__1_3_1_1_4
n4176__1_3_1_1,n4176__1_3_1_1_4
n4177__1_3_1_1,n4177__1_3_1_1_4
n4182__1_3_1_1,n4182__1_3_1_1_4
n4186__1_3_1_1,n4186__1_3_1_1_4
n4190__1_3_1_1,n4190__1_3_1_1_4
n4191__1_3_1_1,n4191__1_3_1_1_4
n4193__1_3_1_1,n4193__1_3_1_1_4
n4199__1_3_1_1,n4199__1_3_1_1_4
n4200__1_3_1_1,n4200__1_3_1_1_4
n4203__1_3_1_1,n4203__1_3_1_1_4
n4206__1_3_1_1,n4206__1_3_1_1_4
n4207__1_3_1_1,n4207__1_3_1_1_4
n4208__1_3_1_1,n4208__1_3_1_1_4
n4211__1_3_1_1,n4211__1_3_1_1_4
n4212__1_3_1_1,n4212__1_3_1_1_4
n4217__1_3_1_1,n4217__1_3_1_1_4
n4220__1_3_1_1,n4220__1_3_1_1_4
n4221__1_3_1_1,n4221__1_3_1_1_4
n4223__1_3_1_1,n4223__1_3_1_1_4
n4225__1_3_1_1,n4225__1_3_1_1_4
n4231__1_3_1_1,n4231__1_3_1_1_4
n4234__1_3_1_1,n4234__1_3_1_1_4
n4235__1_3_1_1,n4235__1_3_1_1_4
n4236__1_3_1_1,n4236__1_3_1_1_4
n4237__1_3_1_1,n4237__1_3_1_1_4
n4239__1_3_1_1,n4239__1_3_1_1_4
n4240__1_3_1_1,n4240__1_3_1_1_4
n4243__1_3_1_1,n4243__1_3_1_1_4
n4245__1_3_1_1,n4245__1_3_1_1_4
n4250__1_3_1_1,n4250__1_3_1_1_4
n4251__1_3_1_1,n4251__1_3_1_1_4
n4256__1_3_1_1,n4256__1_3_1_1_4
n4257__1_3_1_1,n4257__1_3_1_1_4
n4260__1_3_1_1,n4260__1_3_1_1_4
n4261__1_3_1_1,n4261__1_3_1_1_4
n4263__1_3_1_1,n4263__1_3_1_1_4
n4264__1_3_1_1,n4264__1_3_1_1_4
n4265__1_3_1_1,n4265__1_3_1_1_4
n4267__1_3_1_1,n4267__1_3_1_1_4
n4271__1_3_1_1,n4271__1_3_1_1_4
n4273__1_3_1_1,n4273__1_3_1_1_4
n4274__1_3_1_1,n4274__1_3_1_1_4
n4277__1_3_1_1,n4277__1_3_1_1_4
n4280__1_3_1_1,n4280__1_3_1_1_4
n4281__1_3_1_1,n4281__1_3_1_1_4
n4285__1_3_1_1,n4285__1_3_1_1_4
n4288__1_3_1_1,n4288__1_3_1_1_4
n4290__1_3_1_1,n4290__1_3_1_1_4
n4291__1_3_1_1,n4291__1_3_1_1_4
n4292__1_3_1_1,n4292__1_3_1_1_4
n4293__1_3_1_1,n4293__1_3_1_1_4
n4294__1_3_1_1,n4294__1_3_1_1_4
n4295__1_3_1_1,n4295__1_3_1_1_4
n4298__1_3_1_1,n4298__1_3_1_1_4
n4302__1_3_1_1,n4302__1_3_1_1_4
n4305__1_3_1_1,n4305__1_3_1_1_4
n4306__1_3_1_1,n4306__1_3_1_1_4
n4308__1_3_1_1,n4308__1_3_1_1_4
n4309__1_3_1_1,n4309__1_3_1_1_4
n4311__1_3_1_1,n4311__1_3_1_1_4
n4313__1_3_1_1,n4313__1_3_1_1_4
n4314__1_3_1_1,n4314__1_3_1_1_4
n4318__1_3_1_1,n4318__1_3_1_1_4
n4321__1_3_1_1,n4321__1_3_1_1_4
n4322__1_3_1_1,n4322__1_3_1_1_4
n4323__1_3_1_1,n4323__1_3_1_1_4
n4324__1_3_1_1,n4324__1_3_1_1_4
n4325__1_3_1_1,n4325__1_3_1_1_4
n4326__1_3_1_1,n4326__1_3_1_1_4
n4327__1_3_1_1,n4327__1_3_1_1_4
n4328__1_3_1_1,n4328__1_3_1_1_4
n4330__1_3_1_1,n4330__1_3_1_1_4
n4333__1_3_1_1,n4333__1_3_1_1_4
n4336__1_3_1_1,n4336__1_3_1_1_4
n4338__1_3_1_1,n4338__1_3_1_1_4
n4340__1_3_1_1,n4340__1_3_1_1_4
n4341__1_3_1_1,n4341__1_3_1_1_4
n4343__1_3_1_1,n4343__1_3_1_1_4
n4344__1_3_1_1,n4344__1_3_1_1_4
n4345__1_3_1_1,n4345__1_3_1_1_4
n4346__1_3_1_1,n4346__1_3_1_1_4
n4348__1_3_1_1,n4348__1_3_1_1_4
n4351__1_3_1_1,n4351__1_3_1_1_4
n4352__1_3_1_1,n4352__1_3_1_1_4
n4355__1_3_1_1,n4355__1_3_1_1_4
n4360__1_3_1_1,n4360__1_3_1_1_4
n4362__1_3_1_1,n4362__1_3_1_1_4
n4364__1_3_1_1,n4364__1_3_1_1_4
n4365__1_3_1_1,n4365__1_3_1_1_4
n4370__1_3_1_1,n4370__1_3_1_1_4
n4371__1_3_1_1,n4371__1_3_1_1_4
n4375__1_3_1_1,n4375__1_3_1_1_4
n4381__1_3_1_1,n4381__1_3_1_1_4
n4384__1_3_1_1,n4384__1_3_1_1_4
n4385__1_3_1_1,n4385__1_3_1_1_4
n4386__1_3_1_1,n4386__1_3_1_1_4
n4387__1_3_1_1,n4387__1_3_1_1_4
n4388__1_3_1_1,n4388__1_3_1_1_4
n4390__1_3_1_1,n4390__1_3_1_1_4
n4391__1_3_1_1,n4391__1_3_1_1_4
n4394__1_3_1_1,n4394__1_3_1_1_4
n4395__1_3_1_1,n4395__1_3_1_1_4
n4399__1_3_1_1,n4399__1_3_1_1_4
n4400__1_3_1_1,n4400__1_3_1_1_4
n4402__1_3_1_1,n4402__1_3_1_1_4
n4404__1_3_1_1,n4404__1_3_1_1_4
n4405__1_3_1_1,n4405__1_3_1_1_4
n4406__1_3_1_1,n4406__1_3_1_1_4
n4407__1_3_1_1,n4407__1_3_1_1_4
n4410__1_3_1_1,n4410__1_3_1_1_4
n4414__1_3_1_1,n4414__1_3_1_1_4
n4417__1_3_1_1,n4417__1_3_1_1_4
n4419__1_3_1_1,n4419__1_3_1_1_4
n4420__1_3_1_1,n4420__1_3_1_1_4
n4425__1_3_1_1,n4425__1_3_1_1_4
n4427__1_3_1_1,n4427__1_3_1_1_4
n4429__1_3_1_1,n4429__1_3_1_1_4
n4433__1_3_1_1,n4433__1_3_1_1_4
n4437__1_3_1_1,n4437__1_3_1_1_4
n4439__1_3_1_1,n4439__1_3_1_1_4
n4440__1_3_1_1,n4440__1_3_1_1_4
n4442__1_3_1_1,n4442__1_3_1_1_4
n4445__1_3_1_1,n4445__1_3_1_1_4
n4448__1_3_1_1,n4448__1_3_1_1_4
n4451__1_3_1_1,n4451__1_3_1_1_4
n4453__1_3_1_1,n4453__1_3_1_1_4
n4456__1_3_1_1,n4456__1_3_1_1_4
n4457__1_3_1_1,n4457__1_3_1_1_4
n4459__1_3_1_1,n4459__1_3_1_1_4
n4460__1_3_1_1,n4460__1_3_1_1_4
n4461__1_3_1_1,n4461__1_3_1_1_4
n4464__1_3_1_1,n4464__1_3_1_1_4
n4465__1_3_1_1,n4465__1_3_1_1_4
n4466__1_3_1_1,n4466__1_3_1_1_4
n4467__1_3_1_1,n4467__1_3_1_1_4
n4468__1_3_1_1,n4468__1_3_1_1_4
n4469__1_3_1_1,n4469__1_3_1_1_4
n4471__1_3_1_1,n4471__1_3_1_1_4
n4476__1_3_1_1,n4476__1_3_1_1_4
n4478__1_3_1_1,n4478__1_3_1_1_4
n4482__1_3_1_1,n4482__1_3_1_1_4
n4485__1_3_1_1,n4485__1_3_1_1_4
n4487__1_3_1_1,n4487__1_3_1_1_4
n4491__1_3_1_1,n4491__1_3_1_1_4
n4494__1_3_1_1,n4494__1_3_1_1_4
n4496__1_3_1_1,n4496__1_3_1_1_4
n4498__1_3_1_1,n4498__1_3_1_1_4
n4499__1_3_1_1,n4499__1_3_1_1_4
n4501__1_3_1_1,n4501__1_3_1_1_4
n4502__1_3_1_1,n4502__1_3_1_1_4
n4506__1_3_1_1,n4506__1_3_1_1_4
n4508__1_3_1_1,n4508__1_3_1_1_4
n4511__1_3_1_1,n4511__1_3_1_1_4
n4513__1_3_1_1,n4513__1_3_1_1_4
n4515__1_3_1_1,n4515__1_3_1_1_4
n4517__1_3_1_1,n4517__1_3_1_1_4
n4518__1_3_1_1,n4518__1_3_1_1_4
n4521__1_3_1_1,n4521__1_3_1_1_4
n4522__1_3_1_1,n4522__1_3_1_1_4
n4523__1_3_1_1,n4523__1_3_1_1_4
n4524__1_3_1_1,n4524__1_3_1_1_4
n4525__1_3_1_1,n4525__1_3_1_1_4
n4527__1_3_1_1,n4527__1_3_1_1_4
n4529__1_3_1_1,n4529__1_3_1_1_4
n4530__1_3_1_1,n4530__1_3_1_1_4
n4534__1_3_1_1,n4534__1_3_1_1_4
n4535__1_3_1_1,n4535__1_3_1_1_4
n4538__1_3_1_1,n4538__1_3_1_1_4
n4542__1_3_1_1,n4542__1_3_1_1_4
n4547__1_3_1_1,n4547__1_3_1_1_4
n4548__1_3_1_1,n4548__1_3_1_1_4
n4549__1_3_1_1,n4549__1_3_1_1_4
n4552__1_3_1_1,n4552__1_3_1_1_4
n4556__1_3_1_1,n4556__1_3_1_1_4
n4557__1_3_1_1,n4557__1_3_1_1_4
n4558__1_3_1_1,n4558__1_3_1_1_4
n4563__1_3_1_1,n4563__1_3_1_1_4
n4566__1_3_1_1,n4566__1_3_1_1_4
n4567__1_3_1_1,n4567__1_3_1_1_4
n4568__1_3_1_1,n4568__1_3_1_1_4
n4569__1_3_1_1,n4569__1_3_1_1_4
n4573__1_3_1_1,n4573__1_3_1_1_4
n4575__1_3_1_1,n4575__1_3_1_1_4
n4580__1_3_1_1,n4580__1_3_1_1_4
n4582__1_3_1_1,n4582__1_3_1_1_4
n4583__1_3_1_1,n4583__1_3_1_1_4
n4584__1_3_1_1,n4584__1_3_1_1_4
n4585__1_3_1_1,n4585__1_3_1_1_4
n4586__1_3_1_1,n4586__1_3_1_1_4
n4588__1_3_1_1,n4588__1_3_1_1_4
n4589__1_3_1_1,n4589__1_3_1_1_4
n4590__1_3_1_1,n4590__1_3_1_1_4
n4591__1_3_1_1,n4591__1_3_1_1_4
n4595__1_3_1_1,n4595__1_3_1_1_4
n4598__1_3_1_1,n4598__1_3_1_1_4
n4599__1_3_1_1,n4599__1_3_1_1_4
n4600__1_3_1_1,n4600__1_3_1_1_4
n4601__1_3_1_1,n4601__1_3_1_1_4
n4602__1_3_1_1,n4602__1_3_1_1_4
n4603__1_3_1_1,n4603__1_3_1_1_4
n4604__1_3_1_1,n4604__1_3_1_1_4
n4605__1_3_1_1,n4605__1_3_1_1_4
n4607__1_3_1_1,n4607__1_3_1_1_4
n4608__1_3_1_1,n4608__1_3_1_1_4
n4610__1_3_1_1,n4610__1_3_1_1_4
n4613__1_3_1_1,n4613__1_3_1_1_4
n4616__1_3_1_1,n4616__1_3_1_1_4
n4619__1_3_1_1,n4619__1_3_1_1_4
n4620__1_3_1_1,n4620__1_3_1_1_4
n4624__1_3_1_1,n4624__1_3_1_1_4
n4625__1_3_1_1,n4625__1_3_1_1_4
n4627__1_3_1_1,n4627__1_3_1_1_4
n4628__1_3_1_1,n4628__1_3_1_1_4
n4630__1_3_1_1,n4630__1_3_1_1_4
n4632__1_3_1_1,n4632__1_3_1_1_4
n4637__1_3_1_1,n4637__1_3_1_1_4
n4639__1_3_1_1,n4639__1_3_1_1_4
n4642__1_3_1_1,n4642__1_3_1_1_4
n4643__1_3_1_1,n4643__1_3_1_1_4
n4645__1_3_1_1,n4645__1_3_1_1_4
n4648__1_3_1_1,n4648__1_3_1_1_4
n4649__1_3_1_1,n4649__1_3_1_1_4
n4651__1_3_1_1,n4651__1_3_1_1_4
n4652__1_3_1_1,n4652__1_3_1_1_4
n4659__1_3_1_1,n4659__1_3_1_1_4
n4661__1_3_1_1,n4661__1_3_1_1_4
n4667__1_3_1_1,n4667__1_3_1_1_4
n4669__1_3_1_1,n4669__1_3_1_1_4
n4672__1_3_1_1,n4672__1_3_1_1_4
n4673__1_3_1_1,n4673__1_3_1_1_4
n4677__1_3_1_1,n4677__1_3_1_1_4
n4678__1_3_1_1,n4678__1_3_1_1_4
n4686__1_3_1_1,n4686__1_3_1_1_4
n4688__1_3_1_1,n4688__1_3_1_1_4
n4693__1_3_1_1,n4693__1_3_1_1_4
n4694__1_3_1_1,n4694__1_3_1_1_4
n4695__1_3_1_1,n4695__1_3_1_1_4
n4696__1_3_1_1,n4696__1_3_1_1_4
n4697__1_3_1_1,n4697__1_3_1_1_4
n4702__1_3_1_1,n4702__1_3_1_1_4
n4703__1_3_1_1,n4703__1_3_1_1_4
n4706__1_3_1_1,n4706__1_3_1_1_4
n4710__1_3_1_1,n4710__1_3_1_1_4
n4713__1_3_1_1,n4713__1_3_1_1_4
n4716__1_3_1_1,n4716__1_3_1_1_4
n4719__1_3_1_1,n4719__1_3_1_1_4
n4720__1_3_1_1,n4720__1_3_1_1_4
n4722__1_3_1_1,n4722__1_3_1_1_4
n4726__1_3_1_1,n4726__1_3_1_1_4
n4731__1_3_1_1,n4731__1_3_1_1_4
n4732__1_3_1_1,n4732__1_3_1_1_4
n4736__1_3_1_1,n4736__1_3_1_1_4
n4737__1_3_1_1,n4737__1_3_1_1_4
n4739__1_3_1_1,n4739__1_3_1_1_4
n4740__1_3_1_1,n4740__1_3_1_1_4
n4741__1_3_1_1,n4741__1_3_1_1_4
n4744__1_3_1_1,n4744__1_3_1_1_4
n4745__1_3_1_1,n4745__1_3_1_1_4
n4749__1_3_1_1,n4749__1_3_1_1_4
n4750__1_3_1_1,n4750__1_3_1_1_4
n4752__1_3_1_1,n4752__1_3_1_1_4
n4755__1_3_1_1,n4755__1_3_1_1_4
n4756__1_3_1_1,n4756__1_3_1_1_4
n4758__1_3_1_1,n4758__1_3_1_1_4
n4761__1_3_1_1,n4761__1_3_1_1_4
n4763__1_3_1_1,n4763__1_3_1_1_4
n4765__1_3_1_1,n4765__1_3_1_1_4
n4766__1_3_1_1,n4766__1_3_1_1_4
n4769__1_3_1_1,n4769__1_3_1_1_4
n4770__1_3_1_1,n4770__1_3_1_1_4
n4773__1_3_1_1,n4773__1_3_1_1_4
n4774__1_3_1_1,n4774__1_3_1_1_4
n4775__1_3_1_1,n4775__1_3_1_1_4
n4776__1_3_1_1,n4776__1_3_1_1_4
n4777__1_3_1_1,n4777__1_3_1_1_4
n4778__1_3_1_1,n4778__1_3_1_1_4
n4780__1_3_1_1,n4780__1_3_1_1_4
n4782__1_3_1_1,n4782__1_3_1_1_4
n4785__1_3_1_1,n4785__1_3_1_1_4
n4786__1_3_1_1,n4786__1_3_1_1_4
n4787__1_3_1_1,n4787__1_3_1_1_4
n4788__1_3_1_1,n4788__1_3_1_1_4
n4789__1_3_1_1,n4789__1_3_1_1_4
n4791__1_3_1_1,n4791__1_3_1_1_4
n4799__1_3_1_1,n4799__1_3_1_1_4
n4800__1_3_1_1,n4800__1_3_1_1_4
n4801__1_3_1_1,n4801__1_3_1_1_4
n4803__1_3_1_1,n4803__1_3_1_1_4
n4806__1_3_1_1,n4806__1_3_1_1_4
n4808__1_3_1_1,n4808__1_3_1_1_4
n4811__1_3_1_1,n4811__1_3_1_1_4
n4812__1_3_1_1,n4812__1_3_1_1_4
n4821__1_3_1_1,n4821__1_3_1_1_4
n4822__1_3_1_1,n4822__1_3_1_1_4
n4823__1_3_1_1,n4823__1_3_1_1_4
n4826__1_3_1_1,n4826__1_3_1_1_4
n4827__1_3_1_1,n4827__1_3_1_1_4
n4829__1_3_1_1,n4829__1_3_1_1_4
n4833__1_3_1_1,n4833__1_3_1_1_4
n4834__1_3_1_1,n4834__1_3_1_1_4
n4841__1_3_1_1,n4841__1_3_1_1_4
n4842__1_3_1_1,n4842__1_3_1_1_4
n4845__1_3_1_1,n4845__1_3_1_1_4
n4850__1_3_1_1,n4850__1_3_1_1_4
n4853__1_3_1_1,n4853__1_3_1_1_4
n4854__1_3_1_1,n4854__1_3_1_1_4
n4856__1_3_1_1,n4856__1_3_1_1_4
n4858__1_3_1_1,n4858__1_3_1_1_4
n4859__1_3_1_1,n4859__1_3_1_1_4
n4860__1_3_1_1,n4860__1_3_1_1_4
n4862__1_3_1_1,n4862__1_3_1_1_4
n4865__1_3_1_1,n4865__1_3_1_1_4
n4866__1_3_1_1,n4866__1_3_1_1_4
n4867__1_3_1_1,n4867__1_3_1_1_4
n4868__1_3_1_1,n4868__1_3_1_1_4
n4870__1_3_1_1,n4870__1_3_1_1_4
n4871__1_3_1_1,n4871__1_3_1_1_4
n4874__1_3_1_1,n4874__1_3_1_1_4
n4875__1_3_1_1,n4875__1_3_1_1_4
n4876__1_3_1_1,n4876__1_3_1_1_4
n4877__1_3_1_1,n4877__1_3_1_1_4
n4883__1_3_1_1,n4883__1_3_1_1_4
n4884__1_3_1_1,n4884__1_3_1_1_4
n4888__1_3_1_1,n4888__1_3_1_1_4
n4890__1_3_1_1,n4890__1_3_1_1_4
n4891__1_3_1_1,n4891__1_3_1_1_4
n4892__1_3_1_1,n4892__1_3_1_1_4
n4893__1_3_1_1,n4893__1_3_1_1_4
n4895__1_3_1_1,n4895__1_3_1_1_4
n4896__1_3_1_1,n4896__1_3_1_1_4
n4897__1_3_1_1,n4897__1_3_1_1_4
n4899__1_3_1_1,n4899__1_3_1_1_4
n4900__1_3_1_1,n4900__1_3_1_1_4
n4901__1_3_1_1,n4901__1_3_1_1_4
n4903__1_3_1_1,n4903__1_3_1_1_4
n4905__1_3_1_1,n4905__1_3_1_1_4
n4906__1_3_1_1,n4906__1_3_1_1_4
n4907__1_3_1_1,n4907__1_3_1_1_4
n4908__1_3_1_1,n4908__1_3_1_1_4
n4910__1_3_1_1,n4910__1_3_1_1_4
n4917__1_3_1_1,n4917__1_3_1_1_4
n4918__1_3_1_1,n4918__1_3_1_1_4
n4920__1_3_1_1,n4920__1_3_1_1_4
n4921__1_3_1_1,n4921__1_3_1_1_4
n4923__1_3_1_1,n4923__1_3_1_1_4
n4924__1_3_1_1,n4924__1_3_1_1_4
n4925__1_3_1_1,n4925__1_3_1_1_4
