n4926__1_3_1_1,n4926__1_3_1_1_13
n4927__1_3_1_1,n4927__1_3_1_1_11
n4928__1_3_1_1,n4928__1_3_1_1_6
n4931__1_3_1_1,n4931__1_3_1_1_7
n4933__1_3_1_1,n4933__1_3_1_1_4
n4934__1_3_1_1,n4934__1_3_1_1_15
n4935__1_3_1_1,n4935__1_3_1_1_7
n4936__1_3_1_1,n4936__1_3_1_1_12
n4937__1_3_1_1,n4937__1_3_1_1_4
n4939__1_3_1_1,n4939__1_3_1_1_8
n4941__1_3_1_1,n4941__1_3_1_1_14
n4942__1_3_1_1,n4942__1_3_1_1_15
n4943__1_3_1_1,n4943__1_3_1_1_7
n4944__1_3_1_1,n4944__1_3_1_1_12
n4946__1_3_1_1,n4946__1_3_1_1_8
n4948__1_3_1_1,n4948__1_3_1_1_19
n4949__1_3_1_1,n4949__1_3_1_1_7
n4950__1_3_1_1,n4950__1_3_1_1_13
n4951__1_3_1_1,n4951__1_3_1_1_8
n4952__1_3_1_1,n4952__1_3_1_1_6
n4953__1_3_1_1,n4953__1_3_1_1_6
n4955__1_3_1_1,n4955__1_3_1_1_5
n4957__1_3_1_1,n4957__1_3_1_1_6
n4962__1_3_1_1,n4962__1_3_1_1_9
n4966__1_3_1_1,n4966__1_3_1_1_6
n4967__1_3_1_1,n4967__1_3_1_1_18
n4968__1_3_1_1,n4968__1_3_1_1_29
n4970__1_3_1_1,n4970__1_3_1_1_8
n4974__1_3_1_1,n4974__1_3_1_1_6
n4976__1_3_1_1,n4976__1_3_1_1_11
n4978__1_3_1_1,n4978__1_3_1_1_5
n4982__1_3_1_1,n4982__1_3_1_1_8
n4984__1_3_1_1,n4984__1_3_1_1_9
n4985__1_3_1_1,n4985__1_3_1_1_8
n4986__1_3_1_1,n4986__1_3_1_1_4
n4987__1_3_1_1,n4987__1_3_1_1_6
n4988__1_3_1_1,n4988__1_3_1_1_6
n4989__1_3_1_1,n4989__1_3_1_1_6
n4991__1_3_1_1,n4991__1_3_1_1_6
n4995__1_3_1_1,n4995__1_3_1_1_21
n4996__1_3_1_1,n4996__1_3_1_1_27
n4997__1_3_1_1,n4997__1_3_1_1_8
n4998__1_3_1_1,n4998__1_3_1_1_12
n4999__1_3_1_1,n4999__1_3_1_1_27
n5000__1_3_1_1,n5000__1_3_1_1_5
n5003__1_3_1_1,n5003__1_3_1_1_5
n5007__1_3_1_1,n5007__1_3_1_1_7
n5008__1_3_1_1,n5008__1_3_1_1_6
n5011__1_3_1_1,n5011__1_3_1_1_5
n5016__1_3_1_1,n5016__1_3_1_1_12
n5018__1_3_1_1,n5018__1_3_1_1_4
n5019__1_3_1_1,n5019__1_3_1_1_13
n5023__1_3_1_1,n5023__1_3_1_1_5
n5024__1_3_1_1,n5024__1_3_1_1_20
n5025__1_3_1_1,n5025__1_3_1_1_26
n5026__1_3_1_1,n5026__1_3_1_1_13
n5029__1_3_1_1,n5029__1_3_1_1_5
n5032__1_3_1_1,n5032__1_3_1_1_7
n5034__1_3_1_1,n5034__1_3_1_1_10
n5036__1_3_1_1,n5036__1_3_1_1_6
n5039__1_3_1_1,n5039__1_3_1_1_28
n5041__1_3_1_1,n5041__1_3_1_1_17
n5042__1_3_1_1,n5042__1_3_1_1_10
n5043__1_3_1_1,n5043__1_3_1_1_7
n5044__1_3_1_1,n5044__1_3_1_1_12
n5047__1_3_1_1,n5047__1_3_1_1_7
n5051__1_3_1_1,n5051__1_3_1_1_10
n5054__1_3_1_1,n5054__1_3_1_1_6
n5055__1_3_1_1,n5055__1_3_1_1_22
n5062__1_3_1_1,n5062__1_3_1_1_7
n5063__1_3_1_1,n5063__1_3_1_1_9
n5064__1_3_1_1,n5064__1_3_1_1_7
n5065__1_3_1_1,n5065__1_3_1_1_25
n5066__1_3_1_1,n5066__1_3_1_1_5
n5072__1_3_1_1,n5072__1_3_1_1_10
n5075__1_3_1_1,n5075__1_3_1_1_9
n5076__1_3_1_1,n5076__1_3_1_1_6
n5079__1_3_1_1,n5079__1_3_1_1_8
n5082__1_3_1_1,n5082__1_3_1_1_12
n5084__1_3_1_1,n5084__1_3_1_1_7
n5085__1_3_1_1,n5085__1_3_1_1_4
n5087__1_3_1_1,n5087__1_3_1_1_7
n5090__1_3_1_1,n5090__1_3_1_1_9
n5091__1_3_1_1,n5091__1_3_1_1_17
n5093__1_3_1_1,n5093__1_3_1_1_8
n5094__1_3_1_1,n5094__1_3_1_1_6
n5096__1_3_1_1,n5096__1_3_1_1_7
n5098__1_3_1_1,n5098__1_3_1_1_6
n5100__1_3_1_1,n5100__1_3_1_1_8
n5102__1_3_1_1,n5102__1_3_1_1_12
n5103__1_3_1_1,n5103__1_3_1_1_12
n5104__1_3_1_1,n5104__1_3_1_1_4
n5105__1_3_1_1,n5105__1_3_1_1_18
n5108__1_3_1_1,n5108__1_3_1_1_11
n5112__1_3_1_1,n5112__1_3_1_1_10
n5118__1_3_1_1,n5118__1_3_1_1_15
n5119__1_3_1_1,n5119__1_3_1_1_5
n5123__1_3_1_1,n5123__1_3_1_1_7
n5124__1_3_1_1,n5124__1_3_1_1_8
n5125__1_3_1_1,n5125__1_3_1_1_5
n5126__1_3_1_1,n5126__1_3_1_1_9
n5127__1_3_1_1,n5127__1_3_1_1_5
n5130__1_3_1_1,n5130__1_3_1_1_8
n5134__1_3_1_1,n5134__1_3_1_1_13
n5135__1_3_1_1,n5135__1_3_1_1_10
n5136__1_3_1_1,n5136__1_3_1_1_18
n5137__1_3_1_1,n5137__1_3_1_1_13
n5138__1_3_1_1,n5138__1_3_1_1_6
n5139__1_3_1_1,n5139__1_3_1_1_6
n5141__1_3_1_1,n5141__1_3_1_1_18
n5143__1_3_1_1,n5143__1_3_1_1_9
n5145__1_3_1_1,n5145__1_3_1_1_8
n5148__1_3_1_1,n5148__1_3_1_1_5
n5149__1_3_1_1,n5149__1_3_1_1_16
n5150__1_3_1_1,n5150__1_3_1_1_9
n5151__1_3_1_1,n5151__1_3_1_1_6
n5152__1_3_1_1,n5152__1_3_1_1_13
n5155__1_3_1_1,n5155__1_3_1_1_7
n5160__1_3_1_1,n5160__1_3_1_1_24
n5161__1_3_1_1,n5161__1_3_1_1_11
n5162__1_3_1_1,n5162__1_3_1_1_15
n5164__1_3_1_1,n5164__1_3_1_1_9
n5165__1_3_1_1,n5165__1_3_1_1_8
n5166__1_3_1_1,n5166__1_3_1_1_13
n5167__1_3_1_1,n5167__1_3_1_1_12
n5172__1_3_1_1,n5172__1_3_1_1_6
n5174__1_3_1_1,n5174__1_3_1_1_10
n5175__1_3_1_1,n5175__1_3_1_1_6
n5176__1_3_1_1,n5176__1_3_1_1_6
n5177__1_3_1_1,n5177__1_3_1_1_7
n5178__1_3_1_1,n5178__1_3_1_1_9
n5179__1_3_1_1,n5179__1_3_1_1_8
n5180__1_3_1_1,n5180__1_3_1_1_10
n5183__1_3_1_1,n5183__1_3_1_1_8
n5186__1_3_1_1,n5186__1_3_1_1_11
n5187__1_3_1_1,n5187__1_3_1_1_5
n5188__1_3_1_1,n5188__1_3_1_1_11
n5190__1_3_1_1,n5190__1_3_1_1_5
n5191__1_3_1_1,n5191__1_3_1_1_28
n5192__1_3_1_1,n5192__1_3_1_1_12
n5193__1_3_1_1,n5193__1_3_1_1_20
n5195__1_3_1_1,n5195__1_3_1_1_13
n5197__1_3_1_1,n5197__1_3_1_1_7
n5198__1_3_1_1,n5198__1_3_1_1_11
n5199__1_3_1_1,n5199__1_3_1_1_5
n5203__1_3_1_1,n5203__1_3_1_1_5
n5204__1_3_1_1,n5204__1_3_1_1_11
n5207__1_3_1_1,n5207__1_3_1_1_7
n5211__1_3_1_1,n5211__1_3_1_1_7
n5212__1_3_1_1,n5212__1_3_1_1_8
n5216__1_3_1_1,n5216__1_3_1_1_9
n5222__1_3_1_1,n5222__1_3_1_1_16
n5224__1_3_1_1,n5224__1_3_1_1_26
n5226__1_3_1_1,n5226__1_3_1_1_11
n5227__1_3_1_1,n5227__1_3_1_1_5
n5228__1_3_1_1,n5228__1_3_1_1_10
n5232__1_3_1_1,n5232__1_3_1_1_14
n5235__1_3_1_1,n5235__1_3_1_1_10
n5238__1_3_1_1,n5238__1_3_1_1_9
n5240__1_3_1_1,n5240__1_3_1_1_10
n5242__1_3_1_1,n5242__1_3_1_1_21
n5246__1_3_1_1,n5246__1_3_1_1_8
n5248__1_3_1_1,n5248__1_3_1_1_6
n5249__1_3_1_1,n5249__1_3_1_1_4
n5250__1_3_1_1,n5250__1_3_1_1_4
n5251__1_3_1_1,n5251__1_3_1_1_5
n5255__1_3_1_1,n5255__1_3_1_1_4
n5256__1_3_1_1,n5256__1_3_1_1_7
n5257__1_3_1_1,n5257__1_3_1_1_11
n5258__1_3_1_1,n5258__1_3_1_1_10
n5259__1_3_1_1,n5259__1_3_1_1_6
n5262__1_3_1_1,n5262__1_3_1_1_17
n5264__1_3_1_1,n5264__1_3_1_1_13
n5265__1_3_1_1,n5265__1_3_1_1_7
n5267__1_3_1_1,n5267__1_3_1_1_7
n5269__1_3_1_1,n5269__1_3_1_1_6
n5272__1_3_1_1,n5272__1_3_1_1_11
n5273__1_3_1_1,n5273__1_3_1_1_10
n5280__1_3_1_1,n5280__1_3_1_1_9
n5282__1_3_1_1,n5282__1_3_1_1_10
n5283__1_3_1_1,n5283__1_3_1_1_8
n5286__1_3_1_1,n5286__1_3_1_1_20
n5288__1_3_1_1,n5288__1_3_1_1_6
n5289__1_3_1_1,n5289__1_3_1_1_7
n5291__1_3_1_1,n5291__1_3_1_1_5
n5293__1_3_1_1,n5293__1_3_1_1_7
n5295__1_3_1_1,n5295__1_3_1_1_5
n5297__1_3_1_1,n5297__1_3_1_1_12
n5298__1_3_1_1,n5298__1_3_1_1_9
n5299__1_3_1_1,n5299__1_3_1_1_7
n5303__1_3_1_1,n5303__1_3_1_1_6
n5304__1_3_1_1,n5304__1_3_1_1_16
n5305__1_3_1_1,n5305__1_3_1_1_13
n5306__1_3_1_1,n5306__1_3_1_1_6
n5310__1_3_1_1,n5310__1_3_1_1_10
n5312__1_3_1_1,n5312__1_3_1_1_8
n5313__1_3_1_1,n5313__1_3_1_1_6
n5315__1_3_1_1,n5315__1_3_1_1_12
n5317__1_3_1_1,n5317__1_3_1_1_7
n5318__1_3_1_1,n5318__1_3_1_1_11
n5320__1_3_1_1,n5320__1_3_1_1_5
n5329__1_3_1_1,n5329__1_3_1_1_8
n5331__1_3_1_1,n5331__1_3_1_1_6
n5332__1_3_1_1,n5332__1_3_1_1_14
n5335__1_3_1_1,n5335__1_3_1_1_6
n5336__1_3_1_1,n5336__1_3_1_1_11
n5338__1_3_1_1,n5338__1_3_1_1_13
n5339__1_3_1_1,n5339__1_3_1_1_5
n5340__1_3_1_1,n5340__1_3_1_1_8
n5344__1_3_1_1,n5344__1_3_1_1_7
n5345__1_3_1_1,n5345__1_3_1_1_7
n5347__1_3_1_1,n5347__1_3_1_1_9
n5348__1_3_1_1,n5348__1_3_1_1_10
n5349__1_3_1_1,n5349__1_3_1_1_16
n5350__1_3_1_1,n5350__1_3_1_1_5
n5352__1_3_1_1,n5352__1_3_1_1_7
n5353__1_3_1_1,n5353__1_3_1_1_11
n5354__1_3_1_1,n5354__1_3_1_1_12
n5355__1_3_1_1,n5355__1_3_1_1_23
n5358__1_3_1_1,n5358__1_3_1_1_12
n5360__1_3_1_1,n5360__1_3_1_1_16
n5362__1_3_1_1,n5362__1_3_1_1_12
n5366__1_3_1_1,n5366__1_3_1_1_4
n5369__1_3_1_1,n5369__1_3_1_1_39
n5370__1_3_1_1,n5370__1_3_1_1_9
n5371__1_3_1_1,n5371__1_3_1_1_4
n5374__1_3_1_1,n5374__1_3_1_1_9
n5378__1_3_1_1,n5378__1_3_1_1_8
n5380__1_3_1_1,n5380__1_3_1_1_8
n5382__1_3_1_1,n5382__1_3_1_1_4
n5388__1_3_1_1,n5388__1_3_1_1_12
n5389__1_3_1_1,n5389__1_3_1_1_6
n5392__1_3_1_1,n5392__1_3_1_1_10
n5395__1_3_1_1,n5395__1_3_1_1_5
n5396__1_3_1_1,n5396__1_3_1_1_8
n5402__1_3_1_1,n5402__1_3_1_1_15
n5403__1_3_1_1,n5403__1_3_1_1_7
n5406__1_3_1_1,n5406__1_3_1_1_9
n5410__1_3_1_1,n5410__1_3_1_1_8
n5413__1_3_1_1,n5413__1_3_1_1_10
n5418__1_3_1_1,n5418__1_3_1_1_6
n5420__1_3_1_1,n5420__1_3_1_1_15
n5422__1_3_1_1,n5422__1_3_1_1_10
n5423__1_3_1_1,n5423__1_3_1_1_6
n5426__1_3_1_1,n5426__1_3_1_1_9
n5427__1_3_1_1,n5427__1_3_1_1_13
n5428__1_3_1_1,n5428__1_3_1_1_5
n5429__1_3_1_1,n5429__1_3_1_1_12
n5430__1_3_1_1,n5430__1_3_1_1_8
n5432__1_3_1_1,n5432__1_3_1_1_14
n5433__1_3_1_1,n5433__1_3_1_1_7
n5434__1_3_1_1,n5434__1_3_1_1_12
n5438__1_3_1_1,n5438__1_3_1_1_10
n5443__1_3_1_1,n5443__1_3_1_1_4
n5445__1_3_1_1,n5445__1_3_1_1_18
n5446__1_3_1_1,n5446__1_3_1_1_6
n5448__1_3_1_1,n5448__1_3_1_1_4
n5449__1_3_1_1,n5449__1_3_1_1_6
n5452__1_3_1_1,n5452__1_3_1_1_6
n5454__1_3_1_1,n5454__1_3_1_1_6
n5456__1_3_1_1,n5456__1_3_1_1_7
n5458__1_3_1_1,n5458__1_3_1_1_15
n5459__1_3_1_1,n5459__1_3_1_1_6
n5460__1_3_1_1,n5460__1_3_1_1_5
n5461__1_3_1_1,n5461__1_3_1_1_5
n5462__1_3_1_1,n5462__1_3_1_1_7
n5464__1_3_1_1,n5464__1_3_1_1_17
n5465__1_3_1_1,n5465__1_3_1_1_4
n5470__1_3_1_1,n5470__1_3_1_1_7
n5479__1_3_1_1,n5479__1_3_1_1_4
n5491__1_3_1_1,n5491__1_3_1_1_5
n5492__1_3_1_1,n5492__1_3_1_1_13
n5493__1_3_1_1,n5493__1_3_1_1_16
n5494__1_3_1_1,n5494__1_3_1_1_9
n5499__1_3_1_1,n5499__1_3_1_1_8
n5503__1_3_1_1,n5503__1_3_1_1_9
n5504__1_3_1_1,n5504__1_3_1_1_6
n5505__1_3_1_1,n5505__1_3_1_1_5
n5507__1_3_1_1,n5507__1_3_1_1_14
n5511__1_3_1_1,n5511__1_3_1_1_13
n5512__1_3_1_1,n5512__1_3_1_1_19
n5514__1_3_1_1,n5514__1_3_1_1_13
n5515__1_3_1_1,n5515__1_3_1_1_6
n5519__1_3_1_1,n5519__1_3_1_1_9
n5521__1_3_1_1,n5521__1_3_1_1_11
n5522__1_3_1_1,n5522__1_3_1_1_10
n5523__1_3_1_1,n5523__1_3_1_1_6
n5528__1_3_1_1,n5528__1_3_1_1_5
n5529__1_3_1_1,n5529__1_3_1_1_6
n5530__1_3_1_1,n5530__1_3_1_1_4
n5532__1_3_1_1,n5532__1_3_1_1_8
n5533__1_3_1_1,n5533__1_3_1_1_7
n5535__1_3_1_1,n5535__1_3_1_1_13
n5536__1_3_1_1,n5536__1_3_1_1_23
n5537__1_3_1_1,n5537__1_3_1_1_9
n5538__1_3_1_1,n5538__1_3_1_1_5
n5540__1_3_1_1,n5540__1_3_1_1_7
n5543__1_3_1_1,n5543__1_3_1_1_6
n5544__1_3_1_1,n5544__1_3_1_1_6
n5545__1_3_1_1,n5545__1_3_1_1_16
n5546__1_3_1_1,n5546__1_3_1_1_10
n5547__1_3_1_1,n5547__1_3_1_1_11
n5551__1_3_1_1,n5551__1_3_1_1_10
n5553__1_3_1_1,n5553__1_3_1_1_9
n5556__1_3_1_1,n5556__1_3_1_1_8
n5557__1_3_1_1,n5557__1_3_1_1_11
n5558__1_3_1_1,n5558__1_3_1_1_7
n5560__1_3_1_1,n5560__1_3_1_1_7
n5567__1_3_1_1,n5567__1_3_1_1_4
n5568__1_3_1_1,n5568__1_3_1_1_8
n5570__1_3_1_1,n5570__1_3_1_1_6
n5573__1_3_1_1,n5573__1_3_1_1_5
n5575__1_3_1_1,n5575__1_3_1_1_18
n5576__1_3_1_1,n5576__1_3_1_1_10
n5580__1_3_1_1,n5580__1_3_1_1_10
n5586__1_3_1_1,n5586__1_3_1_1_6
n5587__1_3_1_1,n5587__1_3_1_1_11
n5588__1_3_1_1,n5588__1_3_1_1_6
n5591__1_3_1_1,n5591__1_3_1_1_9
n5593__1_3_1_1,n5593__1_3_1_1_9
n5595__1_3_1_1,n5595__1_3_1_1_8
n5596__1_3_1_1,n5596__1_3_1_1_5
n5597__1_3_1_1,n5597__1_3_1_1_8
n5599__1_3_1_1,n5599__1_3_1_1_8
n5600__1_3_1_1,n5600__1_3_1_1_7
n5606__1_3_1_1,n5606__1_3_1_1_12
n5609__1_3_1_1,n5609__1_3_1_1_16
n5610__1_3_1_1,n5610__1_3_1_1_7
n5611__1_3_1_1,n5611__1_3_1_1_11
n5614__1_3_1_1,n5614__1_3_1_1_8
n5616__1_3_1_1,n5616__1_3_1_1_5
n5619__1_3_1_1,n5619__1_3_1_1_11
n5620__1_3_1_1,n5620__1_3_1_1_5
n5623__1_3_1_1,n5623__1_3_1_1_17
n5624__1_3_1_1,n5624__1_3_1_1_5
n5626__1_3_1_1,n5626__1_3_1_1_6
n5627__1_3_1_1,n5627__1_3_1_1_19
n5628__1_3_1_1,n5628__1_3_1_1_7
n5629__1_3_1_1,n5629__1_3_1_1_14
n5631__1_3_1_1,n5631__1_3_1_1_8
n5633__1_3_1_1,n5633__1_3_1_1_13
n5637__1_3_1_1,n5637__1_3_1_1_6
n5638__1_3_1_1,n5638__1_3_1_1_5
n5642__1_3_1_1,n5642__1_3_1_1_11
n5644__1_3_1_1,n5644__1_3_1_1_5
n5646__1_3_1_1,n5646__1_3_1_1_10
n5647__1_3_1_1,n5647__1_3_1_1_12
n5648__1_3_1_1,n5648__1_3_1_1_7
n5650__1_3_1_1,n5650__1_3_1_1_9
n5653__1_3_1_1,n5653__1_3_1_1_13
n5656__1_3_1_1,n5656__1_3_1_1_10
n5657__1_3_1_1,n5657__1_3_1_1_9
n5660__1_3_1_1,n5660__1_3_1_1_4
n5661__1_3_1_1,n5661__1_3_1_1_6
n5665__1_3_1_1,n5665__1_3_1_1_9
n5666__1_3_1_1,n5666__1_3_1_1_9
n5668__1_3_1_1,n5668__1_3_1_1_13
n5671__1_3_1_1,n5671__1_3_1_1_5
n5673__1_3_1_1,n5673__1_3_1_1_9
n5676__1_3_1_1,n5676__1_3_1_1_6
n5678__1_3_1_1,n5678__1_3_1_1_7
n5681__1_3_1_1,n5681__1_3_1_1_9
n5683__1_3_1_1,n5683__1_3_1_1_11
n5684__1_3_1_1,n5684__1_3_1_1_8
n5686__1_3_1_1,n5686__1_3_1_1_12
n5692__1_3_1_1,n5692__1_3_1_1_9
n5693__1_3_1_1,n5693__1_3_1_1_24
n5695__1_3_1_1,n5695__1_3_1_1_5
n5696__1_3_1_1,n5696__1_3_1_1_5
n5698__1_3_1_1,n5698__1_3_1_1_36
n5699__1_3_1_1,n5699__1_3_1_1_7
n5700__1_3_1_1,n5700__1_3_1_1_7
n5701__1_3_1_1,n5701__1_3_1_1_10
n5704__1_3_1_1,n5704__1_3_1_1_8
n5705__1_3_1_1,n5705__1_3_1_1_5
n5707__1_3_1_1,n5707__1_3_1_1_14
n5708__1_3_1_1,n5708__1_3_1_1_13
n5712__1_3_1_1,n5712__1_3_1_1_7
n5713__1_3_1_1,n5713__1_3_1_1_4
n5714__1_3_1_1,n5714__1_3_1_1_17
n5715__1_3_1_1,n5715__1_3_1_1_16
n5717__1_3_1_1,n5717__1_3_1_1_6
n5720__1_3_1_1,n5720__1_3_1_1_6
n5721__1_3_1_1,n5721__1_3_1_1_7
n5722__1_3_1_1,n5722__1_3_1_1_5
n5723__1_3_1_1,n5723__1_3_1_1_8
n5725__1_3_1_1,n5725__1_3_1_1_6
n5726__1_3_1_1,n5726__1_3_1_1_8
n5728__1_3_1_1,n5728__1_3_1_1_5
n5729__1_3_1_1,n5729__1_3_1_1_19
n5731__1_3_1_1,n5731__1_3_1_1_5
n5733__1_3_1_1,n5733__1_3_1_1_16
n5736__1_3_1_1,n5736__1_3_1_1_6
n5737__1_3_1_1,n5737__1_3_1_1_6
n5738__1_3_1_1,n5738__1_3_1_1_8
n5740__1_3_1_1,n5740__1_3_1_1_9
n5741__1_3_1_1,n5741__1_3_1_1_10
n5743__1_3_1_1,n5743__1_3_1_1_18
n5751__1_3_1_1,n5751__1_3_1_1_7
n5752__1_3_1_1,n5752__1_3_1_1_21
n5753__1_3_1_1,n5753__1_3_1_1_29
n5754__1_3_1_1,n5754__1_3_1_1_5
n5755__1_3_1_1,n5755__1_3_1_1_14
n5756__1_3_1_1,n5756__1_3_1_1_4
n5762__1_3_1_1,n5762__1_3_1_1_6
n5764__1_3_1_1,n5764__1_3_1_1_8
n5765__1_3_1_1,n5765__1_3_1_1_14
n5767__1_3_1_1,n5767__1_3_1_1_5
n5769__1_3_1_1,n5769__1_3_1_1_8
n5771__1_3_1_1,n5771__1_3_1_1_4
n5773__1_3_1_1,n5773__1_3_1_1_7
n5779__1_3_1_1,n5779__1_3_1_1_6
n5786__1_3_1_1,n5786__1_3_1_1_5
n5787__1_3_1_1,n5787__1_3_1_1_6
n5788__1_3_1_1,n5788__1_3_1_1_16
n5790__1_3_1_1,n5790__1_3_1_1_13
n5791__1_3_1_1,n5791__1_3_1_1_6
n5794__1_3_1_1,n5794__1_3_1_1_9
n5796__1_3_1_1,n5796__1_3_1_1_5
n5797__1_3_1_1,n5797__1_3_1_1_10
n5803__1_3_1_1,n5803__1_3_1_1_23
n5809__1_3_1_1,n5809__1_3_1_1_10
n5812__1_3_1_1,n5812__1_3_1_1_15
n5813__1_3_1_1,n5813__1_3_1_1_7
n5815__1_3_1_1,n5815__1_3_1_1_8
n5819__1_3_1_1,n5819__1_3_1_1_10
n5820__1_3_1_1,n5820__1_3_1_1_15
n5822__1_3_1_1,n5822__1_3_1_1_7
n5824__1_3_1_1,n5824__1_3_1_1_7
n5828__1_3_1_1,n5828__1_3_1_1_6
n5831__1_3_1_1,n5831__1_3_1_1_8
n5834__1_3_1_1,n5834__1_3_1_1_7
n5841__1_3_1_1,n5841__1_3_1_1_11
n5842__1_3_1_1,n5842__1_3_1_1_5
n5844__1_3_1_1,n5844__1_3_1_1_16
n5845__1_3_1_1,n5845__1_3_1_1_5
n5846__1_3_1_1,n5846__1_3_1_1_11
n5847__1_3_1_1,n5847__1_3_1_1_10
n5849__1_3_1_1,n5849__1_3_1_1_6
n5850__1_3_1_1,n5850__1_3_1_1_13
n5851__1_3_1_1,n5851__1_3_1_1_18
n5852__1_3_1_1,n5852__1_3_1_1_6
n5854__1_3_1_1,n5854__1_3_1_1_15
n5855__1_3_1_1,n5855__1_3_1_1_5
n5858__1_3_1_1,n5858__1_3_1_1_9
n5861__1_3_1_1,n5861__1_3_1_1_14
n5863__1_3_1_1,n5863__1_3_1_1_4
n5864__1_3_1_1,n5864__1_3_1_1_9
n5866__1_3_1_1,n5866__1_3_1_1_13
n5867__1_3_1_1,n5867__1_3_1_1_4
n5868__1_3_1_1,n5868__1_3_1_1_6
n5871__1_3_1_1,n5871__1_3_1_1_13
n5872__1_3_1_1,n5872__1_3_1_1_9
n5874__1_3_1_1,n5874__1_3_1_1_4
n5875__1_3_1_1,n5875__1_3_1_1_8
n5876__1_3_1_1,n5876__1_3_1_1_6
n5882__1_3_1_1,n5882__1_3_1_1_19
n5884__1_3_1_1,n5884__1_3_1_1_11
n5885__1_3_1_1,n5885__1_3_1_1_5
n5887__1_3_1_1,n5887__1_3_1_1_15
n5890__1_3_1_1,n5890__1_3_1_1_5
n5896__1_3_1_1,n5896__1_3_1_1_7
n5900__1_3_1_1,n5900__1_3_1_1_18
n5901__1_3_1_1,n5901__1_3_1_1_5
n5906__1_3_1_1,n5906__1_3_1_1_5
n5908__1_3_1_1,n5908__1_3_1_1_8
n5910__1_3_1_1,n5910__1_3_1_1_9
n5911__1_3_1_1,n5911__1_3_1_1_7
n5917__1_3_1_1,n5917__1_3_1_1_13
n5918__1_3_1_1,n5918__1_3_1_1_9
n5919__1_3_1_1,n5919__1_3_1_1_8
n5921__1_3_1_1,n5921__1_3_1_1_9
n5923__1_3_1_1,n5923__1_3_1_1_7
n5927__1_3_1_1,n5927__1_3_1_1_7
n5928__1_3_1_1,n5928__1_3_1_1_7
n5929__1_3_1_1,n5929__1_3_1_1_5
n5933__1_3_1_1,n5933__1_3_1_1_5
n5938__1_3_1_1,n5938__1_3_1_1_6
n5939__1_3_1_1,n5939__1_3_1_1_14
n5940__1_3_1_1,n5940__1_3_1_1_7
n5941__1_3_1_1,n5941__1_3_1_1_13
n5944__1_3_1_1,n5944__1_3_1_1_6
n5945__1_3_1_1,n5945__1_3_1_1_7
n5947__1_3_1_1,n5947__1_3_1_1_8
n5950__1_3_1_1,n5950__1_3_1_1_6
n5951__1_3_1_1,n5951__1_3_1_1_9
n5954__1_3_1_1,n5954__1_3_1_1_14
n5955__1_3_1_1,n5955__1_3_1_1_7
n5956__1_3_1_1,n5956__1_3_1_1_6
n5957__1_3_1_1,n5957__1_3_1_1_11
n5958__1_3_1_1,n5958__1_3_1_1_6
n5959__1_3_1_1,n5959__1_3_1_1_10
n5961__1_3_1_1,n5961__1_3_1_1_8
n5962__1_3_1_1,n5962__1_3_1_1_16
n5963__1_3_1_1,n5963__1_3_1_1_6
n5965__1_3_1_1,n5965__1_3_1_1_15
n5966__1_3_1_1,n5966__1_3_1_1_10
n5969__1_3_1_1,n5969__1_3_1_1_11
n5972__1_3_1_1,n5972__1_3_1_1_34
n5973__1_3_1_1,n5973__1_3_1_1_4
n5974__1_3_1_1,n5974__1_3_1_1_17
n5978__1_3_1_1,n5978__1_3_1_1_16
n5980__1_3_1_1,n5980__1_3_1_1_14
n5981__1_3_1_1,n5981__1_3_1_1_13
n5985__1_3_1_1,n5985__1_3_1_1_4
n5989__1_3_1_1,n5989__1_3_1_1_7
n5991__1_3_1_1,n5991__1_3_1_1_8
n5992__1_3_1_1,n5992__1_3_1_1_17
n5993__1_3_1_1,n5993__1_3_1_1_11
n5996__1_3_1_1,n5996__1_3_1_1_24
n6000__1_3_1_1,n6000__1_3_1_1_13
n6001__1_3_1_1,n6001__1_3_1_1_10
n6004__1_3_1_1,n6004__1_3_1_1_10
n6006__1_3_1_1,n6006__1_3_1_1_19
n6007__1_3_1_1,n6007__1_3_1_1_17
n6008__1_3_1_1,n6008__1_3_1_1_15
n6009__1_3_1_1,n6009__1_3_1_1_5
n6013__1_3_1_1,n6013__1_3_1_1_7
n6016__1_3_1_1,n6016__1_3_1_1_5
n6017__1_3_1_1,n6017__1_3_1_1_5
n6018__1_3_1_1,n6018__1_3_1_1_5
n6020__1_3_1_1,n6020__1_3_1_1_12
n6022__1_3_1_1,n6022__1_3_1_1_14
n6035__1_3_1_1,n6035__1_3_1_1_5
n6040__1_3_1_1,n6040__1_3_1_1_4
n6042__1_3_1_1,n6042__1_3_1_1_7
n6043__1_3_1_1,n6043__1_3_1_1_6
n6051__1_3_1_1,n6051__1_3_1_1_4
n6054__1_3_1_1,n6054__1_3_1_1_12
n6055__1_3_1_1,n6055__1_3_1_1_25
n6056__1_3_1_1,n6056__1_3_1_1_5
n6058__1_3_1_1,n6058__1_3_1_1_10
n6060__1_3_1_1,n6060__1_3_1_1_5
n6061__1_3_1_1,n6061__1_3_1_1_4
n6062__1_3_1_1,n6062__1_3_1_1_6
n6063__1_3_1_1,n6063__1_3_1_1_7
n6065__1_3_1_1,n6065__1_3_1_1_8
n6066__1_3_1_1,n6066__1_3_1_1_5
n6070__1_3_1_1,n6070__1_3_1_1_7
n6072__1_3_1_1,n6072__1_3_1_1_14
n6074__1_3_1_1,n6074__1_3_1_1_6
n6076__1_3_1_1,n6076__1_3_1_1_5
n6078__1_3_1_1,n6078__1_3_1_1_6
n6079__1_3_1_1,n6079__1_3_1_1_9
n6080__1_3_1_1,n6080__1_3_1_1_12
n6081__1_3_1_1,n6081__1_3_1_1_4
n6083__1_3_1_1,n6083__1_3_1_1_10
n6084__1_3_1_1,n6084__1_3_1_1_4
n6085__1_3_1_1,n6085__1_3_1_1_7
n6088__1_3_1_1,n6088__1_3_1_1_7
n6091__1_3_1_1,n6091__1_3_1_1_6
n6093__1_3_1_1,n6093__1_3_1_1_8
n6094__1_3_1_1,n6094__1_3_1_1_15
n6096__1_3_1_1,n6096__1_3_1_1_15
n6098__1_3_1_1,n6098__1_3_1_1_16
n6106__1_3_1_1,n6106__1_3_1_1_10
n6107__1_3_1_1,n6107__1_3_1_1_22
n6108__1_3_1_1,n6108__1_3_1_1_9
n6111__1_3_1_1,n6111__1_3_1_1_8
n6112__1_3_1_1,n6112__1_3_1_1_8
n6115__1_3_1_1,n6115__1_3_1_1_10
n6118__1_3_1_1,n6118__1_3_1_1_8
n6120__1_3_1_1,n6120__1_3_1_1_9
