n257__1_3_1,n257__1_3_1_1
n261__1_3_1,n261__1_3_1_1
n263__1_3_1,n263__1_3_1_1
n266__1_3_1,n266__1_3_1_1
n272__1_3_1,n272__1_3_1_1
n274__1_3_1,n274__1_3_1_1
n278__1_3_1,n278__1_3_1_1
n280__1_3_1,n280__1_3_1_1
n281__1_3_1,n281__1_3_1_1
n285__1_3_1,n285__1_3_1_1
n288__1_3_1,n288__1_3_1_1
n290__1_3_1,n290__1_3_1_1
n291__1_3_1,n291__1_3_1_1
n292__1_3_1,n292__1_3_1_1
n296__1_3_1,n296__1_3_1_1
n297__1_3_1,n297__1_3_1_1
n298__1_3_1,n298__1_3_1_1
n299__1_3_1,n299__1_3_1_1
n300__1_3_1,n300__1_3_1_1
n301__1_3_1,n301__1_3_1_1
n302__1_3_1,n302__1_3_1_1
n307__1_3_1,n307__1_3_1_1
n308__1_3_1,n308__1_3_1_1
n311__1_3_1,n311__1_3_1_1
n313__1_3_1,n313__1_3_1_1
n314__1_3_1,n314__1_3_1_1
n315__1_3_1,n315__1_3_1_1
n318__1_3_1,n318__1_3_1_1
n319__1_3_1,n319__1_3_1_1
n321__1_3_1,n321__1_3_1_1
n322__1_3_1,n322__1_3_1_1
n323__1_3_1,n323__1_3_1_1
n325__1_3_1,n325__1_3_1_1
n326__1_3_1,n326__1_3_1_1
n327__1_3_1,n327__1_3_1_1
n328__1_3_1,n328__1_3_1_1
n335__1_3_1,n335__1_3_1_1
n336__1_3_1,n336__1_3_1_1
n337__1_3_1,n337__1_3_1_1
n338__1_3_1,n338__1_3_1_1
n340__1_3_1,n340__1_3_1_1
n341__1_3_1,n341__1_3_1_1
n342__1_3_1,n342__1_3_1_1
n343__1_3_1,n343__1_3_1_1
n344__1_3_1,n344__1_3_1_1
n346__1_3_1,n346__1_3_1_1
n348__1_3_1,n348__1_3_1_1
n350__1_3_1,n350__1_3_1_1
n351__1_3_1,n351__1_3_1_1
n353__1_3_1,n353__1_3_1_1
n356__1_3_1,n356__1_3_1_1
n361__1_3_1,n361__1_3_1_1
n362__1_3_1,n362__1_3_1_1
n365__1_3_1,n365__1_3_1_1
n366__1_3_1,n366__1_3_1_1
n374__1_3_1,n374__1_3_1_1
n376__1_3_1,n376__1_3_1_1
n377__1_3_1,n377__1_3_1_1
n379__1_3_1,n379__1_3_1_1
n381__1_3_1,n381__1_3_1_1
n384__1_3_1,n384__1_3_1_1
n386__1_3_1,n386__1_3_1_1
n387__1_3_1,n387__1_3_1_1
n388__1_3_1,n388__1_3_1_1
n390__1_3_1,n390__1_3_1_1
n392__1_3_1,n392__1_3_1_1
n393__1_3_1,n393__1_3_1_1
n395__1_3_1,n395__1_3_1_1
n396__1_3_1,n396__1_3_1_1
n397__1_3_1,n397__1_3_1_1
n398__1_3_1,n398__1_3_1_1
n399__1_3_1,n399__1_3_1_1
n401__1_3_1,n401__1_3_1_1
n403__1_3_1,n403__1_3_1_1
n404__1_3_1,n404__1_3_1_1
n405__1_3_1,n405__1_3_1_1
n407__1_3_1,n407__1_3_1_1
n410__1_3_1,n410__1_3_1_1
n411__1_3_1,n411__1_3_1_1
n412__1_3_1,n412__1_3_1_1
n414__1_3_1,n414__1_3_1_1
n415__1_3_1,n415__1_3_1_1
n417__1_3_1,n417__1_3_1_1
n421__1_3_1,n421__1_3_1_1
n422__1_3_1,n422__1_3_1_1
n423__1_3_1,n423__1_3_1_1
n431__1_3_1,n431__1_3_1_1
n432__1_3_1,n432__1_3_1_1
n433__1_3_1,n433__1_3_1_1
n434__1_3_1,n434__1_3_1_1
n437__1_3_1,n437__1_3_1_1
n438__1_3_1,n438__1_3_1_1
n440__1_3_1,n440__1_3_1_1
n444__1_3_1,n444__1_3_1_1
n445__1_3_1,n445__1_3_1_1
n448__1_3_1,n448__1_3_1_1
n452__1_3_1,n452__1_3_1_1
n457__1_3_1,n457__1_3_1_1
n458__1_3_1,n458__1_3_1_1
n459__1_3_1,n459__1_3_1_1
n460__1_3_1,n460__1_3_1_1
n461__1_3_1,n461__1_3_1_1
n462__1_3_1,n462__1_3_1_1
n467__1_3_1,n467__1_3_1_1
n473__1_3_1,n473__1_3_1_1
n475__1_3_1,n475__1_3_1_1
