n2176__1_3,n2176__1_3_1
n2181__1_3,n2181__1_3_1
n2182__1_3,n2182__1_3_1
n2185__1_3,n2185__1_3_1
n2187__1_3,n2187__1_3_1
n2188__1_3,n2188__1_3_1
n2189__1_3,n2189__1_3_1
n2192__1_3,n2192__1_3_1
n2193__1_3,n2193__1_3_1
n2195__1_3,n2195__1_3_1
n2196__1_3,n2196__1_3_1
n2197__1_3,n2197__1_3_1
n2199__1_3,n2199__1_3_1
n2200__1_3,n2200__1_3_1
n2201__1_3,n2201__1_3_1
n2202__1_3,n2202__1_3_1
n2209__1_3,n2209__1_3_1
n2210__1_3,n2210__1_3_1
n2211__1_3,n2211__1_3_1
n2212__1_3,n2212__1_3_1
n2214__1_3,n2214__1_3_1
n2215__1_3,n2215__1_3_1
n2216__1_3,n2216__1_3_1
n2217__1_3,n2217__1_3_1
n2218__1_3,n2218__1_3_1
n2220__1_3,n2220__1_3_1
n2222__1_3,n2222__1_3_1
n2224__1_3,n2224__1_3_1
n2225__1_3,n2225__1_3_1
n2227__1_3,n2227__1_3_1
n2230__1_3,n2230__1_3_1
n2235__1_3,n2235__1_3_1
n2236__1_3,n2236__1_3_1
n2239__1_3,n2239__1_3_1
n2240__1_3,n2240__1_3_1
n2248__1_3,n2248__1_3_1
n2250__1_3,n2250__1_3_1
n2251__1_3,n2251__1_3_1
n2253__1_3,n2253__1_3_1
n2255__1_3,n2255__1_3_1
n2258__1_3,n2258__1_3_1
n2260__1_3,n2260__1_3_1
n2261__1_3,n2261__1_3_1
n2262__1_3,n2262__1_3_1
n2264__1_3,n2264__1_3_1
n2266__1_3,n2266__1_3_1
n2267__1_3,n2267__1_3_1
n2269__1_3,n2269__1_3_1
n2270__1_3,n2270__1_3_1
n2271__1_3,n2271__1_3_1
n2272__1_3,n2272__1_3_1
n2273__1_3,n2273__1_3_1
n2275__1_3,n2275__1_3_1
