n2176__1_3_1,n2176__1_3_1_1
n2182__1_3_1,n2182__1_3_1_1
n2186__1_3_1,n2186__1_3_1_1
n2187__1_3_1,n2187__1_3_1_1
n2200__1_3_1,n2200__1_3_1_1
n2213__1_3_1,n2213__1_3_1_1
n2220__1_3_1,n2220__1_3_1_1
n2224__1_3_1,n2224__1_3_1_1
n2229__1_3_1,n2229__1_3_1_1
n2237__1_3_1,n2237__1_3_1_1
n2238__1_3_1,n2238__1_3_1_1
n2245__1_3_1,n2245__1_3_1_1
n2248__1_3_1,n2248__1_3_1_1
n2249__1_3_1,n2249__1_3_1_1
n2255__1_3_1,n2255__1_3_1_1
n2264__1_3_1,n2264__1_3_1_1
n2271__1_3_1,n2271__1_3_1_1
n2274__1_3_1,n2274__1_3_1_1
