n6139__1_3_1,n6139__1_3_1_1
n6141__1_3_1,n6141__1_3_1_1
n6144__1_3_1,n6144__1_3_1_1
n6145__1_3_1,n6145__1_3_1_1
n6146__1_3_1,n6146__1_3_1_1
n6147__1_3_1,n6147__1_3_1_1
n6148__1_3_1,n6148__1_3_1_1
n6149__1_3_1,n6149__1_3_1_1
n6154__1_3_1,n6154__1_3_1_1
n6155__1_3_1,n6155__1_3_1_1
n6156__1_3_1,n6156__1_3_1_1
n6161__1_3_1,n6161__1_3_1_1
n6163__1_3_1,n6163__1_3_1_1
n6166__1_3_1,n6166__1_3_1_1
n6168__1_3_1,n6168__1_3_1_1
n6169__1_3_1,n6169__1_3_1_1
n6177__1_3_1,n6177__1_3_1_1
n6193__1_3_1,n6193__1_3_1_1
n6211__1_3_1,n6211__1_3_1_1
n6221__1_3_1,n6221__1_3_1_1
n6237__1_3_1,n6237__1_3_1_1
n6244__1_3_1,n6244__1_3_1_1
n6262__1_3_1,n6262__1_3_1_1
n6282__1_3_1,n6282__1_3_1_1
n6285__1_3_1,n6285__1_3_1_1
n6287__1_3_1,n6287__1_3_1_1
n6293__1_3_1,n6293__1_3_1_1
n6302__1_3_1,n6302__1_3_1_1
n6306__1_3_1,n6306__1_3_1_1
n6321__1_3_1,n6321__1_3_1_1
n6326__1_3_1,n6326__1_3_1_1
n6332__1_3_1,n6332__1_3_1_1
n6357__1_3_1,n6357__1_3_1_1
n6363__1_3_1,n6363__1_3_1_1
n6364__1_3_1,n6364__1_3_1_1
n6366__1_3_1,n6366__1_3_1_1
n6369__1_3_1,n6369__1_3_1_1
n6370__1_3_1,n6370__1_3_1_1
n6373__1_3_1,n6373__1_3_1_1
n6375__1_3_1,n6375__1_3_1_1
n6376__1_3_1,n6376__1_3_1_1
n6398__1_3_1,n6398__1_3_1_1
n6402__1_3_1,n6402__1_3_1_1
n6404__1_3_1,n6404__1_3_1_1
n6406__1_3_1,n6406__1_3_1_1
n6413__1_3_1,n6413__1_3_1_1
n6417__1_3_1,n6417__1_3_1_1
n6420__1_3_1,n6420__1_3_1_1
n6423__1_3_1,n6423__1_3_1_1
n6430__1_3_1,n6430__1_3_1_1
n6438__1_3_1,n6438__1_3_1_1
n6440__1_3_1,n6440__1_3_1_1
n6449__1_3_1,n6449__1_3_1_1
n6453__1_3_1,n6453__1_3_1_1
n6456__1_3_1,n6456__1_3_1_1
n6468__1_3_1,n6468__1_3_1_1
n6473__1_3_1,n6473__1_3_1_1
n6474__1_3_1,n6474__1_3_1_1
n6479__1_3_1,n6479__1_3_1_1
n6491__1_3_1,n6491__1_3_1_1
n6492__1_3_1,n6492__1_3_1_1
n6497__1_3_1,n6497__1_3_1_1
n6499__1_3_1,n6499__1_3_1_1
n6500__1_3_1,n6500__1_3_1_1
n6502__1_3_1,n6502__1_3_1_1
n6510__1_3_1,n6510__1_3_1_1
n6514__1_3_1,n6514__1_3_1_1
n6515__1_3_1,n6515__1_3_1_1
n6517__1_3_1,n6517__1_3_1_1
n6519__1_3_1,n6519__1_3_1_1
n6523__1_3_1,n6523__1_3_1_1
n6533__1_3_1,n6533__1_3_1_1
n6565__1_3_1,n6565__1_3_1_1
n6569__1_3_1,n6569__1_3_1_1
n6572__1_3_1,n6572__1_3_1_1
n6573__1_3_1,n6573__1_3_1_1
n6577__1_3_1,n6577__1_3_1_1
n6581__1_3_1,n6581__1_3_1_1
n6587__1_3_1,n6587__1_3_1_1
n6597__1_3_1,n6597__1_3_1_1
n6604__1_3_1,n6604__1_3_1_1
n6616__1_3_1,n6616__1_3_1_1
n6628__1_3_1,n6628__1_3_1_1
n6639__1_3_1,n6639__1_3_1_1
n6650__1_3_1,n6650__1_3_1_1
n6661__1_3_1,n6661__1_3_1_1
n6666__1_3_1,n6666__1_3_1_1
n6668__1_3_1,n6668__1_3_1_1
n6682__1_3_1,n6682__1_3_1_1
n6683__1_3_1,n6683__1_3_1_1
n6684__1_3_1,n6684__1_3_1_1
n6687__1_3_1,n6687__1_3_1_1
n6698__1_3_1,n6698__1_3_1_1
n6699__1_3_1,n6699__1_3_1_1
n6704__1_3_1,n6704__1_3_1_1
n6709__1_3_1,n6709__1_3_1_1
n6723__1_3_1,n6723__1_3_1_1
n6725__1_3_1,n6725__1_3_1_1
n6726__1_3_1,n6726__1_3_1_1
n6727__1_3_1,n6727__1_3_1_1
n6732__1_3_1,n6732__1_3_1_1
n6741__1_3_1,n6741__1_3_1_1
n6743__1_3_1,n6743__1_3_1_1
n6744__1_3_1,n6744__1_3_1_1
n6745__1_3_1,n6745__1_3_1_1
n6748__1_3_1,n6748__1_3_1_1
n6758__1_3_1,n6758__1_3_1_1
n6778__1_3_1,n6778__1_3_1_1
n6791__1_3_1,n6791__1_3_1_1
n6793__1_3_1,n6793__1_3_1_1
n6796__1_3_1,n6796__1_3_1_1
n6803__1_3_1,n6803__1_3_1_1
n6814__1_3_1,n6814__1_3_1_1
n6823__1_3_1,n6823__1_3_1_1
n6825__1_3_1,n6825__1_3_1_1
n6834__1_3_1,n6834__1_3_1_1
n6838__1_3_1,n6838__1_3_1_1
n6852__1_3_1,n6852__1_3_1_1
n6853__1_3_1,n6853__1_3_1_1
n6858__1_3_1,n6858__1_3_1_1
n6867__1_3_1,n6867__1_3_1_1
n6875__1_3_1,n6875__1_3_1_1
n6876__1_3_1,n6876__1_3_1_1
n6878__1_3_1,n6878__1_3_1_1
n6886__1_3_1,n6886__1_3_1_1
n6889__1_3_1,n6889__1_3_1_1
n6893__1_3_1,n6893__1_3_1_1
n6897__1_3_1,n6897__1_3_1_1
n6901__1_3_1,n6901__1_3_1_1
n6902__1_3_1,n6902__1_3_1_1
n6911__1_3_1,n6911__1_3_1_1
n6913__1_3_1,n6913__1_3_1_1
n6919__1_3_1,n6919__1_3_1_1
n6927__1_3_1,n6927__1_3_1_1
n6931__1_3_1,n6931__1_3_1_1
n6935__1_3_1,n6935__1_3_1_1
n6944__1_3_1,n6944__1_3_1_1
n6957__1_3_1,n6957__1_3_1_1
n6960__1_3_1,n6960__1_3_1_1
n6968__1_3_1,n6968__1_3_1_1
n6970__1_3_1,n6970__1_3_1_1
n6979__1_3_1,n6979__1_3_1_1
n6980__1_3_1,n6980__1_3_1_1
n6982__1_3_1,n6982__1_3_1_1
n6989__1_3_1,n6989__1_3_1_1
n6997__1_3_1,n6997__1_3_1_1
n6999__1_3_1,n6999__1_3_1_1
n7001__1_3_1,n7001__1_3_1_1
n7005__1_3_1,n7005__1_3_1_1
n7009__1_3_1,n7009__1_3_1_1
n7018__1_3_1,n7018__1_3_1_1
n7022__1_3_1,n7022__1_3_1_1
n7030__1_3_1,n7030__1_3_1_1
n7032__1_3_1,n7032__1_3_1_1
n7036__1_3_1,n7036__1_3_1_1
n7038__1_3_1,n7038__1_3_1_1
n7039__1_3_1,n7039__1_3_1_1
n7064__1_3_1,n7064__1_3_1_1
n7079__1_3_1,n7079__1_3_1_1
n7087__1_3_1,n7087__1_3_1_1
n7092__1_3_1,n7092__1_3_1_1
n7095__1_3_1,n7095__1_3_1_1
n7100__1_3_1,n7100__1_3_1_1
