n7__1_3_1_1,n7__1_3_1_1_1
n25__1_3_1_1,n25__1_3_1_1_1
n28__1_3_1_1,n28__1_3_1_1_1
n31__1_3_1_1,n31__1_3_1_1_1
n53__1_3_1_1,n53__1_3_1_1_1
n54__1_3_1_1,n54__1_3_1_1_1
n55__1_3_1_1,n55__1_3_1_1_1
n68__1_3_1_1,n68__1_3_1_1_1
n70__1_3_1_1,n70__1_3_1_1_1
n74__1_3_1_1,n74__1_3_1_1_1
n77__1_3_1_1,n77__1_3_1_1_1
n83__1_3_1_1,n83__1_3_1_1_1
n87__1_3_1_1,n87__1_3_1_1_1
n90__1_3_1_1,n90__1_3_1_1_1
n91__1_3_1_1,n91__1_3_1_1_1
n94__1_3_1_1,n94__1_3_1_1_1
n96__1_3_1_1,n96__1_3_1_1_1
n107__1_3_1_1,n107__1_3_1_1_1
n123__1_3_1_1,n123__1_3_1_1_1
n126__1_3_1_1,n126__1_3_1_1_1
n127__1_3_1_1,n127__1_3_1_1_1
n133__1_3_1_1,n133__1_3_1_1_1
n134__1_3_1_1,n134__1_3_1_1_1
n135__1_3_1_1,n135__1_3_1_1_1
n141__1_3_1_1,n141__1_3_1_1_1
n146__1_3_1_1,n146__1_3_1_1_1
n147__1_3_1_1,n147__1_3_1_1_1
n150__1_3_1_1,n150__1_3_1_1_1
n153__1_3_1_1,n153__1_3_1_1_1
n159__1_3_1_1,n159__1_3_1_1_1
n160__1_3_1_1,n160__1_3_1_1_1
n161__1_3_1_1,n161__1_3_1_1_1
n162__1_3_1_1,n162__1_3_1_1_1
n171__1_3_1_1,n171__1_3_1_1_1
n173__1_3_1_1,n173__1_3_1_1_1
n179__1_3_1_1,n179__1_3_1_1_1
n180__1_3_1_1,n180__1_3_1_1_1
n183__1_3_1_1,n183__1_3_1_1_1
n189__1_3_1_1,n189__1_3_1_1_1
n194__1_3_1_1,n194__1_3_1_1_1
n197__1_3_1_1,n197__1_3_1_1_1
n207__1_3_1_1,n207__1_3_1_1_1
n215__1_3_1_1,n215__1_3_1_1_1
n221__1_3_1_1,n221__1_3_1_1_1
n222__1_3_1_1,n222__1_3_1_1_1
n224__1_3_1_1,n224__1_3_1_1_1
n226__1_3_1_1,n226__1_3_1_1_1
n227__1_3_1_1,n227__1_3_1_1_1
n231__1_3_1_1,n231__1_3_1_1_1
n241__1_3_1_1,n241__1_3_1_1_1
n242__1_3_1_1,n242__1_3_1_1_1
n244__1_3_1_1,n244__1_3_1_1_1
n250__1_3_1_1,n250__1_3_1_1_1
n257__1_3_1_1,n257__1_3_1_1_1
n258__1_3_1_1,n258__1_3_1_1_1
n259__1_3_1_1,n259__1_3_1_1_1
n260__1_3_1_1,n260__1_3_1_1_1
n263__1_3_1_1,n263__1_3_1_1_1
n270__1_3_1_1,n270__1_3_1_1_1
n274__1_3_1_1,n274__1_3_1_1_1
n288__1_3_1_1,n288__1_3_1_1_1
n290__1_3_1_1,n290__1_3_1_1_1
n292__1_3_1_1,n292__1_3_1_1_1
n299__1_3_1_1,n299__1_3_1_1_1
n307__1_3_1_1,n307__1_3_1_1_1
n309__1_3_1_1,n309__1_3_1_1_1
n310__1_3_1_1,n310__1_3_1_1_1
n313__1_3_1_1,n313__1_3_1_1_1
n327__1_3_1_1,n327__1_3_1_1_1
n330__1_3_1_1,n330__1_3_1_1_1
n333__1_3_1_1,n333__1_3_1_1_1
n337__1_3_1_1,n337__1_3_1_1_1
n338__1_3_1_1,n338__1_3_1_1_1
n346__1_3_1_1,n346__1_3_1_1_1
n347__1_3_1_1,n347__1_3_1_1_1
n349__1_3_1_1,n349__1_3_1_1_1
n353__1_3_1_1,n353__1_3_1_1_1
n358__1_3_1_1,n358__1_3_1_1_1
n359__1_3_1_1,n359__1_3_1_1_1
n362__1_3_1_1,n362__1_3_1_1_1
n365__1_3_1_1,n365__1_3_1_1_1
n367__1_3_1_1,n367__1_3_1_1_1
n373__1_3_1_1,n373__1_3_1_1_1
n374__1_3_1_1,n374__1_3_1_1_1
n379__1_3_1_1,n379__1_3_1_1_1
n385__1_3_1_1,n385__1_3_1_1_1
n398__1_3_1_1,n398__1_3_1_1_1
n403__1_3_1_1,n403__1_3_1_1_1
n414__1_3_1_1,n414__1_3_1_1_1
n422__1_3_1_1,n422__1_3_1_1_1
n435__1_3_1_1,n435__1_3_1_1_1
n436__1_3_1_1,n436__1_3_1_1_1
n457__1_3_1_1,n457__1_3_1_1_1
n459__1_3_1_1,n459__1_3_1_1_1
n462__1_3_1_1,n462__1_3_1_1_1
n474__1_3_1_1,n474__1_3_1_1_1
n480__1_3_1_1,n480__1_3_1_1_1
n483__1_3_1_1,n483__1_3_1_1_1
n491__1_3_1_1,n491__1_3_1_1_1
n493__1_3_1_1,n493__1_3_1_1_1
n501__1_3_1_1,n501__1_3_1_1_1
n505__1_3_1_1,n505__1_3_1_1_1
n507__1_3_1_1,n507__1_3_1_1_1
n513__1_3_1_1,n513__1_3_1_1_1
n519__1_3_1_1,n519__1_3_1_1_1
n527__1_3_1_1,n527__1_3_1_1_1
n529__1_3_1_1,n529__1_3_1_1_1
n546__1_3_1_1,n546__1_3_1_1_1
n548__1_3_1_1,n548__1_3_1_1_1
n550__1_3_1_1,n550__1_3_1_1_1
n553__1_3_1_1,n553__1_3_1_1_1
n558__1_3_1_1,n558__1_3_1_1_1
n582__1_3_1_1,n582__1_3_1_1_1
n583__1_3_1_1,n583__1_3_1_1_1
n595__1_3_1_1,n595__1_3_1_1_1
n599__1_3_1_1,n599__1_3_1_1_1
n601__1_3_1_1,n601__1_3_1_1_1
n605__1_3_1_1,n605__1_3_1_1_1
n610__1_3_1_1,n610__1_3_1_1_1
n611__1_3_1_1,n611__1_3_1_1_1
n612__1_3_1_1,n612__1_3_1_1_1
n618__1_3_1_1,n618__1_3_1_1_1
n621__1_3_1_1,n621__1_3_1_1_1
n634__1_3_1_1,n634__1_3_1_1_1
n636__1_3_1_1,n636__1_3_1_1_1
n640__1_3_1_1,n640__1_3_1_1_1
n642__1_3_1_1,n642__1_3_1_1_1
n647__1_3_1_1,n647__1_3_1_1_1
n659__1_3_1_1,n659__1_3_1_1_1
n664__1_3_1_1,n664__1_3_1_1_1
n667__1_3_1_1,n667__1_3_1_1_1
n672__1_3_1_1,n672__1_3_1_1_1
n673__1_3_1_1,n673__1_3_1_1_1
n678__1_3_1_1,n678__1_3_1_1_1
n683__1_3_1_1,n683__1_3_1_1_1
n687__1_3_1_1,n687__1_3_1_1_1
n688__1_3_1_1,n688__1_3_1_1_1
n697__1_3_1_1,n697__1_3_1_1_1
n698__1_3_1_1,n698__1_3_1_1_1
n702__1_3_1_1,n702__1_3_1_1_1
n704__1_3_1_1,n704__1_3_1_1_1
n713__1_3_1_1,n713__1_3_1_1_1
n715__1_3_1_1,n715__1_3_1_1_1
n719__1_3_1_1,n719__1_3_1_1_1
n723__1_3_1_1,n723__1_3_1_1_1
n724__1_3_1_1,n724__1_3_1_1_1
n733__1_3_1_1,n733__1_3_1_1_1
n734__1_3_1_1,n734__1_3_1_1_1
n737__1_3_1_1,n737__1_3_1_1_1
n748__1_3_1_1,n748__1_3_1_1_1
n751__1_3_1_1,n751__1_3_1_1_1
n755__1_3_1_1,n755__1_3_1_1_1
n765__1_3_1_1,n765__1_3_1_1_1
n767__1_3_1_1,n767__1_3_1_1_1
n768__1_3_1_1,n768__1_3_1_1_1
n770__1_3_1_1,n770__1_3_1_1_1
n773__1_3_1_1,n773__1_3_1_1_1
n774__1_3_1_1,n774__1_3_1_1_1
n780__1_3_1_1,n780__1_3_1_1_1
n786__1_3_1_1,n786__1_3_1_1_1
n788__1_3_1_1,n788__1_3_1_1_1
n795__1_3_1_1,n795__1_3_1_1_1
n796__1_3_1_1,n796__1_3_1_1_1
n807__1_3_1_1,n807__1_3_1_1_1
n810__1_3_1_1,n810__1_3_1_1_1
n818__1_3_1_1,n818__1_3_1_1_1
n824__1_3_1_1,n824__1_3_1_1_1
n833__1_3_1_1,n833__1_3_1_1_1
n835__1_3_1_1,n835__1_3_1_1_1
n840__1_3_1_1,n840__1_3_1_1_1
n854__1_3_1_1,n854__1_3_1_1_1
n855__1_3_1_1,n855__1_3_1_1_1
n861__1_3_1_1,n861__1_3_1_1_1
n863__1_3_1_1,n863__1_3_1_1_1
n871__1_3_1_1,n871__1_3_1_1_1
n874__1_3_1_1,n874__1_3_1_1_1
n882__1_3_1_1,n882__1_3_1_1_1
n897__1_3_1_1,n897__1_3_1_1_1
n898__1_3_1_1,n898__1_3_1_1_1
n899__1_3_1_1,n899__1_3_1_1_1
n901__1_3_1_1,n901__1_3_1_1_1
n903__1_3_1_1,n903__1_3_1_1_1
n908__1_3_1_1,n908__1_3_1_1_1
n920__1_3_1_1,n920__1_3_1_1_1
n923__1_3_1_1,n923__1_3_1_1_1
n931__1_3_1_1,n931__1_3_1_1_1
n938__1_3_1_1,n938__1_3_1_1_1
n947__1_3_1_1,n947__1_3_1_1_1
n949__1_3_1_1,n949__1_3_1_1_1
n956__1_3_1_1,n956__1_3_1_1_1
n959__1_3_1_1,n959__1_3_1_1_1
n963__1_3_1_1,n963__1_3_1_1_1
n965__1_3_1_1,n965__1_3_1_1_1
n967__1_3_1_1,n967__1_3_1_1_1
n972__1_3_1_1,n972__1_3_1_1_1
n973__1_3_1_1,n973__1_3_1_1_1
n977__1_3_1_1,n977__1_3_1_1_1
n989__1_3_1_1,n989__1_3_1_1_1
n994__1_3_1_1,n994__1_3_1_1_1
n1001__1_3_1_1,n1001__1_3_1_1_1
n1006__1_3_1_1,n1006__1_3_1_1_1
n1007__1_3_1_1,n1007__1_3_1_1_1
n1012__1_3_1_1,n1012__1_3_1_1_1
n1022__1_3_1_1,n1022__1_3_1_1_1
n1024__1_3_1_1,n1024__1_3_1_1_1
n1049__1_3_1_1,n1049__1_3_1_1_1
n1057__1_3_1_1,n1057__1_3_1_1_1
n1058__1_3_1_1,n1058__1_3_1_1_1
n1063__1_3_1_1,n1063__1_3_1_1_1
n1066__1_3_1_1,n1066__1_3_1_1_1
n1069__1_3_1_1,n1069__1_3_1_1_1
n1070__1_3_1_1,n1070__1_3_1_1_1
n1072__1_3_1_1,n1072__1_3_1_1_1
n1074__1_3_1_1,n1074__1_3_1_1_1
n1079__1_3_1_1,n1079__1_3_1_1_1
n1083__1_3_1_1,n1083__1_3_1_1_1
n1085__1_3_1_1,n1085__1_3_1_1_1
n1086__1_3_1_1,n1086__1_3_1_1_1
n1089__1_3_1_1,n1089__1_3_1_1_1
n1090__1_3_1_1,n1090__1_3_1_1_1
n1096__1_3_1_1,n1096__1_3_1_1_1
n1106__1_3_1_1,n1106__1_3_1_1_1
n1110__1_3_1_1,n1110__1_3_1_1_1
n1112__1_3_1_1,n1112__1_3_1_1_1
n1115__1_3_1_1,n1115__1_3_1_1_1
n1117__1_3_1_1,n1117__1_3_1_1_1
n1125__1_3_1_1,n1125__1_3_1_1_1
n1126__1_3_1_1,n1126__1_3_1_1_1
n1129__1_3_1_1,n1129__1_3_1_1_1
n1136__1_3_1_1,n1136__1_3_1_1_1
n1141__1_3_1_1,n1141__1_3_1_1_1
n1143__1_3_1_1,n1143__1_3_1_1_1
n1152__1_3_1_1,n1152__1_3_1_1_1
n1157__1_3_1_1,n1157__1_3_1_1_1
n1158__1_3_1_1,n1158__1_3_1_1_1
n1165__1_3_1_1,n1165__1_3_1_1_1
n1170__1_3_1_1,n1170__1_3_1_1_1
n1175__1_3_1_1,n1175__1_3_1_1_1
n1177__1_3_1_1,n1177__1_3_1_1_1
n1189__1_3_1_1,n1189__1_3_1_1_1
n1191__1_3_1_1,n1191__1_3_1_1_1
n1201__1_3_1_1,n1201__1_3_1_1_1
n1208__1_3_1_1,n1208__1_3_1_1_1
n1213__1_3_1_1,n1213__1_3_1_1_1
n1216__1_3_1_1,n1216__1_3_1_1_1
n1218__1_3_1_1,n1218__1_3_1_1_1
n1219__1_3_1_1,n1219__1_3_1_1_1
n1220__1_3_1_1,n1220__1_3_1_1_1
n1226__1_3_1_1,n1226__1_3_1_1_1
n1227__1_3_1_1,n1227__1_3_1_1_1
n1228__1_3_1_1,n1228__1_3_1_1_1
n1230__1_3_1_1,n1230__1_3_1_1_1
n1232__1_3_1_1,n1232__1_3_1_1_1
n1240__1_3_1_1,n1240__1_3_1_1_1
n1254__1_3_1_1,n1254__1_3_1_1_1
n1258__1_3_1_1,n1258__1_3_1_1_1
n1266__1_3_1_1,n1266__1_3_1_1_1
n1283__1_3_1_1,n1283__1_3_1_1_1
n1285__1_3_1_1,n1285__1_3_1_1_1
n1294__1_3_1_1,n1294__1_3_1_1_1
n1313__1_3_1_1,n1313__1_3_1_1_1
n1319__1_3_1_1,n1319__1_3_1_1_1
n1326__1_3_1_1,n1326__1_3_1_1_1
n1339__1_3_1_1,n1339__1_3_1_1_1
n1359__1_3_1_1,n1359__1_3_1_1_1
n1366__1_3_1_1,n1366__1_3_1_1_1
n1371__1_3_1_1,n1371__1_3_1_1_1
n1380__1_3_1_1,n1380__1_3_1_1_1
n1382__1_3_1_1,n1382__1_3_1_1_1
n1386__1_3_1_1,n1386__1_3_1_1_1
n1397__1_3_1_1,n1397__1_3_1_1_1
n1402__1_3_1_1,n1402__1_3_1_1_1
n1406__1_3_1_1,n1406__1_3_1_1_1
n1413__1_3_1_1,n1413__1_3_1_1_1
n1414__1_3_1_1,n1414__1_3_1_1_1
n1415__1_3_1_1,n1415__1_3_1_1_1
n1419__1_3_1_1,n1419__1_3_1_1_1
n1420__1_3_1_1,n1420__1_3_1_1_1
n1424__1_3_1_1,n1424__1_3_1_1_1
n1432__1_3_1_1,n1432__1_3_1_1_1
n1436__1_3_1_1,n1436__1_3_1_1_1
n1439__1_3_1_1,n1439__1_3_1_1_1
n1448__1_3_1_1,n1448__1_3_1_1_1
n1449__1_3_1_1,n1449__1_3_1_1_1
n1462__1_3_1_1,n1462__1_3_1_1_1
n1464__1_3_1_1,n1464__1_3_1_1_1
n1467__1_3_1_1,n1467__1_3_1_1_1
n1472__1_3_1_1,n1472__1_3_1_1_1
n1478__1_3_1_1,n1478__1_3_1_1_1
n1480__1_3_1_1,n1480__1_3_1_1_1
n1483__1_3_1_1,n1483__1_3_1_1_1
n1487__1_3_1_1,n1487__1_3_1_1_1
n1494__1_3_1_1,n1494__1_3_1_1_1
n1501__1_3_1_1,n1501__1_3_1_1_1
n1504__1_3_1_1,n1504__1_3_1_1_1
n1509__1_3_1_1,n1509__1_3_1_1_1
n1510__1_3_1_1,n1510__1_3_1_1_1
n1517__1_3_1_1,n1517__1_3_1_1_1
n1532__1_3_1_1,n1532__1_3_1_1_1
n1536__1_3_1_1,n1536__1_3_1_1_1
n1541__1_3_1_1,n1541__1_3_1_1_1
n1543__1_3_1_1,n1543__1_3_1_1_1
n1548__1_3_1_1,n1548__1_3_1_1_1
n1549__1_3_1_1,n1549__1_3_1_1_1
n1555__1_3_1_1,n1555__1_3_1_1_1
n1566__1_3_1_1,n1566__1_3_1_1_1
n1569__1_3_1_1,n1569__1_3_1_1_1
n1578__1_3_1_1,n1578__1_3_1_1_1
n1579__1_3_1_1,n1579__1_3_1_1_1
n1583__1_3_1_1,n1583__1_3_1_1_1
n1591__1_3_1_1,n1591__1_3_1_1_1
n1598__1_3_1_1,n1598__1_3_1_1_1
n1599__1_3_1_1,n1599__1_3_1_1_1
n1607__1_3_1_1,n1607__1_3_1_1_1
n1610__1_3_1_1,n1610__1_3_1_1_1
n1611__1_3_1_1,n1611__1_3_1_1_1
n1614__1_3_1_1,n1614__1_3_1_1_1
n1619__1_3_1_1,n1619__1_3_1_1_1
n1636__1_3_1_1,n1636__1_3_1_1_1
n1637__1_3_1_1,n1637__1_3_1_1_1
n1638__1_3_1_1,n1638__1_3_1_1_1
n1646__1_3_1_1,n1646__1_3_1_1_1
n1647__1_3_1_1,n1647__1_3_1_1_1
n1654__1_3_1_1,n1654__1_3_1_1_1
n1659__1_3_1_1,n1659__1_3_1_1_1
n1661__1_3_1_1,n1661__1_3_1_1_1
n1662__1_3_1_1,n1662__1_3_1_1_1
n1665__1_3_1_1,n1665__1_3_1_1_1
n1669__1_3_1_1,n1669__1_3_1_1_1
n1671__1_3_1_1,n1671__1_3_1_1_1
n1684__1_3_1_1,n1684__1_3_1_1_1
n1686__1_3_1_1,n1686__1_3_1_1_1
n1692__1_3_1_1,n1692__1_3_1_1_1
n1694__1_3_1_1,n1694__1_3_1_1_1
n1696__1_3_1_1,n1696__1_3_1_1_1
n1699__1_3_1_1,n1699__1_3_1_1_1
n1702__1_3_1_1,n1702__1_3_1_1_1
n1704__1_3_1_1,n1704__1_3_1_1_1
n1707__1_3_1_1,n1707__1_3_1_1_1
n1708__1_3_1_1,n1708__1_3_1_1_1
n1709__1_3_1_1,n1709__1_3_1_1_1
n1719__1_3_1_1,n1719__1_3_1_1_1
n1720__1_3_1_1,n1720__1_3_1_1_1
n1721__1_3_1_1,n1721__1_3_1_1_1
n1726__1_3_1_1,n1726__1_3_1_1_1
n1734__1_3_1_1,n1734__1_3_1_1_1
n1740__1_3_1_1,n1740__1_3_1_1_1
n1741__1_3_1_1,n1741__1_3_1_1_1
n1742__1_3_1_1,n1742__1_3_1_1_1
n1756__1_3_1_1,n1756__1_3_1_1_1
n1759__1_3_1_1,n1759__1_3_1_1_1
n1761__1_3_1_1,n1761__1_3_1_1_1
n1765__1_3_1_1,n1765__1_3_1_1_1
n1767__1_3_1_1,n1767__1_3_1_1_1
n1779__1_3_1_1,n1779__1_3_1_1_1
n1781__1_3_1_1,n1781__1_3_1_1_1
n1786__1_3_1_1,n1786__1_3_1_1_1
n1788__1_3_1_1,n1788__1_3_1_1_1
n1791__1_3_1_1,n1791__1_3_1_1_1
n1800__1_3_1_1,n1800__1_3_1_1_1
n1802__1_3_1_1,n1802__1_3_1_1_1
n1805__1_3_1_1,n1805__1_3_1_1_1
n1806__1_3_1_1,n1806__1_3_1_1_1
n1815__1_3_1_1,n1815__1_3_1_1_1
n1821__1_3_1_1,n1821__1_3_1_1_1
n1824__1_3_1_1,n1824__1_3_1_1_1
n1827__1_3_1_1,n1827__1_3_1_1_1
n1836__1_3_1_1,n1836__1_3_1_1_1
n1840__1_3_1_1,n1840__1_3_1_1_1
n1849__1_3_1_1,n1849__1_3_1_1_1
n1850__1_3_1_1,n1850__1_3_1_1_1
n1853__1_3_1_1,n1853__1_3_1_1_1
n1854__1_3_1_1,n1854__1_3_1_1_1
n1859__1_3_1_1,n1859__1_3_1_1_1
n1860__1_3_1_1,n1860__1_3_1_1_1
n1863__1_3_1_1,n1863__1_3_1_1_1
n1864__1_3_1_1,n1864__1_3_1_1_1
n1873__1_3_1_1,n1873__1_3_1_1_1
n1878__1_3_1_1,n1878__1_3_1_1_1
n1883__1_3_1_1,n1883__1_3_1_1_1
n1885__1_3_1_1,n1885__1_3_1_1_1
n1887__1_3_1_1,n1887__1_3_1_1_1
n1891__1_3_1_1,n1891__1_3_1_1_1
n1900__1_3_1_1,n1900__1_3_1_1_1
n1904__1_3_1_1,n1904__1_3_1_1_1
n1905__1_3_1_1,n1905__1_3_1_1_1
n1914__1_3_1_1,n1914__1_3_1_1_1
n1921__1_3_1_1,n1921__1_3_1_1_1
n1923__1_3_1_1,n1923__1_3_1_1_1
n1928__1_3_1_1,n1928__1_3_1_1_1
n1930__1_3_1_1,n1930__1_3_1_1_1
n1946__1_3_1_1,n1946__1_3_1_1_1
n1949__1_3_1_1,n1949__1_3_1_1_1
n1950__1_3_1_1,n1950__1_3_1_1_1
n1958__1_3_1_1,n1958__1_3_1_1_1
n1959__1_3_1_1,n1959__1_3_1_1_1
n1964__1_3_1_1,n1964__1_3_1_1_1
n1971__1_3_1_1,n1971__1_3_1_1_1
n1976__1_3_1_1,n1976__1_3_1_1_1
n1982__1_3_1_1,n1982__1_3_1_1_1
n1983__1_3_1_1,n1983__1_3_1_1_1
n1998__1_3_1_1,n1998__1_3_1_1_1
n1999__1_3_1_1,n1999__1_3_1_1_1
n2006__1_3_1_1,n2006__1_3_1_1_1
n2008__1_3_1_1,n2008__1_3_1_1_1
n2009__1_3_1_1,n2009__1_3_1_1_1
n2010__1_3_1_1,n2010__1_3_1_1_1
n2016__1_3_1_1,n2016__1_3_1_1_1
n2021__1_3_1_1,n2021__1_3_1_1_1
n2022__1_3_1_1,n2022__1_3_1_1_1
n2040__1_3_1_1,n2040__1_3_1_1_1
n2045__1_3_1_1,n2045__1_3_1_1_1
n2049__1_3_1_1,n2049__1_3_1_1_1
n2055__1_3_1_1,n2055__1_3_1_1_1
n2056__1_3_1_1,n2056__1_3_1_1_1
n2059__1_3_1_1,n2059__1_3_1_1_1
n2063__1_3_1_1,n2063__1_3_1_1_1
n2075__1_3_1_1,n2075__1_3_1_1_1
n2077__1_3_1_1,n2077__1_3_1_1_1
n2083__1_3_1_1,n2083__1_3_1_1_1
n2084__1_3_1_1,n2084__1_3_1_1_1
n2089__1_3_1_1,n2089__1_3_1_1_1
n2093__1_3_1_1,n2093__1_3_1_1_1
n2099__1_3_1_1,n2099__1_3_1_1_1
n2100__1_3_1_1,n2100__1_3_1_1_1
n2106__1_3_1_1,n2106__1_3_1_1_1
n2109__1_3_1_1,n2109__1_3_1_1_1
n2118__1_3_1_1,n2118__1_3_1_1_1
n2120__1_3_1_1,n2120__1_3_1_1_1
n2124__1_3_1_1,n2124__1_3_1_1_1
n2125__1_3_1_1,n2125__1_3_1_1_1
n2145__1_3_1_1,n2145__1_3_1_1_1
n2147__1_3_1_1,n2147__1_3_1_1_1
n2153__1_3_1_1,n2153__1_3_1_1_1
n2165__1_3_1_1,n2165__1_3_1_1_1
n2166__1_3_1_1,n2166__1_3_1_1_1
n2167__1_3_1_1,n2167__1_3_1_1_1
n2172__1_3_1_1,n2172__1_3_1_1_1
