n2376__1_3_1_1,n2376__1_3_1_1_6
n2378__1_3_1_1,n2378__1_3_1_1_6
n2383__1_3_1_1,n2383__1_3_1_1_6
n2385__1_3_1_1,n2385__1_3_1_1_6
n2387__1_3_1_1,n2387__1_3_1_1_6
n2389__1_3_1_1,n2389__1_3_1_1_7
n2391__1_3_1_1,n2391__1_3_1_1_6
n2392__1_3_1_1,n2392__1_3_1_1_4
n2393__1_3_1_1,n2393__1_3_1_1_5
n2394__1_3_1_1,n2394__1_3_1_1_7
n2397__1_3_1_1,n2397__1_3_1_1_7
n2399__1_3_1_1,n2399__1_3_1_1_9
n2400__1_3_1_1,n2400__1_3_1_1_6
n2402__1_3_1_1,n2402__1_3_1_1_7
n2403__1_3_1_1,n2403__1_3_1_1_7
n2406__1_3_1_1,n2406__1_3_1_1_8
n2407__1_3_1_1,n2407__1_3_1_1_5
n2408__1_3_1_1,n2408__1_3_1_1_7
n2409__1_3_1_1,n2409__1_3_1_1_6
n2412__1_3_1_1,n2412__1_3_1_1_6
n2416__1_3_1_1,n2416__1_3_1_1_6
n2422__1_3_1_1,n2422__1_3_1_1_7
n2423__1_3_1_1,n2423__1_3_1_1_7
n2425__1_3_1_1,n2425__1_3_1_1_7
n2429__1_3_1_1,n2429__1_3_1_1_6
n2432__1_3_1_1,n2432__1_3_1_1_7
n2433__1_3_1_1,n2433__1_3_1_1_9
n2434__1_3_1_1,n2434__1_3_1_1_5
n2436__1_3_1_1,n2436__1_3_1_1_7
n2437__1_3_1_1,n2437__1_3_1_1_9
n2438__1_3_1_1,n2438__1_3_1_1_7
n2439__1_3_1_1,n2439__1_3_1_1_6
n2440__1_3_1_1,n2440__1_3_1_1_7
n2445__1_3_1_1,n2445__1_3_1_1_7
n2446__1_3_1_1,n2446__1_3_1_1_7
n2447__1_3_1_1,n2447__1_3_1_1_5
n2448__1_3_1_1,n2448__1_3_1_1_7
n2450__1_3_1_1,n2450__1_3_1_1_7
n2451__1_3_1_1,n2451__1_3_1_1_6
n2453__1_3_1_1,n2453__1_3_1_1_7
n2454__1_3_1_1,n2454__1_3_1_1_5
n2455__1_3_1_1,n2455__1_3_1_1_5
n2456__1_3_1_1,n2456__1_3_1_1_6
n2459__1_3_1_1,n2459__1_3_1_1_6
n2462__1_3_1_1,n2462__1_3_1_1_5
n2469__1_3_1_1,n2469__1_3_1_1_8
n2473__1_3_1_1,n2473__1_3_1_1_6
n2474__1_3_1_1,n2474__1_3_1_1_5
n2475__1_3_1_1,n2475__1_3_1_1_5
n2476__1_3_1_1,n2476__1_3_1_1_6
n2478__1_3_1_1,n2478__1_3_1_1_8
n2479__1_3_1_1,n2479__1_3_1_1_7
n2482__1_3_1_1,n2482__1_3_1_1_6
n2483__1_3_1_1,n2483__1_3_1_1_7
n2485__1_3_1_1,n2485__1_3_1_1_9
n2486__1_3_1_1,n2486__1_3_1_1_7
n2487__1_3_1_1,n2487__1_3_1_1_8
n2488__1_3_1_1,n2488__1_3_1_1_5
n2491__1_3_1_1,n2491__1_3_1_1_6
n2492__1_3_1_1,n2492__1_3_1_1_6
n2493__1_3_1_1,n2493__1_3_1_1_6
n2494__1_3_1_1,n2494__1_3_1_1_6
n2497__1_3_1_1,n2497__1_3_1_1_5
n2500__1_3_1_1,n2500__1_3_1_1_8
n2501__1_3_1_1,n2501__1_3_1_1_5
n2502__1_3_1_1,n2502__1_3_1_1_6
n2505__1_3_1_1,n2505__1_3_1_1_8
n2508__1_3_1_1,n2508__1_3_1_1_7
n2509__1_3_1_1,n2509__1_3_1_1_7
n2512__1_3_1_1,n2512__1_3_1_1_7
n2513__1_3_1_1,n2513__1_3_1_1_7
n2514__1_3_1_1,n2514__1_3_1_1_5
n2517__1_3_1_1,n2517__1_3_1_1_6
n2518__1_3_1_1,n2518__1_3_1_1_7
n2520__1_3_1_1,n2520__1_3_1_1_8
n2522__1_3_1_1,n2522__1_3_1_1_6
n2524__1_3_1_1,n2524__1_3_1_1_6
n2525__1_3_1_1,n2525__1_3_1_1_7
n2528__1_3_1_1,n2528__1_3_1_1_6
n2531__1_3_1_1,n2531__1_3_1_1_5
n2533__1_3_1_1,n2533__1_3_1_1_6
n2538__1_3_1_1,n2538__1_3_1_1_5
n2539__1_3_1_1,n2539__1_3_1_1_6
n2542__1_3_1_1,n2542__1_3_1_1_7
n2547__1_3_1_1,n2547__1_3_1_1_7
n2548__1_3_1_1,n2548__1_3_1_1_7
n2549__1_3_1_1,n2549__1_3_1_1_6
n2550__1_3_1_1,n2550__1_3_1_1_5
n2551__1_3_1_1,n2551__1_3_1_1_5
n2552__1_3_1_1,n2552__1_3_1_1_6
n2553__1_3_1_1,n2553__1_3_1_1_5
n2556__1_3_1_1,n2556__1_3_1_1_8
n2558__1_3_1_1,n2558__1_3_1_1_5
n2559__1_3_1_1,n2559__1_3_1_1_6
n2560__1_3_1_1,n2560__1_3_1_1_7
n2561__1_3_1_1,n2561__1_3_1_1_6
n2563__1_3_1_1,n2563__1_3_1_1_8
n2564__1_3_1_1,n2564__1_3_1_1_6
n2568__1_3_1_1,n2568__1_3_1_1_6
n2573__1_3_1_1,n2573__1_3_1_1_7
n2574__1_3_1_1,n2574__1_3_1_1_7
n2575__1_3_1_1,n2575__1_3_1_1_6
n2576__1_3_1_1,n2576__1_3_1_1_5
n2578__1_3_1_1,n2578__1_3_1_1_6
n2579__1_3_1_1,n2579__1_3_1_1_6
n2584__1_3_1_1,n2584__1_3_1_1_6
n2585__1_3_1_1,n2585__1_3_1_1_6
n2586__1_3_1_1,n2586__1_3_1_1_7
n2588__1_3_1_1,n2588__1_3_1_1_5
n2592__1_3_1_1,n2592__1_3_1_1_7
n2593__1_3_1_1,n2593__1_3_1_1_6
n2594__1_3_1_1,n2594__1_3_1_1_7
n2596__1_3_1_1,n2596__1_3_1_1_6
n2597__1_3_1_1,n2597__1_3_1_1_9
n2598__1_3_1_1,n2598__1_3_1_1_5
n2599__1_3_1_1,n2599__1_3_1_1_8
n2602__1_3_1_1,n2602__1_3_1_1_7
n2604__1_3_1_1,n2604__1_3_1_1_6
n2605__1_3_1_1,n2605__1_3_1_1_6
n2607__1_3_1_1,n2607__1_3_1_1_6
n2609__1_3_1_1,n2609__1_3_1_1_6
n2612__1_3_1_1,n2612__1_3_1_1_7
n2614__1_3_1_1,n2614__1_3_1_1_6
n2615__1_3_1_1,n2615__1_3_1_1_6
n2619__1_3_1_1,n2619__1_3_1_1_7
n2620__1_3_1_1,n2620__1_3_1_1_5
n2623__1_3_1_1,n2623__1_3_1_1_6
n2625__1_3_1_1,n2625__1_3_1_1_6
n2627__1_3_1_1,n2627__1_3_1_1_7
n2634__1_3_1_1,n2634__1_3_1_1_8
n2635__1_3_1_1,n2635__1_3_1_1_7
n2636__1_3_1_1,n2636__1_3_1_1_5
n2637__1_3_1_1,n2637__1_3_1_1_6
n2639__1_3_1_1,n2639__1_3_1_1_6
n2647__1_3_1_1,n2647__1_3_1_1_8
n2660__1_3_1_1,n2660__1_3_1_1_6
n2661__1_3_1_1,n2661__1_3_1_1_7
n2662__1_3_1_1,n2662__1_3_1_1_4
n2668__1_3_1_1,n2668__1_3_1_1_8
n2669__1_3_1_1,n2669__1_3_1_1_7
n2671__1_3_1_1,n2671__1_3_1_1_6
n2672__1_3_1_1,n2672__1_3_1_1_5
n2675__1_3_1_1,n2675__1_3_1_1_7
n2676__1_3_1_1,n2676__1_3_1_1_8
n2677__1_3_1_1,n2677__1_3_1_1_7
n2682__1_3_1_1,n2682__1_3_1_1_7
n2686__1_3_1_1,n2686__1_3_1_1_7
n2688__1_3_1_1,n2688__1_3_1_1_7
n2690__1_3_1_1,n2690__1_3_1_1_7
n2692__1_3_1_1,n2692__1_3_1_1_6
n2693__1_3_1_1,n2693__1_3_1_1_8
n2695__1_3_1_1,n2695__1_3_1_1_8
n2696__1_3_1_1,n2696__1_3_1_1_7
n2697__1_3_1_1,n2697__1_3_1_1_5
n2699__1_3_1_1,n2699__1_3_1_1_6
n2702__1_3_1_1,n2702__1_3_1_1_6
n2703__1_3_1_1,n2703__1_3_1_1_8
n2704__1_3_1_1,n2704__1_3_1_1_6
n2705__1_3_1_1,n2705__1_3_1_1_5
n2707__1_3_1_1,n2707__1_3_1_1_7
n2713__1_3_1_1,n2713__1_3_1_1_5
n2715__1_3_1_1,n2715__1_3_1_1_6
n2716__1_3_1_1,n2716__1_3_1_1_5
n2719__1_3_1_1,n2719__1_3_1_1_7
n2720__1_3_1_1,n2720__1_3_1_1_5
n2721__1_3_1_1,n2721__1_3_1_1_7
n2723__1_3_1_1,n2723__1_3_1_1_7
n2726__1_3_1_1,n2726__1_3_1_1_7
n2728__1_3_1_1,n2728__1_3_1_1_6
n2730__1_3_1_1,n2730__1_3_1_1_7
n2731__1_3_1_1,n2731__1_3_1_1_4
n2732__1_3_1_1,n2732__1_3_1_1_7
n2734__1_3_1_1,n2734__1_3_1_1_6
n2735__1_3_1_1,n2735__1_3_1_1_5
n2741__1_3_1_1,n2741__1_3_1_1_7
n2744__1_3_1_1,n2744__1_3_1_1_7
n2745__1_3_1_1,n2745__1_3_1_1_8
n2748__1_3_1_1,n2748__1_3_1_1_4
n2755__1_3_1_1,n2755__1_3_1_1_5
n2757__1_3_1_1,n2757__1_3_1_1_7
n2758__1_3_1_1,n2758__1_3_1_1_5
n2759__1_3_1_1,n2759__1_3_1_1_7
n2762__1_3_1_1,n2762__1_3_1_1_7
n2763__1_3_1_1,n2763__1_3_1_1_7
n2767__1_3_1_1,n2767__1_3_1_1_5
n2769__1_3_1_1,n2769__1_3_1_1_7
n2773__1_3_1_1,n2773__1_3_1_1_6
n2775__1_3_1_1,n2775__1_3_1_1_7
n2776__1_3_1_1,n2776__1_3_1_1_7
n2780__1_3_1_1,n2780__1_3_1_1_9
n2782__1_3_1_1,n2782__1_3_1_1_9
n2784__1_3_1_1,n2784__1_3_1_1_6
n2785__1_3_1_1,n2785__1_3_1_1_8
n2787__1_3_1_1,n2787__1_3_1_1_6
n2788__1_3_1_1,n2788__1_3_1_1_6
n2793__1_3_1_1,n2793__1_3_1_1_7
n2794__1_3_1_1,n2794__1_3_1_1_5
n2797__1_3_1_1,n2797__1_3_1_1_7
n2798__1_3_1_1,n2798__1_3_1_1_8
n2801__1_3_1_1,n2801__1_3_1_1_7
n2807__1_3_1_1,n2807__1_3_1_1_6
n2808__1_3_1_1,n2808__1_3_1_1_7
n2810__1_3_1_1,n2810__1_3_1_1_6
n2811__1_3_1_1,n2811__1_3_1_1_7
n2812__1_3_1_1,n2812__1_3_1_1_5
n2813__1_3_1_1,n2813__1_3_1_1_7
n2814__1_3_1_1,n2814__1_3_1_1_6
n2816__1_3_1_1,n2816__1_3_1_1_9
n2817__1_3_1_1,n2817__1_3_1_1_5
n2819__1_3_1_1,n2819__1_3_1_1_8
n2826__1_3_1_1,n2826__1_3_1_1_6
n2831__1_3_1_1,n2831__1_3_1_1_8
n2832__1_3_1_1,n2832__1_3_1_1_6
n2833__1_3_1_1,n2833__1_3_1_1_7
n2834__1_3_1_1,n2834__1_3_1_1_7
n2835__1_3_1_1,n2835__1_3_1_1_6
n2836__1_3_1_1,n2836__1_3_1_1_6
n2837__1_3_1_1,n2837__1_3_1_1_6
n2838__1_3_1_1,n2838__1_3_1_1_9
n2839__1_3_1_1,n2839__1_3_1_1_6
n2840__1_3_1_1,n2840__1_3_1_1_7
n2841__1_3_1_1,n2841__1_3_1_1_6
n2842__1_3_1_1,n2842__1_3_1_1_7
n2844__1_3_1_1,n2844__1_3_1_1_7
n2847__1_3_1_1,n2847__1_3_1_1_6
n2850__1_3_1_1,n2850__1_3_1_1_6
n2853__1_3_1_1,n2853__1_3_1_1_7
n2857__1_3_1_1,n2857__1_3_1_1_7
n2858__1_3_1_1,n2858__1_3_1_1_7
n2860__1_3_1_1,n2860__1_3_1_1_8
n2862__1_3_1_1,n2862__1_3_1_1_7
n2864__1_3_1_1,n2864__1_3_1_1_6
n2865__1_3_1_1,n2865__1_3_1_1_6
n2866__1_3_1_1,n2866__1_3_1_1_7
n2867__1_3_1_1,n2867__1_3_1_1_6
n2870__1_3_1_1,n2870__1_3_1_1_6
n2878__1_3_1_1,n2878__1_3_1_1_7
n2880__1_3_1_1,n2880__1_3_1_1_8
n2883__1_3_1_1,n2883__1_3_1_1_6
n2884__1_3_1_1,n2884__1_3_1_1_8
n2886__1_3_1_1,n2886__1_3_1_1_7
n2888__1_3_1_1,n2888__1_3_1_1_6
n2890__1_3_1_1,n2890__1_3_1_1_6
n2891__1_3_1_1,n2891__1_3_1_1_7
n2892__1_3_1_1,n2892__1_3_1_1_5
n2893__1_3_1_1,n2893__1_3_1_1_7
n2896__1_3_1_1,n2896__1_3_1_1_7
n2904__1_3_1_1,n2904__1_3_1_1_7
n2906__1_3_1_1,n2906__1_3_1_1_7
n2907__1_3_1_1,n2907__1_3_1_1_5
n2913__1_3_1_1,n2913__1_3_1_1_5
n2914__1_3_1_1,n2914__1_3_1_1_7
n2918__1_3_1_1,n2918__1_3_1_1_8
n2925__1_3_1_1,n2925__1_3_1_1_7
n2926__1_3_1_1,n2926__1_3_1_1_7
n2927__1_3_1_1,n2927__1_3_1_1_4
n2931__1_3_1_1,n2931__1_3_1_1_7
n2934__1_3_1_1,n2934__1_3_1_1_7
n2935__1_3_1_1,n2935__1_3_1_1_7
n2936__1_3_1_1,n2936__1_3_1_1_5
n2940__1_3_1_1,n2940__1_3_1_1_6
n2943__1_3_1_1,n2943__1_3_1_1_7
n2944__1_3_1_1,n2944__1_3_1_1_5
n2947__1_3_1_1,n2947__1_3_1_1_7
n2948__1_3_1_1,n2948__1_3_1_1_7
n2952__1_3_1_1,n2952__1_3_1_1_6
n2953__1_3_1_1,n2953__1_3_1_1_6
n2954__1_3_1_1,n2954__1_3_1_1_8
n2955__1_3_1_1,n2955__1_3_1_1_6
n2956__1_3_1_1,n2956__1_3_1_1_6
n2958__1_3_1_1,n2958__1_3_1_1_7
n2962__1_3_1_1,n2962__1_3_1_1_6
n2967__1_3_1_1,n2967__1_3_1_1_5
n2968__1_3_1_1,n2968__1_3_1_1_5
n2972__1_3_1_1,n2972__1_3_1_1_7
n2973__1_3_1_1,n2973__1_3_1_1_6
n2974__1_3_1_1,n2974__1_3_1_1_7
n2977__1_3_1_1,n2977__1_3_1_1_6
n2978__1_3_1_1,n2978__1_3_1_1_6
n2980__1_3_1_1,n2980__1_3_1_1_5
n2981__1_3_1_1,n2981__1_3_1_1_5
n2983__1_3_1_1,n2983__1_3_1_1_8
n2985__1_3_1_1,n2985__1_3_1_1_6
n2989__1_3_1_1,n2989__1_3_1_1_7
n2997__1_3_1_1,n2997__1_3_1_1_6
n2999__1_3_1_1,n2999__1_3_1_1_5
n3002__1_3_1_1,n3002__1_3_1_1_9
n3003__1_3_1_1,n3003__1_3_1_1_7
n3004__1_3_1_1,n3004__1_3_1_1_5
n3005__1_3_1_1,n3005__1_3_1_1_8
n3010__1_3_1_1,n3010__1_3_1_1_5
n3012__1_3_1_1,n3012__1_3_1_1_7
n3013__1_3_1_1,n3013__1_3_1_1_6
n3014__1_3_1_1,n3014__1_3_1_1_6
n3015__1_3_1_1,n3015__1_3_1_1_6
n3016__1_3_1_1,n3016__1_3_1_1_8
n3018__1_3_1_1,n3018__1_3_1_1_6
n3023__1_3_1_1,n3023__1_3_1_1_7
n3025__1_3_1_1,n3025__1_3_1_1_7
n3026__1_3_1_1,n3026__1_3_1_1_5
n3029__1_3_1_1,n3029__1_3_1_1_8
n3036__1_3_1_1,n3036__1_3_1_1_5
n3042__1_3_1_1,n3042__1_3_1_1_5
n3045__1_3_1_1,n3045__1_3_1_1_5
n3050__1_3_1_1,n3050__1_3_1_1_9
n3051__1_3_1_1,n3051__1_3_1_1_8
n3053__1_3_1_1,n3053__1_3_1_1_9
n3054__1_3_1_1,n3054__1_3_1_1_7
n3065__1_3_1_1,n3065__1_3_1_1_6
n3066__1_3_1_1,n3066__1_3_1_1_6
n3068__1_3_1_1,n3068__1_3_1_1_5
n3069__1_3_1_1,n3069__1_3_1_1_7
n3070__1_3_1_1,n3070__1_3_1_1_7
n3071__1_3_1_1,n3071__1_3_1_1_6
n3073__1_3_1_1,n3073__1_3_1_1_7
n3077__1_3_1_1,n3077__1_3_1_1_6
n3078__1_3_1_1,n3078__1_3_1_1_6
n3079__1_3_1_1,n3079__1_3_1_1_7
n3081__1_3_1_1,n3081__1_3_1_1_6
n3087__1_3_1_1,n3087__1_3_1_1_7
n3088__1_3_1_1,n3088__1_3_1_1_7
n3089__1_3_1_1,n3089__1_3_1_1_6
n3091__1_3_1_1,n3091__1_3_1_1_6
n3093__1_3_1_1,n3093__1_3_1_1_6
n3094__1_3_1_1,n3094__1_3_1_1_8
n3096__1_3_1_1,n3096__1_3_1_1_6
n3097__1_3_1_1,n3097__1_3_1_1_7
n3101__1_3_1_1,n3101__1_3_1_1_6
n3103__1_3_1_1,n3103__1_3_1_1_7
n3106__1_3_1_1,n3106__1_3_1_1_6
n3111__1_3_1_1,n3111__1_3_1_1_8
n3114__1_3_1_1,n3114__1_3_1_1_5
n3115__1_3_1_1,n3115__1_3_1_1_5
n3118__1_3_1_1,n3118__1_3_1_1_6
n3119__1_3_1_1,n3119__1_3_1_1_5
n3122__1_3_1_1,n3122__1_3_1_1_5
n3124__1_3_1_1,n3124__1_3_1_1_6
n3126__1_3_1_1,n3126__1_3_1_1_6
n3128__1_3_1_1,n3128__1_3_1_1_7
n3129__1_3_1_1,n3129__1_3_1_1_5
n3133__1_3_1_1,n3133__1_3_1_1_6
n3134__1_3_1_1,n3134__1_3_1_1_7
n3135__1_3_1_1,n3135__1_3_1_1_8
n3138__1_3_1_1,n3138__1_3_1_1_6
n3141__1_3_1_1,n3141__1_3_1_1_8
n3142__1_3_1_1,n3142__1_3_1_1_6
n3147__1_3_1_1,n3147__1_3_1_1_6
n3149__1_3_1_1,n3149__1_3_1_1_6
n3150__1_3_1_1,n3150__1_3_1_1_7
n3151__1_3_1_1,n3151__1_3_1_1_6
n3152__1_3_1_1,n3152__1_3_1_1_4
n3156__1_3_1_1,n3156__1_3_1_1_5
n3160__1_3_1_1,n3160__1_3_1_1_7
n3164__1_3_1_1,n3164__1_3_1_1_7
n3165__1_3_1_1,n3165__1_3_1_1_7
n3166__1_3_1_1,n3166__1_3_1_1_7
n3168__1_3_1_1,n3168__1_3_1_1_6
n3172__1_3_1_1,n3172__1_3_1_1_7
n3173__1_3_1_1,n3173__1_3_1_1_7
n3176__1_3_1_1,n3176__1_3_1_1_8
n3177__1_3_1_1,n3177__1_3_1_1_6
n3178__1_3_1_1,n3178__1_3_1_1_7
n3179__1_3_1_1,n3179__1_3_1_1_6
n3181__1_3_1_1,n3181__1_3_1_1_8
n3188__1_3_1_1,n3188__1_3_1_1_7
n3189__1_3_1_1,n3189__1_3_1_1_5
n3190__1_3_1_1,n3190__1_3_1_1_6
n3196__1_3_1_1,n3196__1_3_1_1_7
n3198__1_3_1_1,n3198__1_3_1_1_6
n3199__1_3_1_1,n3199__1_3_1_1_5
n3203__1_3_1_1,n3203__1_3_1_1_6
n3206__1_3_1_1,n3206__1_3_1_1_4
n3209__1_3_1_1,n3209__1_3_1_1_6
n3210__1_3_1_1,n3210__1_3_1_1_8
n3215__1_3_1_1,n3215__1_3_1_1_8
n3216__1_3_1_1,n3216__1_3_1_1_7
n3217__1_3_1_1,n3217__1_3_1_1_8
n3219__1_3_1_1,n3219__1_3_1_1_8
n3220__1_3_1_1,n3220__1_3_1_1_6
n3221__1_3_1_1,n3221__1_3_1_1_6
n3223__1_3_1_1,n3223__1_3_1_1_7
n3233__1_3_1_1,n3233__1_3_1_1_7
n3236__1_3_1_1,n3236__1_3_1_1_7
n3237__1_3_1_1,n3237__1_3_1_1_5
n3246__1_3_1_1,n3246__1_3_1_1_6
n3248__1_3_1_1,n3248__1_3_1_1_7
n3249__1_3_1_1,n3249__1_3_1_1_7
n3250__1_3_1_1,n3250__1_3_1_1_4
n3251__1_3_1_1,n3251__1_3_1_1_5
n3253__1_3_1_1,n3253__1_3_1_1_7
n3254__1_3_1_1,n3254__1_3_1_1_7
n3256__1_3_1_1,n3256__1_3_1_1_8
n3258__1_3_1_1,n3258__1_3_1_1_9
n3259__1_3_1_1,n3259__1_3_1_1_5
n3261__1_3_1_1,n3261__1_3_1_1_8
n3263__1_3_1_1,n3263__1_3_1_1_5
n3265__1_3_1_1,n3265__1_3_1_1_8
n3266__1_3_1_1,n3266__1_3_1_1_6
n3267__1_3_1_1,n3267__1_3_1_1_5
n3268__1_3_1_1,n3268__1_3_1_1_5
n3272__1_3_1_1,n3272__1_3_1_1_8
n3273__1_3_1_1,n3273__1_3_1_1_8
n3274__1_3_1_1,n3274__1_3_1_1_5
n3275__1_3_1_1,n3275__1_3_1_1_8
n3279__1_3_1_1,n3279__1_3_1_1_6
n3280__1_3_1_1,n3280__1_3_1_1_7
n3285__1_3_1_1,n3285__1_3_1_1_6
n3286__1_3_1_1,n3286__1_3_1_1_6
n3287__1_3_1_1,n3287__1_3_1_1_6
n3294__1_3_1_1,n3294__1_3_1_1_7
n3297__1_3_1_1,n3297__1_3_1_1_8
n3300__1_3_1_1,n3300__1_3_1_1_6
n3304__1_3_1_1,n3304__1_3_1_1_7
n3305__1_3_1_1,n3305__1_3_1_1_5
n3306__1_3_1_1,n3306__1_3_1_1_6
n3309__1_3_1_1,n3309__1_3_1_1_8
n3311__1_3_1_1,n3311__1_3_1_1_8
n3313__1_3_1_1,n3313__1_3_1_1_6
n3317__1_3_1_1,n3317__1_3_1_1_6
n3321__1_3_1_1,n3321__1_3_1_1_8
n3322__1_3_1_1,n3322__1_3_1_1_8
n3323__1_3_1_1,n3323__1_3_1_1_6
n3324__1_3_1_1,n3324__1_3_1_1_4
n3325__1_3_1_1,n3325__1_3_1_1_9
n3328__1_3_1_1,n3328__1_3_1_1_4
n3331__1_3_1_1,n3331__1_3_1_1_8
n3332__1_3_1_1,n3332__1_3_1_1_7
n3334__1_3_1_1,n3334__1_3_1_1_6
n3336__1_3_1_1,n3336__1_3_1_1_6
n3339__1_3_1_1,n3339__1_3_1_1_9
n3340__1_3_1_1,n3340__1_3_1_1_6
n3342__1_3_1_1,n3342__1_3_1_1_8
n3344__1_3_1_1,n3344__1_3_1_1_6
n3350__1_3_1_1,n3350__1_3_1_1_6
n3351__1_3_1_1,n3351__1_3_1_1_6
n3352__1_3_1_1,n3352__1_3_1_1_5
n3357__1_3_1_1,n3357__1_3_1_1_5
n3358__1_3_1_1,n3358__1_3_1_1_7
n3359__1_3_1_1,n3359__1_3_1_1_5
n3361__1_3_1_1,n3361__1_3_1_1_7
n3362__1_3_1_1,n3362__1_3_1_1_7
n3364__1_3_1_1,n3364__1_3_1_1_8
n3366__1_3_1_1,n3366__1_3_1_1_5
n3368__1_3_1_1,n3368__1_3_1_1_6
n3369__1_3_1_1,n3369__1_3_1_1_5
n3374__1_3_1_1,n3374__1_3_1_1_7
n3375__1_3_1_1,n3375__1_3_1_1_7
n3376__1_3_1_1,n3376__1_3_1_1_5
n3377__1_3_1_1,n3377__1_3_1_1_5
n3378__1_3_1_1,n3378__1_3_1_1_6
n3379__1_3_1_1,n3379__1_3_1_1_4
n3380__1_3_1_1,n3380__1_3_1_1_6
n3383__1_3_1_1,n3383__1_3_1_1_6
n3387__1_3_1_1,n3387__1_3_1_1_6
n3399__1_3_1_1,n3399__1_3_1_1_8
n3400__1_3_1_1,n3400__1_3_1_1_6
n3401__1_3_1_1,n3401__1_3_1_1_8
n3402__1_3_1_1,n3402__1_3_1_1_7
n3405__1_3_1_1,n3405__1_3_1_1_8
n3409__1_3_1_1,n3409__1_3_1_1_6
n3413__1_3_1_1,n3413__1_3_1_1_9
n3414__1_3_1_1,n3414__1_3_1_1_8
n3417__1_3_1_1,n3417__1_3_1_1_4
n3419__1_3_1_1,n3419__1_3_1_1_7
n3423__1_3_1_1,n3423__1_3_1_1_5
n3425__1_3_1_1,n3425__1_3_1_1_5
n3431__1_3_1_1,n3431__1_3_1_1_4
n3435__1_3_1_1,n3435__1_3_1_1_6
n3436__1_3_1_1,n3436__1_3_1_1_7
n3437__1_3_1_1,n3437__1_3_1_1_6
n3438__1_3_1_1,n3438__1_3_1_1_7
n3440__1_3_1_1,n3440__1_3_1_1_7
n3443__1_3_1_1,n3443__1_3_1_1_5
n3445__1_3_1_1,n3445__1_3_1_1_6
n3446__1_3_1_1,n3446__1_3_1_1_7
n3447__1_3_1_1,n3447__1_3_1_1_7
n3448__1_3_1_1,n3448__1_3_1_1_6
n3452__1_3_1_1,n3452__1_3_1_1_8
n3453__1_3_1_1,n3453__1_3_1_1_5
n3456__1_3_1_1,n3456__1_3_1_1_7
n3458__1_3_1_1,n3458__1_3_1_1_7
n3460__1_3_1_1,n3460__1_3_1_1_6
n3462__1_3_1_1,n3462__1_3_1_1_6
n3465__1_3_1_1,n3465__1_3_1_1_7
n3467__1_3_1_1,n3467__1_3_1_1_7
n3468__1_3_1_1,n3468__1_3_1_1_7
n3469__1_3_1_1,n3469__1_3_1_1_8
n3470__1_3_1_1,n3470__1_3_1_1_8
n3473__1_3_1_1,n3473__1_3_1_1_7
n3478__1_3_1_1,n3478__1_3_1_1_5
n3479__1_3_1_1,n3479__1_3_1_1_5
n3480__1_3_1_1,n3480__1_3_1_1_9
n3481__1_3_1_1,n3481__1_3_1_1_5
n3482__1_3_1_1,n3482__1_3_1_1_6
n3484__1_3_1_1,n3484__1_3_1_1_6
n3487__1_3_1_1,n3487__1_3_1_1_6
n3488__1_3_1_1,n3488__1_3_1_1_6
n3490__1_3_1_1,n3490__1_3_1_1_7
n3492__1_3_1_1,n3492__1_3_1_1_6
n3494__1_3_1_1,n3494__1_3_1_1_7
n3502__1_3_1_1,n3502__1_3_1_1_9
n3503__1_3_1_1,n3503__1_3_1_1_7
n3504__1_3_1_1,n3504__1_3_1_1_6
n3508__1_3_1_1,n3508__1_3_1_1_7
n3509__1_3_1_1,n3509__1_3_1_1_7
n3516__1_3_1_1,n3516__1_3_1_1_5
n3521__1_3_1_1,n3521__1_3_1_1_9
n3523__1_3_1_1,n3523__1_3_1_1_5
n3524__1_3_1_1,n3524__1_3_1_1_4
n3531__1_3_1_1,n3531__1_3_1_1_6
n3536__1_3_1_1,n3536__1_3_1_1_7
n3537__1_3_1_1,n3537__1_3_1_1_8
n3538__1_3_1_1,n3538__1_3_1_1_6
n3540__1_3_1_1,n3540__1_3_1_1_4
n3541__1_3_1_1,n3541__1_3_1_1_5
n3542__1_3_1_1,n3542__1_3_1_1_6
n3544__1_3_1_1,n3544__1_3_1_1_6
n3546__1_3_1_1,n3546__1_3_1_1_8
n3550__1_3_1_1,n3550__1_3_1_1_4
n3552__1_3_1_1,n3552__1_3_1_1_7
n3554__1_3_1_1,n3554__1_3_1_1_6
n3559__1_3_1_1,n3559__1_3_1_1_6
n3560__1_3_1_1,n3560__1_3_1_1_8
n3561__1_3_1_1,n3561__1_3_1_1_7
n3562__1_3_1_1,n3562__1_3_1_1_7
n3563__1_3_1_1,n3563__1_3_1_1_7
n3568__1_3_1_1,n3568__1_3_1_1_7
n3571__1_3_1_1,n3571__1_3_1_1_8
n3572__1_3_1_1,n3572__1_3_1_1_8
n3574__1_3_1_1,n3574__1_3_1_1_6
n3576__1_3_1_1,n3576__1_3_1_1_5
n3580__1_3_1_1,n3580__1_3_1_1_6
n3583__1_3_1_1,n3583__1_3_1_1_8
n3584__1_3_1_1,n3584__1_3_1_1_6
n3585__1_3_1_1,n3585__1_3_1_1_7
n3590__1_3_1_1,n3590__1_3_1_1_7
n3591__1_3_1_1,n3591__1_3_1_1_5
n3596__1_3_1_1,n3596__1_3_1_1_9
n3601__1_3_1_1,n3601__1_3_1_1_6
n3603__1_3_1_1,n3603__1_3_1_1_7
n3612__1_3_1_1,n3612__1_3_1_1_6
n3614__1_3_1_1,n3614__1_3_1_1_8
n3615__1_3_1_1,n3615__1_3_1_1_7
n3617__1_3_1_1,n3617__1_3_1_1_6
n3618__1_3_1_1,n3618__1_3_1_1_6
n3621__1_3_1_1,n3621__1_3_1_1_6
n3624__1_3_1_1,n3624__1_3_1_1_5
n3627__1_3_1_1,n3627__1_3_1_1_6
n3628__1_3_1_1,n3628__1_3_1_1_5
n3629__1_3_1_1,n3629__1_3_1_1_6
n3631__1_3_1_1,n3631__1_3_1_1_6
n3633__1_3_1_1,n3633__1_3_1_1_7
n3635__1_3_1_1,n3635__1_3_1_1_6
n3636__1_3_1_1,n3636__1_3_1_1_7
n3638__1_3_1_1,n3638__1_3_1_1_6
n3641__1_3_1_1,n3641__1_3_1_1_6
n3648__1_3_1_1,n3648__1_3_1_1_8
n3651__1_3_1_1,n3651__1_3_1_1_8
n3654__1_3_1_1,n3654__1_3_1_1_5
n3655__1_3_1_1,n3655__1_3_1_1_6
n3657__1_3_1_1,n3657__1_3_1_1_7
n3661__1_3_1_1,n3661__1_3_1_1_6
n3662__1_3_1_1,n3662__1_3_1_1_6
n3666__1_3_1_1,n3666__1_3_1_1_5
n3667__1_3_1_1,n3667__1_3_1_1_7
n3669__1_3_1_1,n3669__1_3_1_1_6
n3670__1_3_1_1,n3670__1_3_1_1_5
n3672__1_3_1_1,n3672__1_3_1_1_6
n3673__1_3_1_1,n3673__1_3_1_1_6
n3675__1_3_1_1,n3675__1_3_1_1_7
n3677__1_3_1_1,n3677__1_3_1_1_5
n3681__1_3_1_1,n3681__1_3_1_1_8
n3682__1_3_1_1,n3682__1_3_1_1_8
n3684__1_3_1_1,n3684__1_3_1_1_6
n3685__1_3_1_1,n3685__1_3_1_1_8
n3687__1_3_1_1,n3687__1_3_1_1_6
n3689__1_3_1_1,n3689__1_3_1_1_6
n3690__1_3_1_1,n3690__1_3_1_1_7
n3694__1_3_1_1,n3694__1_3_1_1_7
n3695__1_3_1_1,n3695__1_3_1_1_5
n3698__1_3_1_1,n3698__1_3_1_1_9
n3699__1_3_1_1,n3699__1_3_1_1_7
n3701__1_3_1_1,n3701__1_3_1_1_7
n3703__1_3_1_1,n3703__1_3_1_1_7
n3704__1_3_1_1,n3704__1_3_1_1_5
n3708__1_3_1_1,n3708__1_3_1_1_6
n3711__1_3_1_1,n3711__1_3_1_1_4
n3713__1_3_1_1,n3713__1_3_1_1_9
n3719__1_3_1_1,n3719__1_3_1_1_9
n3722__1_3_1_1,n3722__1_3_1_1_6
n3723__1_3_1_1,n3723__1_3_1_1_5
n3728__1_3_1_1,n3728__1_3_1_1_8
n3729__1_3_1_1,n3729__1_3_1_1_8
n3731__1_3_1_1,n3731__1_3_1_1_6
n3739__1_3_1_1,n3739__1_3_1_1_9
n3742__1_3_1_1,n3742__1_3_1_1_9
n3744__1_3_1_1,n3744__1_3_1_1_6
n3746__1_3_1_1,n3746__1_3_1_1_7
n3748__1_3_1_1,n3748__1_3_1_1_8
n3749__1_3_1_1,n3749__1_3_1_1_6
n3750__1_3_1_1,n3750__1_3_1_1_6
n3757__1_3_1_1,n3757__1_3_1_1_5
n3761__1_3_1_1,n3761__1_3_1_1_7
n3763__1_3_1_1,n3763__1_3_1_1_6
n3766__1_3_1_1,n3766__1_3_1_1_5
n3767__1_3_1_1,n3767__1_3_1_1_5
n3770__1_3_1_1,n3770__1_3_1_1_9
n3773__1_3_1_1,n3773__1_3_1_1_6
n3779__1_3_1_1,n3779__1_3_1_1_7
n3780__1_3_1_1,n3780__1_3_1_1_7
n3781__1_3_1_1,n3781__1_3_1_1_6
n3783__1_3_1_1,n3783__1_3_1_1_7
n3785__1_3_1_1,n3785__1_3_1_1_5
n3787__1_3_1_1,n3787__1_3_1_1_6
n3789__1_3_1_1,n3789__1_3_1_1_5
n3793__1_3_1_1,n3793__1_3_1_1_6
n3794__1_3_1_1,n3794__1_3_1_1_5
n3797__1_3_1_1,n3797__1_3_1_1_8
n3799__1_3_1_1,n3799__1_3_1_1_8
n3800__1_3_1_1,n3800__1_3_1_1_8
n3801__1_3_1_1,n3801__1_3_1_1_6
n3803__1_3_1_1,n3803__1_3_1_1_7
n3813__1_3_1_1,n3813__1_3_1_1_6
n3817__1_3_1_1,n3817__1_3_1_1_7
n3821__1_3_1_1,n3821__1_3_1_1_5
n3822__1_3_1_1,n3822__1_3_1_1_5
n3825__1_3_1_1,n3825__1_3_1_1_8
n3826__1_3_1_1,n3826__1_3_1_1_5
n3827__1_3_1_1,n3827__1_3_1_1_6
n3828__1_3_1_1,n3828__1_3_1_1_8
n3832__1_3_1_1,n3832__1_3_1_1_6
n3833__1_3_1_1,n3833__1_3_1_1_6
n3834__1_3_1_1,n3834__1_3_1_1_7
n3835__1_3_1_1,n3835__1_3_1_1_6
n3837__1_3_1_1,n3837__1_3_1_1_6
n3849__1_3_1_1,n3849__1_3_1_1_8
n3852__1_3_1_1,n3852__1_3_1_1_7
n3854__1_3_1_1,n3854__1_3_1_1_6
n3857__1_3_1_1,n3857__1_3_1_1_5
n3858__1_3_1_1,n3858__1_3_1_1_7
n3859__1_3_1_1,n3859__1_3_1_1_8
n3860__1_3_1_1,n3860__1_3_1_1_4
n3865__1_3_1_1,n3865__1_3_1_1_7
n3870__1_3_1_1,n3870__1_3_1_1_5
n3872__1_3_1_1,n3872__1_3_1_1_5
n3877__1_3_1_1,n3877__1_3_1_1_6
n3883__1_3_1_1,n3883__1_3_1_1_8
n3884__1_3_1_1,n3884__1_3_1_1_6
n3888__1_3_1_1,n3888__1_3_1_1_8
n3893__1_3_1_1,n3893__1_3_1_1_5
n3895__1_3_1_1,n3895__1_3_1_1_7
n3896__1_3_1_1,n3896__1_3_1_1_5
n3897__1_3_1_1,n3897__1_3_1_1_6
n3898__1_3_1_1,n3898__1_3_1_1_6
n3903__1_3_1_1,n3903__1_3_1_1_4
n3905__1_3_1_1,n3905__1_3_1_1_6
n3908__1_3_1_1,n3908__1_3_1_1_7
n3916__1_3_1_1,n3916__1_3_1_1_7
n3917__1_3_1_1,n3917__1_3_1_1_5
n3918__1_3_1_1,n3918__1_3_1_1_9
n3919__1_3_1_1,n3919__1_3_1_1_6
n3920__1_3_1_1,n3920__1_3_1_1_6
n3921__1_3_1_1,n3921__1_3_1_1_5
n3923__1_3_1_1,n3923__1_3_1_1_7
n3925__1_3_1_1,n3925__1_3_1_1_6
n3927__1_3_1_1,n3927__1_3_1_1_7
n3928__1_3_1_1,n3928__1_3_1_1_5
n3929__1_3_1_1,n3929__1_3_1_1_6
n3931__1_3_1_1,n3931__1_3_1_1_6
n3933__1_3_1_1,n3933__1_3_1_1_8
n3936__1_3_1_1,n3936__1_3_1_1_6
n3937__1_3_1_1,n3937__1_3_1_1_6
n3939__1_3_1_1,n3939__1_3_1_1_7
n3941__1_3_1_1,n3941__1_3_1_1_5
n3943__1_3_1_1,n3943__1_3_1_1_6
n3948__1_3_1_1,n3948__1_3_1_1_5
n3953__1_3_1_1,n3953__1_3_1_1_8
n3956__1_3_1_1,n3956__1_3_1_1_6
n3959__1_3_1_1,n3959__1_3_1_1_9
n3962__1_3_1_1,n3962__1_3_1_1_6
n3964__1_3_1_1,n3964__1_3_1_1_7
n3967__1_3_1_1,n3967__1_3_1_1_8
n3968__1_3_1_1,n3968__1_3_1_1_6
n3970__1_3_1_1,n3970__1_3_1_1_6
n3972__1_3_1_1,n3972__1_3_1_1_8
n3974__1_3_1_1,n3974__1_3_1_1_5
n3975__1_3_1_1,n3975__1_3_1_1_6
n3976__1_3_1_1,n3976__1_3_1_1_8
n3977__1_3_1_1,n3977__1_3_1_1_7
n3981__1_3_1_1,n3981__1_3_1_1_5
n3984__1_3_1_1,n3984__1_3_1_1_7
n3986__1_3_1_1,n3986__1_3_1_1_7
n3988__1_3_1_1,n3988__1_3_1_1_6
n3990__1_3_1_1,n3990__1_3_1_1_8
n3996__1_3_1_1,n3996__1_3_1_1_8
n3999__1_3_1_1,n3999__1_3_1_1_6
n4001__1_3_1_1,n4001__1_3_1_1_6
n4006__1_3_1_1,n4006__1_3_1_1_5
n4007__1_3_1_1,n4007__1_3_1_1_6
n4010__1_3_1_1,n4010__1_3_1_1_5
n4013__1_3_1_1,n4013__1_3_1_1_6
n4016__1_3_1_1,n4016__1_3_1_1_5
n4017__1_3_1_1,n4017__1_3_1_1_7
n4018__1_3_1_1,n4018__1_3_1_1_7
n4020__1_3_1_1,n4020__1_3_1_1_8
n4022__1_3_1_1,n4022__1_3_1_1_9
n4024__1_3_1_1,n4024__1_3_1_1_8
n4026__1_3_1_1,n4026__1_3_1_1_7
n4031__1_3_1_1,n4031__1_3_1_1_6
n4033__1_3_1_1,n4033__1_3_1_1_7
n4038__1_3_1_1,n4038__1_3_1_1_9
n4039__1_3_1_1,n4039__1_3_1_1_5
n4040__1_3_1_1,n4040__1_3_1_1_8
n4042__1_3_1_1,n4042__1_3_1_1_7
n4047__1_3_1_1,n4047__1_3_1_1_7
n4049__1_3_1_1,n4049__1_3_1_1_6
n4051__1_3_1_1,n4051__1_3_1_1_7
n4052__1_3_1_1,n4052__1_3_1_1_7
n4054__1_3_1_1,n4054__1_3_1_1_6
n4058__1_3_1_1,n4058__1_3_1_1_6
n4061__1_3_1_1,n4061__1_3_1_1_8
n4063__1_3_1_1,n4063__1_3_1_1_7
n4065__1_3_1_1,n4065__1_3_1_1_6
n4069__1_3_1_1,n4069__1_3_1_1_4
n4070__1_3_1_1,n4070__1_3_1_1_4
n4071__1_3_1_1,n4071__1_3_1_1_6
n4072__1_3_1_1,n4072__1_3_1_1_6
n4073__1_3_1_1,n4073__1_3_1_1_5
n4074__1_3_1_1,n4074__1_3_1_1_4
n4079__1_3_1_1,n4079__1_3_1_1_7
n4080__1_3_1_1,n4080__1_3_1_1_7
n4082__1_3_1_1,n4082__1_3_1_1_8
n4088__1_3_1_1,n4088__1_3_1_1_6
n4090__1_3_1_1,n4090__1_3_1_1_7
n4091__1_3_1_1,n4091__1_3_1_1_9
n4092__1_3_1_1,n4092__1_3_1_1_6
n4093__1_3_1_1,n4093__1_3_1_1_5
n4094__1_3_1_1,n4094__1_3_1_1_5
n4098__1_3_1_1,n4098__1_3_1_1_6
n4099__1_3_1_1,n4099__1_3_1_1_4
n4102__1_3_1_1,n4102__1_3_1_1_6
n4103__1_3_1_1,n4103__1_3_1_1_7
n4104__1_3_1_1,n4104__1_3_1_1_8
n4105__1_3_1_1,n4105__1_3_1_1_5
n4108__1_3_1_1,n4108__1_3_1_1_6
n4113__1_3_1_1,n4113__1_3_1_1_7
n4114__1_3_1_1,n4114__1_3_1_1_5
n4116__1_3_1_1,n4116__1_3_1_1_7
n4119__1_3_1_1,n4119__1_3_1_1_7
n4120__1_3_1_1,n4120__1_3_1_1_5
n4123__1_3_1_1,n4123__1_3_1_1_7
n4125__1_3_1_1,n4125__1_3_1_1_6
n4126__1_3_1_1,n4126__1_3_1_1_7
n4128__1_3_1_1,n4128__1_3_1_1_7
n4131__1_3_1_1,n4131__1_3_1_1_7
n4132__1_3_1_1,n4132__1_3_1_1_6
n4139__1_3_1_1,n4139__1_3_1_1_8
n4140__1_3_1_1,n4140__1_3_1_1_8
n4141__1_3_1_1,n4141__1_3_1_1_6
n4143__1_3_1_1,n4143__1_3_1_1_7
n4144__1_3_1_1,n4144__1_3_1_1_8
n4148__1_3_1_1,n4148__1_3_1_1_6
n4151__1_3_1_1,n4151__1_3_1_1_6
n4153__1_3_1_1,n4153__1_3_1_1_8
n4157__1_3_1_1,n4157__1_3_1_1_6
n4165__1_3_1_1,n4165__1_3_1_1_7
n4167__1_3_1_1,n4167__1_3_1_1_5
n4168__1_3_1_1,n4168__1_3_1_1_5
n4169__1_3_1_1,n4169__1_3_1_1_7
n4172__1_3_1_1,n4172__1_3_1_1_6
n4173__1_3_1_1,n4173__1_3_1_1_7
n4176__1_3_1_1,n4176__1_3_1_1_7
n4178__1_3_1_1,n4178__1_3_1_1_8
n4181__1_3_1_1,n4181__1_3_1_1_5
n4183__1_3_1_1,n4183__1_3_1_1_6
n4185__1_3_1_1,n4185__1_3_1_1_5
n4186__1_3_1_1,n4186__1_3_1_1_8
n4187__1_3_1_1,n4187__1_3_1_1_7
n4189__1_3_1_1,n4189__1_3_1_1_6
n4192__1_3_1_1,n4192__1_3_1_1_8
n4193__1_3_1_1,n4193__1_3_1_1_6
n4197__1_3_1_1,n4197__1_3_1_1_7
n4203__1_3_1_1,n4203__1_3_1_1_6
n4204__1_3_1_1,n4204__1_3_1_1_5
n4206__1_3_1_1,n4206__1_3_1_1_8
n4207__1_3_1_1,n4207__1_3_1_1_8
n4215__1_3_1_1,n4215__1_3_1_1_7
n4217__1_3_1_1,n4217__1_3_1_1_5
n4220__1_3_1_1,n4220__1_3_1_1_9
n4227__1_3_1_1,n4227__1_3_1_1_5
n4230__1_3_1_1,n4230__1_3_1_1_6
n4231__1_3_1_1,n4231__1_3_1_1_7
n4232__1_3_1_1,n4232__1_3_1_1_6
n4233__1_3_1_1,n4233__1_3_1_1_6
n4235__1_3_1_1,n4235__1_3_1_1_8
n4236__1_3_1_1,n4236__1_3_1_1_8
n4237__1_3_1_1,n4237__1_3_1_1_8
n4238__1_3_1_1,n4238__1_3_1_1_5
n4241__1_3_1_1,n4241__1_3_1_1_5
n4242__1_3_1_1,n4242__1_3_1_1_5
n4243__1_3_1_1,n4243__1_3_1_1_7
n4244__1_3_1_1,n4244__1_3_1_1_5
n4246__1_3_1_1,n4246__1_3_1_1_5
n4247__1_3_1_1,n4247__1_3_1_1_7
n4250__1_3_1_1,n4250__1_3_1_1_6
n4252__1_3_1_1,n4252__1_3_1_1_5
n4253__1_3_1_1,n4253__1_3_1_1_7
n4254__1_3_1_1,n4254__1_3_1_1_6
n4260__1_3_1_1,n4260__1_3_1_1_7
n4261__1_3_1_1,n4261__1_3_1_1_6
n4263__1_3_1_1,n4263__1_3_1_1_8
n4264__1_3_1_1,n4264__1_3_1_1_7
n4265__1_3_1_1,n4265__1_3_1_1_7
n4267__1_3_1_1,n4267__1_3_1_1_9
n4268__1_3_1_1,n4268__1_3_1_1_6
n4269__1_3_1_1,n4269__1_3_1_1_7
n4271__1_3_1_1,n4271__1_3_1_1_8
n4272__1_3_1_1,n4272__1_3_1_1_7
n4273__1_3_1_1,n4273__1_3_1_1_9
n4276__1_3_1_1,n4276__1_3_1_1_6
n4277__1_3_1_1,n4277__1_3_1_1_8
n4280__1_3_1_1,n4280__1_3_1_1_6
n4282__1_3_1_1,n4282__1_3_1_1_6
n4286__1_3_1_1,n4286__1_3_1_1_8
n4290__1_3_1_1,n4290__1_3_1_1_7
n4292__1_3_1_1,n4292__1_3_1_1_8
n4295__1_3_1_1,n4295__1_3_1_1_7
n4297__1_3_1_1,n4297__1_3_1_1_8
n4303__1_3_1_1,n4303__1_3_1_1_6
n4307__1_3_1_1,n4307__1_3_1_1_5
n4308__1_3_1_1,n4308__1_3_1_1_8
n4309__1_3_1_1,n4309__1_3_1_1_8
n4310__1_3_1_1,n4310__1_3_1_1_5
n4311__1_3_1_1,n4311__1_3_1_1_6
n4312__1_3_1_1,n4312__1_3_1_1_5
n4318__1_3_1_1,n4318__1_3_1_1_7
n4319__1_3_1_1,n4319__1_3_1_1_7
n4320__1_3_1_1,n4320__1_3_1_1_7
n4321__1_3_1_1,n4321__1_3_1_1_8
n4323__1_3_1_1,n4323__1_3_1_1_7
n4325__1_3_1_1,n4325__1_3_1_1_5
n4327__1_3_1_1,n4327__1_3_1_1_8
n4328__1_3_1_1,n4328__1_3_1_1_9
n4329__1_3_1_1,n4329__1_3_1_1_7
n4330__1_3_1_1,n4330__1_3_1_1_5
n4332__1_3_1_1,n4332__1_3_1_1_4
n4334__1_3_1_1,n4334__1_3_1_1_5
n4335__1_3_1_1,n4335__1_3_1_1_7
n4337__1_3_1_1,n4337__1_3_1_1_5
n4339__1_3_1_1,n4339__1_3_1_1_5
n4340__1_3_1_1,n4340__1_3_1_1_6
n4343__1_3_1_1,n4343__1_3_1_1_8
n4345__1_3_1_1,n4345__1_3_1_1_7
n4346__1_3_1_1,n4346__1_3_1_1_7
n4348__1_3_1_1,n4348__1_3_1_1_8
n4349__1_3_1_1,n4349__1_3_1_1_5
n4350__1_3_1_1,n4350__1_3_1_1_5
n4354__1_3_1_1,n4354__1_3_1_1_8
n4355__1_3_1_1,n4355__1_3_1_1_5
n4362__1_3_1_1,n4362__1_3_1_1_9
n4365__1_3_1_1,n4365__1_3_1_1_6
n4367__1_3_1_1,n4367__1_3_1_1_7
n4372__1_3_1_1,n4372__1_3_1_1_5
n4374__1_3_1_1,n4374__1_3_1_1_7
n4375__1_3_1_1,n4375__1_3_1_1_7
n4377__1_3_1_1,n4377__1_3_1_1_7
n4380__1_3_1_1,n4380__1_3_1_1_5
n4381__1_3_1_1,n4381__1_3_1_1_8
n4385__1_3_1_1,n4385__1_3_1_1_5
n4386__1_3_1_1,n4386__1_3_1_1_8
n4388__1_3_1_1,n4388__1_3_1_1_9
n4390__1_3_1_1,n4390__1_3_1_1_8
n4392__1_3_1_1,n4392__1_3_1_1_7
n4393__1_3_1_1,n4393__1_3_1_1_6
n4394__1_3_1_1,n4394__1_3_1_1_6
n4395__1_3_1_1,n4395__1_3_1_1_7
n4398__1_3_1_1,n4398__1_3_1_1_7
n4403__1_3_1_1,n4403__1_3_1_1_6
n4405__1_3_1_1,n4405__1_3_1_1_7
n4407__1_3_1_1,n4407__1_3_1_1_8
n4408__1_3_1_1,n4408__1_3_1_1_6
n4409__1_3_1_1,n4409__1_3_1_1_5
n4410__1_3_1_1,n4410__1_3_1_1_7
n4412__1_3_1_1,n4412__1_3_1_1_5
n4414__1_3_1_1,n4414__1_3_1_1_7
n4415__1_3_1_1,n4415__1_3_1_1_6
n4416__1_3_1_1,n4416__1_3_1_1_4
n4417__1_3_1_1,n4417__1_3_1_1_8
n4420__1_3_1_1,n4420__1_3_1_1_6
n4421__1_3_1_1,n4421__1_3_1_1_7
n4429__1_3_1_1,n4429__1_3_1_1_9
n4430__1_3_1_1,n4430__1_3_1_1_6
n4433__1_3_1_1,n4433__1_3_1_1_6
n4434__1_3_1_1,n4434__1_3_1_1_6
n4436__1_3_1_1,n4436__1_3_1_1_6
n4439__1_3_1_1,n4439__1_3_1_1_6
n4440__1_3_1_1,n4440__1_3_1_1_8
n4443__1_3_1_1,n4443__1_3_1_1_8
n4444__1_3_1_1,n4444__1_3_1_1_8
n4447__1_3_1_1,n4447__1_3_1_1_7
n4448__1_3_1_1,n4448__1_3_1_1_7
n4452__1_3_1_1,n4452__1_3_1_1_5
n4454__1_3_1_1,n4454__1_3_1_1_5
n4456__1_3_1_1,n4456__1_3_1_1_7
n4457__1_3_1_1,n4457__1_3_1_1_6
n4459__1_3_1_1,n4459__1_3_1_1_8
n4461__1_3_1_1,n4461__1_3_1_1_8
n4464__1_3_1_1,n4464__1_3_1_1_8
n4465__1_3_1_1,n4465__1_3_1_1_6
n4471__1_3_1_1,n4471__1_3_1_1_7
n4472__1_3_1_1,n4472__1_3_1_1_6
n4474__1_3_1_1,n4474__1_3_1_1_7
n4479__1_3_1_1,n4479__1_3_1_1_6
n4481__1_3_1_1,n4481__1_3_1_1_6
n4482__1_3_1_1,n4482__1_3_1_1_6
n4483__1_3_1_1,n4483__1_3_1_1_5
n4488__1_3_1_1,n4488__1_3_1_1_5
n4496__1_3_1_1,n4496__1_3_1_1_8
n4498__1_3_1_1,n4498__1_3_1_1_7
n4499__1_3_1_1,n4499__1_3_1_1_7
n4501__1_3_1_1,n4501__1_3_1_1_7
n4503__1_3_1_1,n4503__1_3_1_1_7
n4509__1_3_1_1,n4509__1_3_1_1_5
n4510__1_3_1_1,n4510__1_3_1_1_7
n4511__1_3_1_1,n4511__1_3_1_1_7
n4514__1_3_1_1,n4514__1_3_1_1_6
n4517__1_3_1_1,n4517__1_3_1_1_7
n4518__1_3_1_1,n4518__1_3_1_1_8
n4521__1_3_1_1,n4521__1_3_1_1_5
n4522__1_3_1_1,n4522__1_3_1_1_7
n4525__1_3_1_1,n4525__1_3_1_1_8
n4531__1_3_1_1,n4531__1_3_1_1_7
n4533__1_3_1_1,n4533__1_3_1_1_5
n4534__1_3_1_1,n4534__1_3_1_1_7
n4538__1_3_1_1,n4538__1_3_1_1_7
n4539__1_3_1_1,n4539__1_3_1_1_4
n4540__1_3_1_1,n4540__1_3_1_1_6
n4541__1_3_1_1,n4541__1_3_1_1_5
n4542__1_3_1_1,n4542__1_3_1_1_7
n4545__1_3_1_1,n4545__1_3_1_1_6
n4548__1_3_1_1,n4548__1_3_1_1_6
n4549__1_3_1_1,n4549__1_3_1_1_8
n4553__1_3_1_1,n4553__1_3_1_1_5
n4554__1_3_1_1,n4554__1_3_1_1_6
n4555__1_3_1_1,n4555__1_3_1_1_6
n4556__1_3_1_1,n4556__1_3_1_1_6
n4559__1_3_1_1,n4559__1_3_1_1_5
n4560__1_3_1_1,n4560__1_3_1_1_7
n4562__1_3_1_1,n4562__1_3_1_1_6
n4563__1_3_1_1,n4563__1_3_1_1_6
n4566__1_3_1_1,n4566__1_3_1_1_6
n4571__1_3_1_1,n4571__1_3_1_1_5
n4575__1_3_1_1,n4575__1_3_1_1_7
n4580__1_3_1_1,n4580__1_3_1_1_7
n4581__1_3_1_1,n4581__1_3_1_1_5
n4584__1_3_1_1,n4584__1_3_1_1_7
n4585__1_3_1_1,n4585__1_3_1_1_6
n4588__1_3_1_1,n4588__1_3_1_1_8
n4589__1_3_1_1,n4589__1_3_1_1_7
n4590__1_3_1_1,n4590__1_3_1_1_6
n4591__1_3_1_1,n4591__1_3_1_1_7
n4593__1_3_1_1,n4593__1_3_1_1_6
n4600__1_3_1_1,n4600__1_3_1_1_7
n4601__1_3_1_1,n4601__1_3_1_1_6
n4605__1_3_1_1,n4605__1_3_1_1_8
n4606__1_3_1_1,n4606__1_3_1_1_6
n4608__1_3_1_1,n4608__1_3_1_1_6
n4611__1_3_1_1,n4611__1_3_1_1_6
n4613__1_3_1_1,n4613__1_3_1_1_6
n4614__1_3_1_1,n4614__1_3_1_1_6
n4616__1_3_1_1,n4616__1_3_1_1_5
n4617__1_3_1_1,n4617__1_3_1_1_5
n4620__1_3_1_1,n4620__1_3_1_1_6
n4622__1_3_1_1,n4622__1_3_1_1_7
n4624__1_3_1_1,n4624__1_3_1_1_8
n4625__1_3_1_1,n4625__1_3_1_1_7
n4628__1_3_1_1,n4628__1_3_1_1_7
n4630__1_3_1_1,n4630__1_3_1_1_7
n4631__1_3_1_1,n4631__1_3_1_1_5
n4634__1_3_1_1,n4634__1_3_1_1_6
n4636__1_3_1_1,n4636__1_3_1_1_6
n4637__1_3_1_1,n4637__1_3_1_1_8
n4638__1_3_1_1,n4638__1_3_1_1_6
n4640__1_3_1_1,n4640__1_3_1_1_5
n4643__1_3_1_1,n4643__1_3_1_1_8
n4644__1_3_1_1,n4644__1_3_1_1_4
n4645__1_3_1_1,n4645__1_3_1_1_6
n4646__1_3_1_1,n4646__1_3_1_1_6
n4647__1_3_1_1,n4647__1_3_1_1_6
n4650__1_3_1_1,n4650__1_3_1_1_6
n4656__1_3_1_1,n4656__1_3_1_1_5
n4658__1_3_1_1,n4658__1_3_1_1_5
n4662__1_3_1_1,n4662__1_3_1_1_6
n4664__1_3_1_1,n4664__1_3_1_1_7
n4665__1_3_1_1,n4665__1_3_1_1_7
n4671__1_3_1_1,n4671__1_3_1_1_5
n4672__1_3_1_1,n4672__1_3_1_1_7
n4673__1_3_1_1,n4673__1_3_1_1_7
n4676__1_3_1_1,n4676__1_3_1_1_6
n4677__1_3_1_1,n4677__1_3_1_1_6
n4678__1_3_1_1,n4678__1_3_1_1_7
n4685__1_3_1_1,n4685__1_3_1_1_6
n4686__1_3_1_1,n4686__1_3_1_1_8
n4687__1_3_1_1,n4687__1_3_1_1_6
n4688__1_3_1_1,n4688__1_3_1_1_8
n4689__1_3_1_1,n4689__1_3_1_1_5
n4691__1_3_1_1,n4691__1_3_1_1_7
n4693__1_3_1_1,n4693__1_3_1_1_7
n4694__1_3_1_1,n4694__1_3_1_1_8
n4701__1_3_1_1,n4701__1_3_1_1_6
n4705__1_3_1_1,n4705__1_3_1_1_6
n4706__1_3_1_1,n4706__1_3_1_1_8
n4714__1_3_1_1,n4714__1_3_1_1_7
n4716__1_3_1_1,n4716__1_3_1_1_7
n4717__1_3_1_1,n4717__1_3_1_1_7
n4718__1_3_1_1,n4718__1_3_1_1_5
n4719__1_3_1_1,n4719__1_3_1_1_6
n4720__1_3_1_1,n4720__1_3_1_1_6
n4721__1_3_1_1,n4721__1_3_1_1_7
n4722__1_3_1_1,n4722__1_3_1_1_8
n4724__1_3_1_1,n4724__1_3_1_1_6
n4726__1_3_1_1,n4726__1_3_1_1_7
n4729__1_3_1_1,n4729__1_3_1_1_6
n4732__1_3_1_1,n4732__1_3_1_1_6
n4735__1_3_1_1,n4735__1_3_1_1_6
n4738__1_3_1_1,n4738__1_3_1_1_6
n4740__1_3_1_1,n4740__1_3_1_1_9
n4741__1_3_1_1,n4741__1_3_1_1_8
n4744__1_3_1_1,n4744__1_3_1_1_8
n4745__1_3_1_1,n4745__1_3_1_1_9
n4747__1_3_1_1,n4747__1_3_1_1_5
n4751__1_3_1_1,n4751__1_3_1_1_5
n4752__1_3_1_1,n4752__1_3_1_1_9
n4753__1_3_1_1,n4753__1_3_1_1_7
n4754__1_3_1_1,n4754__1_3_1_1_5
n4755__1_3_1_1,n4755__1_3_1_1_6
n4757__1_3_1_1,n4757__1_3_1_1_6
n4758__1_3_1_1,n4758__1_3_1_1_8
n4768__1_3_1_1,n4768__1_3_1_1_5
n4769__1_3_1_1,n4769__1_3_1_1_7
n4775__1_3_1_1,n4775__1_3_1_1_6
n4779__1_3_1_1,n4779__1_3_1_1_7
n4780__1_3_1_1,n4780__1_3_1_1_6
n4782__1_3_1_1,n4782__1_3_1_1_8
n4783__1_3_1_1,n4783__1_3_1_1_5
n4784__1_3_1_1,n4784__1_3_1_1_5
n4785__1_3_1_1,n4785__1_3_1_1_8
n4788__1_3_1_1,n4788__1_3_1_1_7
n4789__1_3_1_1,n4789__1_3_1_1_8
n4793__1_3_1_1,n4793__1_3_1_1_6
n4795__1_3_1_1,n4795__1_3_1_1_5
n4800__1_3_1_1,n4800__1_3_1_1_8
n4806__1_3_1_1,n4806__1_3_1_1_6
n4807__1_3_1_1,n4807__1_3_1_1_7
n4815__1_3_1_1,n4815__1_3_1_1_5
n4816__1_3_1_1,n4816__1_3_1_1_6
n4824__1_3_1_1,n4824__1_3_1_1_5
n4825__1_3_1_1,n4825__1_3_1_1_7
n4826__1_3_1_1,n4826__1_3_1_1_8
n4828__1_3_1_1,n4828__1_3_1_1_5
n4830__1_3_1_1,n4830__1_3_1_1_5
n4831__1_3_1_1,n4831__1_3_1_1_7
n4832__1_3_1_1,n4832__1_3_1_1_7
n4833__1_3_1_1,n4833__1_3_1_1_7
n4834__1_3_1_1,n4834__1_3_1_1_6
n4838__1_3_1_1,n4838__1_3_1_1_6
n4841__1_3_1_1,n4841__1_3_1_1_5
n4842__1_3_1_1,n4842__1_3_1_1_7
n4847__1_3_1_1,n4847__1_3_1_1_5
n4850__1_3_1_1,n4850__1_3_1_1_7
n4853__1_3_1_1,n4853__1_3_1_1_8
n4858__1_3_1_1,n4858__1_3_1_1_6
n4859__1_3_1_1,n4859__1_3_1_1_7
n4861__1_3_1_1,n4861__1_3_1_1_8
n4863__1_3_1_1,n4863__1_3_1_1_6
n4868__1_3_1_1,n4868__1_3_1_1_8
n4870__1_3_1_1,n4870__1_3_1_1_8
n4872__1_3_1_1,n4872__1_3_1_1_5
n4873__1_3_1_1,n4873__1_3_1_1_6
n4879__1_3_1_1,n4879__1_3_1_1_5
n4880__1_3_1_1,n4880__1_3_1_1_6
n4881__1_3_1_1,n4881__1_3_1_1_6
n4883__1_3_1_1,n4883__1_3_1_1_7
n4884__1_3_1_1,n4884__1_3_1_1_8
n4885__1_3_1_1,n4885__1_3_1_1_5
n4886__1_3_1_1,n4886__1_3_1_1_5
n4888__1_3_1_1,n4888__1_3_1_1_6
n4889__1_3_1_1,n4889__1_3_1_1_6
n4892__1_3_1_1,n4892__1_3_1_1_6
n4895__1_3_1_1,n4895__1_3_1_1_6
n4896__1_3_1_1,n4896__1_3_1_1_7
n4897__1_3_1_1,n4897__1_3_1_1_6
n4899__1_3_1_1,n4899__1_3_1_1_6
n4900__1_3_1_1,n4900__1_3_1_1_7
n4901__1_3_1_1,n4901__1_3_1_1_8
n4904__1_3_1_1,n4904__1_3_1_1_7
n4906__1_3_1_1,n4906__1_3_1_1_7
n4907__1_3_1_1,n4907__1_3_1_1_7
n4910__1_3_1_1,n4910__1_3_1_1_7
n4911__1_3_1_1,n4911__1_3_1_1_6
n4914__1_3_1_1,n4914__1_3_1_1_5
n4916__1_3_1_1,n4916__1_3_1_1_5
n4917__1_3_1_1,n4917__1_3_1_1_7
