{"dblp.personWithHomePage.url": {"$elemMatch": {"#text": {"$exists": true}}}}
{"dblp.personWithHomePage.url": {"$exists": true}}
{"dblp.www.title": {"$eq": "Home Page"}, "dblp.www.author": {"$elemMatch": {"#text": {"$exists": true}}}, "dblp.www.url": {"$exists": true}}
{"dblp.www.title": {"$eq": "Home Page"}, "dblp.www.author": {"$exists": true}, "dblp.www.url": {"$elemMatch": {"#text": {"$exists": true}}}}
{"dblp.www.title": {"$eq": "Home Page"}, "dblp.www.author": {"$elemMatch": {"#text": {"$exists": true}}}, "dblp.www.url": {"$elemMatch": {"#text": {"$exists": true}}}}
{"dblp.www.title": {"$eq": "Home Page"}, "dblp.www.author": {"$exists": true}, "dblp.www.url": {"$exists": true}}
